1, 3, 1, 8, 0, 1, 0, 1, 18, 1, 2, 32
2, 2, 1, 8, 0, 1, 0, 1, 0, 1, 2, 14
3, 2, 1, 8, 0, 1, 0, 1, 0, 1, 2, 14
4, 2, 1, 8, 0, 1, 0, 1, 0, 1, 2, 14
5, 2, 1, 8, 0, 1, 0, 1, 0, 1, 2, 14
6, 2, 1, 8, 0, 1, 0, 1, 0, 1, 2, 14
7, 3, 1, 8, 0, 1, 0, 1, 18, 1, 2, 32
8, 2, 1, 8, 0, 1, 0, 1, 0, 1, 2, 14
9, 2, 1, 8, 0, 1, 0, 1, 0, 1, 2, 14
10, 2, 1, 8, 0, 1, 0, 1, 0, 1, 2, 14
11, 2, 1, 8, 0, 1, 0, 1, 0, 1, 2, 14
12, 2, 1, 8, 0, 1, 0, 1, 9, 1, 2, 23
13, 2, 1, 8, 0, 1, 0, 1, 0, 1, 2, 14
14, 2, 1, 8, 0, 1, 0, 1, 0, 1, 2, 14
15, 2, 1, 8, 0, 1, 0, 1, 0, 1, 2, 14
16, 2, 1, 8, 0, 1, 0, 1, 9, 1, 2, 23
17, 2, 1, 8, 0, 1, 0, 1, 0, 1, 2, 14
18, 3, 1, 8, 0, 1, 0, 1, 9, 1, 2, 23
19, 2, 1, 8, 0, 1, 0, 1, 0, 1, 2, 14
20, 2, 1, 8, 0, 1, 0, 1, 0, 1, 2, 14
21, 3, 1, 8, 0, 1, 0, 1, 18, 1, 2, 32
22, 2, 1, 8, 0, 1, 0, 1, 0, 1, 2, 14
23, 2, 1, 8, 0, 1, 0, 1, 0, 1, 2, 14
24, 3, 1, 8, 0, 1, 0, 1, 18, 1, 2, 32
25, 2, 1, 8, 0, 1, 0, 1, 0, 1, 2, 14
26, 2, 1, 8, 0, 1, 0, 1, 0, 1, 2, 14
27, 2, 1, 8, 0, 1, 0, 1, 0, 1, 2, 14
28, 3, 1, 8, 0, 1, 0, 1, 18, 1, 2, 32
29, 2, 1, 8, 0, 1, 0, 1, 0, 1, 2, 14
30, 2, 1, 8, 0, 1, 0, 1, 0, 1, 2, 14
31, 3, 1, 8, 0, 1, 0, 1, 18, 1, 2, 32
32, 2, 1, 8, 0, 1, 0, 1, 0, 1, 2, 14
33, 2, 1, 8, 0, 1, 0, 1, 0, 1, 2, 14
34, 2, 1, 8, 0, 1, 0, 1, 0, 1, 2, 14
35, 3, 1, 8, 0, 1, 0, 1, 18, 1, 2, 32
36, 2, 1, 8, 0, 1, 0, 1, 0, 1, 2, 14
37, 2, 1, 8, 0, 1, 0, 1, 0, 1, 2, 14
38, 2, 1, 8, 0, 1, 0, 1, 0, 1, 2, 14
39, 2, 1, 8, 0, 1, 0, 1, 0, 1, 2, 14
40, 3, 1, 8, 0, 1, 0, 1, 18, 1, 2, 32
41, 2, 1, 8, 0, 1, 0, 1, 0, 1, 2, 14
42, 2, 1, 8, 0, 1, 0, 1, 0, 1, 2, 14
43, 2, 1, 8, 0, 1, 0, 1, 0, 1, 2, 14
44, 2, 1, 8, 0, 1, 0, 1, 0, 1, 2, 14
45, 3, 1, 8, 0, 1, 0, 1, 18, 1, 2, 32
46, 2, 1, 8, 0, 1, 0, 1, 0, 1, 2, 14
47, 2, 1, 8, 0, 1, 0, 1, 0, 1, 2, 14
48, 2, 1, 8, 0, 1, 0, 1, 0, 1, 2, 14
49, 3, 1, 8, 0, 1, 0, 1, 18, 1, 2, 32
50, 2, 1, 8, 0, 1, 0, 1, 0, 1, 2, 14
51, 2, 1, 8, 0, 1, 0, 1, 0, 1, 2, 14
52, 2, 1, 8, 0, 1, 0, 1, 0, 1, 2, 14
53, 3, 1, 8, 0, 1, 0, 1, 18, 1, 2, 32
54, 2, 1, 8, 0, 1, 0, 1, 0, 1, 2, 14
55, 2, 1, 8, 0, 1, 0, 1, 0, 1, 2, 14
56, 3, 1, 8, 0, 1, 0, 1, 18, 1, 2, 32
57, 2, 1, 8, 0, 1, 0, 1, 0, 1, 2, 14
58, 2, 1, 8, 0, 1, 0, 1, 0, 1, 2, 14
59, 3, 1, 8, 0, 1, 0, 1, 18, 1, 2, 32
60, 2, 1, 8, 0, 1, 0, 1, 0, 1, 2, 14
61, 2, 1, 8, 0, 1, 0, 1, 0, 1, 2, 14
62, 2, 1, 8, 0, 1, 0, 1, 0, 1, 2, 14
63, 3, 1, 8, 0, 1, 0, 1, 18, 1, 2, 32
64, 2, 1, 8, 0, 1, 0, 1, 0, 1, 2, 14
65, 2, 1, 8, 0, 1, 0, 1, 0, 1, 2, 14
66, 2, 1, 8, 0, 1, 0, 1, 0, 1, 2, 14
67, 3, 1, 8, 0, 1, 0, 1, 18, 1, 2, 32
68, 2, 1, 8, 0, 1, 0, 1, 0, 1, 2, 14
69, 2, 1, 8, 0, 1, 0, 1, 0, 1, 2, 14
70, 3, 1, 8, 0, 1, 0, 1, 18, 1, 2, 32
71, 2, 1, 8, 0, 1, 0, 1, 0, 1, 2, 14
72, 2, 1, 8, 0, 1, 0, 1, 0, 1, 2, 14
73, 3, 1, 8, 0, 1, 0, 1, 18, 1, 2, 32
74, 2, 1, 8, 0, 1, 0, 1, 0, 1, 2, 14
75, 2, 1, 8, 0, 1, 0, 1, 0, 1, 2, 14
76, 3, 1, 8, 0, 1, 0, 1, 18, 1, 2, 32
77, 2, 1, 8, 0, 1, 0, 1, 0, 1, 2, 14
78, 2, 1, 8, 0, 1, 0, 1, 0, 1, 2, 14
79, 3, 1, 8, 0, 1, 0, 1, 18, 1, 2, 32
80, 2, 1, 8, 0, 1, 0, 1, 0, 1, 2, 14
81, 2, 1, 8, 0, 1, 0, 1, 0, 1, 2, 14
82, 3, 1, 8, 0, 1, 0, 1, 18, 1, 2, 32
83, 2, 1, 8, 0, 1, 0, 1, 0, 1, 2, 14
84, 2, 1, 8, 0, 1, 0, 1, 0, 1, 2, 14
85, 3, 1, 8, 0, 1, 0, 1, 18, 1, 2, 32
86, 2, 1, 8, 0, 1, 0, 1, 0, 1, 2, 14
87, 2, 1, 8, 0, 1, 0, 1, 0, 1, 2, 14
88, 3, 1, 8, 0, 1, 0, 1, 18, 1, 2, 32
89, 2, 1, 8, 0, 1, 0, 1, 0, 1, 2, 14
90, 2, 1, 8, 0, 1, 0, 1, 0, 1, 2, 14
91, 3, 1, 8, 0, 1, 0, 1, 18, 1, 2, 32
92, 2, 1, 8, 0, 1, 0, 1, 0, 1, 2, 14
93, 2, 1, 8, 0, 1, 0, 1, 0, 1, 2, 14
94, 2, 1, 8, 0, 1, 0, 1, 0, 1, 2, 14
95, 3, 1, 8, 0, 1, 0, 1, 18, 1, 2, 32
96, 2, 1, 8, 0, 1, 0, 1, 0, 1, 2, 14
97, 2, 1, 8, 0, 1, 0, 1, 0, 1, 2, 14
98, 3, 1, 8, 0, 1, 0, 1, 18, 1, 2, 32
99, 2, 1, 8, 0, 1, 0, 1, 0, 1, 2, 14
100, 3, 1, 8, 0, 1, 0, 1, 18, 1, 2, 32
101, 2, 1, 8, 0, 1, 0, 1, 0, 1, 2, 14
102, 2, 1, 8, 0, 1, 0, 1, 0, 1, 2, 14
103, 3, 1, 8, 0, 1, 0, 1, 18, 1, 2, 32
104, 2, 1, 8, 0, 1, 0, 1, 0, 1, 2, 14
105, 2, 1, 8, 0, 1, 0, 1, 0, 1, 2, 14
106, 3, 1, 8, 0, 1, 0, 1, 18, 1, 2, 32
107, 2, 1, 8, 0, 1, 0, 1, 0, 1, 2, 14
108, 2, 1, 8, 0, 1, 0, 1, 0, 1, 2, 14
109, 2, 1, 8, 0, 1, 0, 1, 0, 1, 2, 14
110, 2, 1, 8, 0, 1, 0, 1, 0, 1, 2, 14
111, 2, 1, 8, 0, 1, 0, 1, 0, 1, 2, 14
112, 3, 1, 8, 0, 1, 0, 1, 18, 1, 2, 32
113, 2, 1, 8, 0, 1, 0, 1, 0, 1, 2, 14
114, 2, 1, 8, 0, 1, 0, 1, 0, 1, 2, 14
115, 2, 1, 8, 0, 1, 0, 1, 0, 1, 2, 14
116, 3, 1, 8, 0, 1, 0, 1, 18, 1, 2, 32
117, 2, 1, 8, 0, 1, 0, 1, 0, 1, 2, 14
118, 2, 1, 8, 0, 1, 0, 1, 0, 1, 2, 14
119, 2, 1, 8, 0, 1, 0, 1, 0, 1, 2, 14
120, 2, 1, 8, 0, 1, 0, 1, 0, 1, 2, 14
121, 3, 1, 8, 0, 1, 0, 1, 18, 1, 2, 32
122, 2, 1, 8, 0, 1, 0, 1, 0, 1, 2, 14
123, 2, 1, 8, 0, 1, 0, 1, 0, 1, 2, 14
124, 3, 1, 8, 0, 1, 0, 1, 18, 1, 2, 32
125, 2, 1, 8, 0, 1, 0, 1, 0, 1, 2, 14
126, 2, 1, 8, 0, 1, 0, 1, 0, 1, 2, 14
127, 2, 1, 8, 0, 1, 0, 1, 0, 1, 2, 14
128, 2, 1, 8, 0, 1, 0, 1, 9, 1, 2, 23
129, 2, 1, 8, 0, 1, 0, 1, 0, 1, 2, 14
130, 2, 1, 8, 0, 1, 0, 1, 0, 1, 2, 14
131, 3, 1, 8, 0, 1, 0, 1, 18, 1, 2, 32
132, 2, 1, 8, 0, 1, 0, 1, 0, 1, 2, 14
133, 2, 1, 8, 0, 1, 0, 1, 0, 1, 2, 14
134, 3, 1, 8, 0, 1, 0, 1, 9, 1, 2, 23
135, 2, 1, 8, 0, 1, 0, 1, 0, 1, 2, 14
136, 2, 1, 8, 0, 1, 0, 1, 0, 1, 2, 14
137, 3, 1, 8, 0, 1, 0, 1, 18, 1, 2, 32
138, 2, 1, 8, 0, 1, 0, 1, 0, 1, 2, 14
139, 2, 1, 8, 0, 1, 0, 1, 0, 1, 2, 14
140, 3, 1, 8, 0, 1, 0, 1, 18, 1, 2, 32
141, 2, 1, 8, 0, 1, 0, 1, 0, 1, 2, 14
142, 2, 1, 8, 0, 1, 0, 1, 0, 1, 2, 14
143, 3, 1, 8, 0, 1, 0, 1, 18, 1, 2, 32
144, 2, 1, 8, 0, 1, 0, 1, 0, 1, 2, 14
145, 2, 1, 8, 0, 1, 0, 1, 0, 1, 2, 14
146, 3, 1, 8, 0, 1, 0, 1, 18, 1, 2, 32
147, 2, 1, 8, 0, 1, 0, 1, 0, 1, 2, 14
148, 2, 1, 8, 0, 1, 0, 1, 0, 1, 2, 14
149, 3, 1, 8, 0, 1, 0, 1, 18, 1, 2, 32
150, 2, 1, 8, 0, 1, 0, 1, 0, 1, 2, 14
151, 2, 1, 8, 0, 1, 0, 1, 0, 1, 2, 14
152, 3, 1, 8, 0, 1, 0, 1, 18, 1, 2, 32
153, 2, 1, 8, 0, 1, 0, 1, 0, 1, 2, 14
154, 2, 1, 8, 0, 1, 0, 1, 0, 1, 2, 14
155, 3, 1, 8, 0, 1, 0, 1, 18, 1, 2, 32
156, 2, 1, 8, 0, 1, 0, 1, 0, 1, 2, 14
157, 2, 1, 8, 0, 1, 0, 1, 0, 1, 2, 14
158, 3, 1, 8, 0, 1, 0, 1, 18, 1, 2, 32
159, 2, 1, 8, 0, 1, 0, 1, 0, 1, 2, 14
160, 2, 1, 8, 0, 1, 0, 1, 0, 1, 2, 14
161, 3, 1, 8, 0, 1, 0, 1, 18, 1, 2, 32
162, 2, 1, 8, 0, 1, 0, 1, 0, 1, 2, 14
163, 2, 1, 8, 0, 1, 0, 1, 0, 1, 2, 14
164, 2, 1, 8, 0, 1, 0, 1, 0, 1, 2, 14
165, 3, 1, 8, 0, 1, 0, 1, 18, 1, 2, 32
166, 2, 1, 8, 0, 1, 0, 1, 0, 1, 2, 14
167, 2, 1, 8, 0, 1, 0, 1, 0, 1, 2, 14
168, 3, 1, 8, 0, 1, 0, 1, 18, 1, 2, 32
169, 2, 1, 8, 0, 1, 0, 1, 0, 1, 2, 14
170, 2, 1, 8, 0, 1, 0, 1, 0, 1, 2, 14
171, 3, 1, 8, 0, 1, 0, 1, 18, 1, 2, 32
172, 2, 1, 8, 0, 1, 0, 1, 0, 1, 2, 14
173, 2, 1, 8, 0, 1, 0, 1, 0, 1, 2, 14
174, 3, 1, 8, 0, 1, 0, 1, 18, 1, 2, 32
175, 2, 1, 8, 0, 1, 0, 1, 0, 1, 2, 14
176, 2, 1, 8, 0, 1, 0, 1, 0, 1, 2, 14
177, 3, 1, 8, 0, 1, 0, 1, 18, 1, 2, 32
178, 2, 1, 8, 0, 1, 0, 1, 0, 1, 2, 14
179, 2, 1, 8, 0, 1, 0, 1, 0, 1, 2, 14
180, 2, 1, 8, 0, 1, 0, 1, 0, 1, 2, 14
181, 2, 1, 8, 0, 1, 0, 1, 0, 1, 2, 14
182, 2, 1, 8, 0, 1, 0, 1, 0, 1, 2, 14
183, 2, 1, 8, 0, 1, 0, 1, 0, 1, 2, 14
184, 2, 1, 8, 0, 1, 0, 1, 0, 1, 2, 14
185, 3, 1, 8, 0, 1, 0, 1, 18, 1, 2, 32
186, 2, 1, 8, 0, 1, 0, 1, 0, 1, 2, 14
187, 2, 1, 8, 0, 1, 0, 1, 0, 1, 2, 14
188, 2, 1, 8, 0, 1, 0, 1, 0, 1, 2, 14
189, 2, 1, 8, 0, 1, 0, 1, 0, 1, 2, 14
190, 2, 1, 8, 0, 1, 0, 1, 0, 1, 2, 14
191, 3, 1, 8, 0, 1, 0, 1, 18, 1, 2, 32
192, 2, 1, 8, 0, 1, 0, 1, 0, 1, 2, 14
193, 2, 1, 8, 0, 1, 0, 1, 0, 1, 2, 14
194, 2, 1, 8, 0, 1, 0, 1, 0, 1, 2, 14
195, 2, 1, 8, 0, 1, 0, 1, 0, 1, 2, 14
196, 3, 1, 8, 0, 1, 0, 1, 18, 1, 2, 32
197, 2, 1, 8, 0, 1, 0, 1, 0, 1, 2, 14
198, 2, 1, 8, 0, 1, 0, 1, 0, 1, 2, 14
199, 2, 1, 8, 0, 1, 0, 1, 0, 1, 2, 14
200, 2, 1, 8, 0, 1, 0, 1, 9, 1, 2, 23
201, 2, 1, 8, 0, 1, 0, 1, 0, 1, 2, 14
202, 2, 1, 8, 0, 1, 0, 1, 0, 1, 2, 14
203, 3, 1, 8, 0, 1, 0, 1, 9, 1, 2, 23
204, 2, 1, 8, 0, 1, 0, 1, 0, 1, 2, 14
205, 2, 1, 8, 0, 1, 0, 1, 0, 1, 2, 14
206, 3, 1, 8, 0, 1, 0, 1, 18, 1, 2, 32
207, 2, 1, 8, 0, 1, 0, 1, 0, 1, 2, 14
208, 2, 1, 8, 0, 1, 0, 1, 0, 1, 2, 14
209, 3, 1, 8, 0, 1, 0, 1, 18, 1, 2, 32
210, 2, 1, 8, 0, 1, 0, 1, 0, 1, 2, 14
211, 2, 1, 8, 0, 1, 0, 1, 0, 1, 2, 14
212, 3, 1, 8, 0, 1, 0, 1, 18, 1, 2, 32
213, 2, 1, 8, 0, 1, 0, 1, 0, 1, 2, 14
214, 2, 1, 8, 0, 1, 0, 1, 0, 1, 2, 14
215, 3, 1, 8, 0, 1, 0, 1, 18, 1, 2, 32
216, 2, 1, 8, 0, 1, 0, 1, 0, 1, 2, 14
217, 2, 1, 8, 0, 1, 0, 1, 0, 1, 2, 14
218, 3, 1, 8, 0, 1, 0, 1, 18, 1, 2, 32
219, 2, 1, 8, 0, 1, 0, 1, 0, 1, 2, 14
220, 2, 1, 8, 0, 1, 0, 1, 0, 1, 2, 14
221, 3, 1, 8, 0, 1, 0, 1, 18, 1, 2, 32
222, 2, 1, 8, 0, 1, 0, 1, 0, 1, 2, 14
223, 2, 1, 8, 0, 1, 0, 1, 0, 1, 2, 14
224, 3, 1, 8, 0, 1, 0, 1, 18, 1, 2, 32
225, 2, 1, 8, 0, 1, 0, 1, 0, 1, 2, 14
226, 2, 1, 8, 0, 1, 0, 1, 0, 1, 2, 14
227, 3, 1, 8, 0, 1, 0, 1, 18, 1, 2, 32
228, 2, 1, 8, 0, 1, 0, 1, 0, 1, 2, 14
229, 2, 1, 8, 0, 1, 0, 1, 0, 1, 2, 14
230, 3, 1, 8, 0, 1, 0, 1, 18, 1, 2, 32
231, 2, 1, 8, 0, 1, 0, 1, 0, 1, 2, 14
232, 2, 1, 8, 0, 1, 0, 1, 0, 1, 2, 14
233, 2, 1, 8, 0, 1, 0, 1, 0, 1, 2, 14
234, 3, 1, 8, 0, 1, 0, 1, 18, 1, 2, 32
235, 2, 1, 8, 0, 1, 0, 1, 0, 1, 2, 14
236, 2, 1, 8, 0, 1, 0, 1, 0, 1, 2, 14
237, 2, 1, 8, 0, 1, 0, 1, 0, 1, 2, 14
238, 3, 1, 8, 0, 1, 0, 1, 18, 1, 2, 32
239, 2, 1, 8, 0, 1, 0, 1, 0, 1, 2, 14
240, 2, 1, 8, 0, 1, 0, 1, 0, 1, 2, 14
241, 3, 1, 8, 0, 1, 0, 1, 18, 1, 2, 32
242, 2, 1, 8, 0, 1, 0, 1, 0, 1, 2, 14
243, 2, 1, 8, 0, 1, 0, 1, 0, 1, 2, 14
244, 3, 1, 8, 0, 1, 0, 1, 18, 1, 2, 32
245, 2, 1, 8, 0, 1, 0, 1, 0, 1, 2, 14
246, 2, 1, 8, 0, 1, 0, 1, 0, 1, 2, 14
247, 3, 1, 8, 0, 1, 0, 1, 18, 1, 2, 32
248, 2, 1, 8, 0, 1, 0, 1, 0, 1, 2, 14
249, 2, 1, 8, 0, 1, 0, 1, 0, 1, 2, 14
250, 3, 1, 8, 0, 1, 0, 1, 18, 1, 2, 32
251, 2, 1, 8, 0, 1, 0, 1, 0, 1, 2, 14
252, 2, 1, 8, 0, 1, 0, 1, 0, 1, 2, 14
253, 3, 1, 8, 0, 1, 0, 1, 18, 1, 2, 32
254, 2, 1, 8, 0, 1, 0, 1, 0, 1, 2, 14
255, 2, 1, 8, 0, 1, 0, 1, 0, 1, 2, 14
256, 3, 1, 8, 0, 1, 0, 1, 18, 1, 2, 32
257, 2, 1, 8, 0, 1, 0, 1, 0, 1, 2, 14
258, 2, 1, 8, 0, 1, 0, 1, 0, 1, 2, 14
259, 3, 1, 8, 0, 1, 0, 1, 18, 1, 2, 32
260, 2, 1, 8, 0, 1, 0, 1, 0, 1, 2, 14
261, 2, 1, 8, 0, 1, 0, 1, 0, 1, 2, 14
262, 3, 1, 8, 0, 1, 0, 1, 18, 1, 2, 32
263, 2, 1, 8, 0, 1, 0, 1, 0, 1, 2, 14
264, 2, 1, 8, 0, 1, 0, 1, 0, 1, 2, 14
265, 3, 1, 8, 0, 1, 0, 1, 18, 1, 2, 32
266, 2, 1, 8, 0, 1, 0, 1, 0, 1, 2, 14
267, 2, 1, 8, 0, 1, 0, 1, 0, 1, 2, 14
268, 3, 1, 8, 0, 1, 0, 1, 18, 1, 2, 32
269, 2, 1, 8, 0, 1, 0, 1, 0, 1, 2, 14
270, 2, 1, 8, 0, 1, 0, 1, 0, 1, 2, 14
271, 3, 1, 8, 0, 1, 0, 1, 18, 1, 2, 32
272, 2, 1, 8, 0, 1, 0, 1, 0, 1, 2, 14
273, 2, 1, 8, 0, 1, 0, 1, 0, 1, 2, 14
274, 2, 1, 8, 0, 1, 0, 1, 0, 1, 2, 14
275, 3, 1, 8, 0, 1, 0, 1, 18, 1, 2, 32
276, 2, 1, 8, 0, 1, 0, 1, 0, 1, 2, 14
277, 2, 1, 8, 0, 1, 0, 1, 0, 1, 2, 14
278, 2, 1, 8, 0, 1, 0, 1, 0, 1, 2, 14
279, 3, 1, 8, 0, 1, 0, 1, 18, 1, 2, 32
280, 2, 1, 8, 0, 1, 0, 1, 0, 1, 2, 14
281, 2, 1, 8, 0, 1, 0, 1, 0, 1, 2, 14
282, 2, 1, 8, 0, 1, 0, 1, 0, 1, 2, 14
283, 2, 1, 8, 0, 1, 0, 1, 9, 1, 2, 23
284, 2, 1, 8, 0, 1, 0, 1, 0, 1, 2, 14
285, 2, 1, 8, 0, 1, 0, 1, 0, 1, 2, 14
286, 3, 1, 8, 0, 1, 0, 1, 9, 1, 2, 23
287, 2, 1, 8, 0, 1, 0, 1, 0, 1, 2, 14
288, 2, 1, 8, 0, 1, 0, 1, 0, 1, 2, 14
289, 2, 1, 8, 0, 1, 0, 1, 9, 1, 2, 23
290, 2, 1, 8, 0, 1, 0, 1, 0, 1, 2, 14
291, 2, 1, 8, 0, 1, 0, 1, 0, 1, 2, 14
292, 3, 1, 8, 0, 1, 0, 1, 9, 1, 2, 23
293, 2, 1, 8, 0, 1, 0, 1, 0, 1, 2, 14
294, 2, 1, 8, 0, 1, 0, 1, 0, 1, 2, 14
295, 3, 1, 8, 0, 1, 0, 1, 9, 1, 2, 23
296, 2, 1, 8, 0, 1, 0, 1, 0, 1, 2, 14
297, 3, 1, 8, 0, 1, 0, 1, 18, 1, 2, 32
298, 2, 1, 8, 0, 1, 0, 1, 0, 1, 2, 14
299, 2, 1, 8, 0, 1, 0, 1, 0, 1, 2, 14
300, 3, 1, 8, 0, 1, 0, 1, 18, 1, 2, 32
301, 2, 1, 8, 0, 1, 0, 1, 0, 1, 2, 14
302, 2, 1, 8, 0, 1, 0, 1, 0, 1, 2, 14
303, 3, 1, 8, 0, 1, 0, 1, 18, 1, 2, 32
304, 2, 1, 8, 0, 1, 0, 1, 0, 1, 2, 14
305, 2, 1, 8, 0, 1, 0, 1, 0, 1, 2, 14
306, 2, 1, 8, 0, 1, 0, 1, 0, 1, 2, 14
307, 3, 1, 8, 0, 1, 0, 1, 18, 1, 2, 32
308, 2, 1, 8, 0, 1, 0, 1, 0, 1, 2, 14
309, 2, 1, 8, 0, 1, 0, 1, 0, 1, 2, 14
310, 2, 1, 8, 0, 1, 0, 1, 0, 1, 2, 14
311, 3, 1, 8, 0, 1, 0, 1, 18, 1, 2, 32
312, 2, 1, 8, 0, 1, 0, 1, 0, 1, 2, 14
313, 2, 1, 8, 0, 1, 0, 1, 0, 1, 2, 14
314, 3, 1, 8, 0, 1, 0, 1, 18, 1, 2, 32
315, 2, 1, 8, 0, 1, 0, 1, 0, 1, 2, 14
316, 2, 1, 8, 0, 1, 0, 1, 0, 1, 2, 14
317, 3, 1, 8, 0, 1, 0, 1, 18, 1, 2, 32
318, 2, 1, 8, 0, 1, 0, 1, 0, 1, 2, 14
319, 2, 1, 8, 0, 1, 0, 1, 0, 1, 2, 14
320, 3, 1, 8, 0, 1, 0, 1, 18, 1, 2, 32
321, 2, 1, 8, 0, 1, 0, 1, 0, 1, 2, 14
322, 2, 1, 8, 0, 1, 0, 1, 0, 1, 2, 14
323, 3, 1, 8, 0, 1, 0, 1, 18, 1, 2, 32
324, 2, 1, 8, 0, 1, 0, 1, 0, 1, 2, 14
325, 2, 1, 8, 0, 1, 0, 1, 0, 1, 2, 14
326, 3, 1, 8, 0, 1, 0, 1, 18, 1, 2, 32
327, 2, 1, 8, 0, 1, 0, 1, 0, 1, 2, 14
328, 2, 1, 8, 0, 1, 0, 1, 0, 1, 2, 14
329, 3, 1, 8, 0, 1, 0, 1, 18, 1, 2, 32
330, 2, 1, 8, 0, 1, 0, 1, 0, 1, 2, 14
331, 3, 1, 8, 0, 1, 0, 1, 18, 1, 2, 32
332, 2, 1, 8, 0, 1, 0, 1, 0, 1, 2, 14
333, 3, 1, 8, 0, 1, 0, 1, 18, 1, 2, 32
334, 2, 1, 8, 0, 1, 0, 1, 0, 1, 2, 14
335, 2, 1, 8, 0, 1, 0, 1, 0, 1, 2, 14
336, 3, 1, 8, 0, 1, 0, 1, 18, 1, 2, 32
337, 2, 1, 8, 0, 1, 0, 1, 0, 1, 2, 14
338, 2, 1, 8, 0, 1, 0, 1, 0, 1, 2, 14
339, 2, 1, 8, 0, 1, 0, 1, 0, 1, 2, 14
340, 2, 1, 8, 0, 1, 0, 1, 0, 1, 2, 14
341, 3, 1, 8, 0, 1, 0, 1, 18, 1, 2, 32
342, 2, 1, 8, 0, 1, 0, 1, 0, 1, 2, 14
343, 2, 1, 8, 0, 1, 0, 1, 0, 1, 2, 14
344, 2, 1, 8, 0, 1, 0, 1, 0, 1, 2, 14
345, 2, 1, 8, 0, 1, 0, 1, 0, 1, 2, 14
346, 3, 1, 8, 0, 1, 0, 1, 18, 1, 2, 32
347, 2, 1, 8, 0, 1, 0, 1, 0, 1, 2, 14
348, 2, 1, 8, 0, 1, 0, 1, 0, 1, 2, 14
349, 3, 1, 8, 0, 1, 0, 1, 18, 1, 2, 32
350, 2, 1, 8, 0, 1, 0, 1, 0, 1, 2, 14
351, 2, 1, 8, 0, 1, 0, 1, 0, 1, 2, 14
352, 2, 1, 8, 0, 1, 0, 1, 9, 1, 2, 23
353, 2, 1, 8, 0, 1, 0, 1, 0, 1, 2, 14
354, 2, 1, 8, 0, 1, 0, 1, 0, 1, 2, 14
355, 3, 1, 8, 0, 1, 0, 1, 9, 1, 2, 23
356, 2, 1, 8, 0, 1, 0, 1, 0, 1, 2, 14
357, 2, 1, 8, 0, 1, 0, 1, 0, 1, 2, 14
358, 3, 1, 8, 0, 1, 0, 1, 9, 1, 2, 23
359, 2, 1, 8, 0, 1, 0, 1, 0, 1, 2, 14
360, 2, 1, 8, 0, 1, 0, 1, 0, 1, 2, 14
361, 3, 1, 8, 0, 1, 0, 1, 9, 1, 2, 23
362, 2, 1, 8, 0, 1, 0, 1, 0, 1, 2, 14
363, 2, 1, 8, 0, 1, 0, 1, 0, 1, 2, 14
364, 3, 1, 8, 0, 1, 0, 1, 18, 1, 2, 32
365, 2, 1, 8, 0, 1, 0, 1, 0, 1, 2, 14
366, 3, 1, 8, 0, 1, 0, 1, 18, 1, 2, 32
367, 2, 1, 8, 0, 1, 0, 1, 0, 1, 2, 14
368, 2, 1, 8, 0, 1, 0, 1, 0, 1, 2, 14
369, 3, 1, 8, 0, 1, 0, 1, 18, 1, 2, 32
370, 2, 1, 8, 0, 1, 0, 1, 0, 1, 2, 14
371, 2, 1, 8, 0, 1, 0, 1, 0, 1, 2, 14
372, 3, 1, 8, 0, 1, 0, 1, 18, 1, 2, 32
373, 2, 1, 8, 0, 1, 0, 1, 0, 1, 2, 14
374, 2, 1, 8, 0, 1, 0, 1, 0, 1, 2, 14
375, 2, 1, 8, 0, 1, 0, 1, 0, 1, 2, 14
376, 3, 1, 8, 0, 1, 0, 1, 18, 1, 2, 32
377, 2, 1, 8, 0, 1, 0, 1, 0, 1, 2, 14
378, 2, 1, 8, 0, 1, 0, 1, 0, 1, 2, 14
379, 2, 1, 8, 0, 1, 0, 1, 0, 1, 2, 14
380, 2, 1, 8, 0, 1, 0, 1, 0, 1, 2, 14
381, 3, 1, 8, 0, 1, 0, 1, 18, 1, 2, 32
382, 2, 1, 8, 0, 1, 0, 1, 0, 1, 2, 14
383, 2, 1, 8, 0, 1, 0, 1, 0, 1, 2, 14
384, 2, 1, 8, 0, 1, 0, 1, 0, 1, 2, 14
385, 2, 1, 8, 0, 1, 0, 1, 0, 1, 2, 14
386, 2, 1, 8, 0, 1, 0, 1, 0, 1, 2, 14
387, 3, 1, 8, 0, 1, 0, 1, 18, 1, 2, 32
388, 2, 1, 8, 0, 1, 0, 1, 0, 1, 2, 14
389, 2, 1, 8, 0, 1, 0, 1, 0, 1, 2, 14
390, 2, 1, 8, 0, 1, 0, 1, 0, 1, 2, 14
391, 2, 1, 8, 0, 1, 0, 1, 0, 1, 2, 14
392, 2, 1, 8, 0, 1, 0, 1, 0, 1, 2, 14
393, 2, 1, 8, 0, 1, 0, 1, 0, 1, 2, 14
394, 3, 1, 8, 0, 1, 0, 1, 18, 1, 2, 32
395, 2, 1, 8, 0, 1, 0, 1, 0, 1, 2, 14
396, 2, 1, 8, 0, 1, 0, 1, 0, 1, 2, 14
397, 2, 1, 8, 0, 1, 0, 1, 0, 1, 2, 14
398, 3, 1, 8, 0, 1, 0, 1, 18, 1, 2, 32
399, 2, 1, 8, 0, 1, 0, 1, 0, 1, 2, 14
400, 2, 1, 8, 0, 1, 0, 1, 0, 1, 2, 14
401, 3, 1, 8, 0, 1, 0, 1, 18, 1, 2, 32
402, 2, 1, 8, 0, 1, 0, 1, 0, 1, 2, 14
403, 2, 1, 8, 0, 1, 0, 1, 0, 1, 2, 14
404, 3, 1, 8, 0, 1, 0, 1, 18, 1, 2, 32
405, 2, 1, 8, 0, 1, 0, 1, 0, 1, 2, 14
406, 2, 1, 8, 0, 1, 0, 1, 0, 1, 2, 14
407, 3, 1, 8, 0, 1, 0, 1, 18, 1, 2, 32
408, 2, 1, 8, 0, 1, 0, 1, 0, 1, 2, 14
409, 2, 1, 8, 0, 1, 0, 1, 0, 1, 2, 14
410, 3, 1, 8, 0, 1, 0, 1, 18, 1, 2, 32
411, 2, 1, 8, 0, 1, 0, 1, 0, 1, 2, 14
412, 2, 1, 8, 0, 1, 0, 1, 0, 1, 2, 14
413, 3, 1, 8, 0, 1, 0, 1, 18, 1, 2, 32
414, 2, 1, 8, 0, 1, 0, 1, 0, 1, 2, 14
415, 3, 1, 8, 0, 1, 0, 1, 18, 1, 2, 32
416, 2, 1, 8, 0, 1, 0, 1, 0, 1, 2, 14
417, 3, 1, 8, 0, 1, 0, 1, 18, 1, 2, 32
418, 2, 1, 8, 0, 1, 0, 1, 0, 1, 2, 14
419, 2, 1, 8, 0, 1, 0, 1, 0, 1, 2, 14
420, 3, 1, 8, 0, 1, 0, 1, 18, 1, 2, 32
421, 2, 1, 8, 0, 1, 0, 1, 0, 1, 2, 14
422, 2, 1, 8, 0, 1, 0, 1, 0, 1, 2, 14
423, 2, 1, 8, 0, 1, 0, 1, 0, 1, 2, 14
424, 2, 1, 8, 0, 1, 0, 1, 0, 1, 2, 14
425, 3, 1, 8, 0, 1, 0, 1, 18, 1, 2, 32
426, 2, 1, 8, 0, 1, 0, 1, 0, 1, 2, 14
427, 2, 1, 8, 0, 1, 0, 1, 0, 1, 2, 14
428, 3, 1, 8, 0, 1, 0, 1, 18, 1, 2, 32
429, 2, 1, 8, 0, 1, 0, 1, 0, 1, 2, 14
430, 3, 1, 8, 0, 1, 0, 1, 18, 1, 2, 32
431, 2, 1, 8, 0, 1, 0, 1, 0, 1, 2, 14
432, 2, 1, 8, 0, 1, 0, 1, 0, 1, 2, 14
433, 3, 1, 8, 0, 1, 0, 1, 18, 1, 2, 32
434, 2, 1, 8, 0, 1, 0, 1, 0, 1, 2, 14
435, 2, 1, 8, 0, 1, 0, 1, 0, 1, 2, 14
436, 3, 1, 8, 0, 1, 0, 1, 18, 1, 2, 32
437, 2, 1, 8, 0, 1, 0, 1, 0, 1, 2, 14
438, 2, 1, 8, 0, 1, 0, 1, 0, 1, 2, 14
439, 2, 1, 8, 0, 1, 0, 1, 0, 1, 2, 14
440, 2, 1, 8, 0, 1, 0, 1, 0, 1, 2, 14
441, 2, 1, 8, 0, 1, 0, 1, 0, 1, 2, 14
442, 3, 1, 8, 0, 1, 0, 1, 18, 1, 2, 32
443, 2, 1, 8, 0, 1, 0, 1, 0, 1, 2, 14
444, 2, 1, 8, 0, 1, 0, 1, 0, 1, 2, 14
445, 2, 1, 8, 0, 1, 0, 1, 0, 1, 2, 14
446, 3, 1, 8, 0, 1, 0, 1, 18, 1, 2, 32
447, 2, 1, 8, 0, 1, 0, 1, 0, 1, 2, 14
448, 2, 1, 8, 0, 1, 0, 1, 0, 1, 2, 14
449, 2, 1, 8, 0, 1, 0, 1, 0, 1, 2, 14
450, 2, 1, 8, 0, 1, 0, 1, 0, 1, 2, 14
451, 3, 1, 8, 0, 1, 0, 1, 18, 1, 2, 32
452, 2, 1, 8, 0, 1, 0, 1, 0, 1, 2, 14
453, 2, 1, 8, 0, 1, 0, 1, 0, 1, 2, 14
454, 3, 1, 8, 0, 1, 0, 1, 18, 1, 2, 32
455, 2, 1, 8, 0, 1, 0, 1, 0, 1, 2, 14
456, 2, 1, 8, 0, 1, 0, 1, 0, 1, 2, 14
457, 2, 1, 8, 0, 1, 0, 1, 0, 1, 2, 14
458, 2, 1, 8, 0, 1, 0, 1, 9, 1, 2, 23
459, 2, 1, 8, 0, 1, 0, 1, 0, 1, 2, 14
460, 2, 1, 8, 0, 1, 0, 1, 0, 1, 2, 14
461, 3, 1, 8, 0, 1, 0, 1, 18, 1, 2, 32
462, 2, 1, 8, 0, 1, 0, 1, 0, 1, 2, 14
463, 2, 1, 8, 0, 1, 0, 1, 0, 1, 2, 14
464, 3, 1, 8, 0, 1, 0, 1, 9, 1, 2, 23
465, 2, 1, 8, 0, 1, 0, 1, 0, 1, 2, 14
466, 2, 1, 8, 0, 1, 0, 1, 0, 1, 2, 14
467, 3, 1, 8, 0, 1, 0, 1, 18, 1, 2, 32
468, 2, 1, 8, 0, 1, 0, 1, 0, 1, 2, 14
469, 2, 1, 8, 0, 1, 0, 1, 0, 1, 2, 14
470, 3, 1, 8, 0, 1, 0, 1, 18, 1, 2, 32
471, 2, 1, 8, 0, 1, 0, 1, 0, 1, 2, 14
472, 2, 1, 8, 0, 1, 0, 1, 0, 1, 2, 14
473, 3, 1, 8, 0, 1, 0, 1, 18, 1, 2, 32
474, 2, 1, 8, 0, 1, 0, 1, 0, 1, 2, 14
475, 2, 1, 8, 0, 1, 0, 1, 0, 1, 2, 14
476, 3, 1, 8, 0, 1, 0, 1, 18, 1, 2, 32
477, 2, 1, 8, 0, 1, 0, 1, 0, 1, 2, 14
478, 2, 1, 8, 0, 1, 0, 1, 0, 1, 2, 14
479, 3, 1, 8, 0, 1, 0, 1, 18, 1, 2, 32
480, 2, 1, 8, 0, 1, 0, 1, 0, 1, 2, 14
481, 2, 1, 8, 0, 1, 0, 1, 0, 1, 2, 14
482, 3, 1, 8, 0, 1, 0, 1, 18, 1, 2, 32
483, 2, 1, 8, 0, 1, 0, 1, 0, 1, 2, 14
484, 2, 1, 8, 0, 1, 0, 1, 0, 1, 2, 14
485, 3, 1, 8, 0, 1, 0, 1, 18, 1, 2, 32
486, 2, 1, 8, 0, 1, 0, 1, 0, 1, 2, 14
487, 2, 1, 8, 0, 1, 0, 1, 0, 1, 2, 14
488, 3, 1, 8, 0, 1, 0, 1, 18, 1, 2, 32
489, 2, 1, 8, 0, 1, 0, 1, 0, 1, 2, 14
490, 2, 1, 8, 0, 1, 0, 1, 0, 1, 2, 14
491, 3, 1, 8, 0, 1, 0, 1, 18, 1, 2, 32
492, 2, 1, 8, 0, 1, 0, 1, 0, 1, 2, 14
493, 2, 1, 8, 0, 1, 0, 1, 0, 1, 2, 14
494, 2, 1, 8, 0, 1, 0, 1, 0, 1, 2, 14
495, 3, 1, 8, 0, 1, 0, 1, 18, 1, 2, 32
496, 2, 1, 8, 0, 1, 0, 1, 0, 1, 2, 14
497, 2, 1, 8, 0, 1, 0, 1, 0, 1, 2, 14
498, 3, 1, 8, 0, 1, 0, 1, 18, 1, 2, 32
499, 2, 1, 8, 0, 1, 0, 1, 0, 1, 2, 14
500, 2, 1, 8, 0, 1, 0, 1, 0, 1, 2, 14
501, 3, 1, 8, 0, 1, 0, 1, 18, 1, 2, 32
502, 2, 1, 8, 0, 1, 0, 1, 0, 1, 2, 14
503, 2, 1, 8, 0, 1, 0, 1, 0, 1, 2, 14
504, 3, 1, 8, 0, 1, 0, 1, 18, 1, 2, 32
505, 2, 1, 8, 0, 1, 0, 1, 0, 1, 2, 14
506, 2, 1, 8, 0, 1, 0, 1, 0, 1, 2, 14
507, 3, 1, 8, 0, 1, 0, 1, 18, 1, 2, 32
508, 2, 1, 8, 0, 1, 0, 1, 0, 1, 2, 14
509, 2, 1, 8, 0, 1, 0, 1, 0, 1, 2, 14
510, 2, 1, 8, 0, 1, 0, 1, 0, 1, 2, 14
511, 2, 1, 8, 0, 1, 0, 1, 0, 1, 2, 14
512, 2, 1, 8, 0, 1, 0, 1, 0, 1, 2, 14
513, 2, 1, 8, 0, 1, 0, 1, 0, 1, 2, 14
514, 3, 1, 8, 0, 1, 0, 1, 18, 1, 2, 32
515, 2, 1, 8, 0, 1, 0, 1, 0, 1, 2, 14
516, 2, 1, 8, 0, 1, 0, 1, 0, 1, 2, 14
517, 2, 1, 8, 0, 1, 0, 1, 0, 1, 2, 14
518, 2, 1, 8, 0, 1, 0, 1, 0, 1, 2, 14
519, 2, 1, 8, 0, 1, 0, 1, 0, 1, 2, 14
520, 3, 1, 8, 0, 1, 0, 1, 18, 1, 2, 32
521, 2, 1, 8, 0, 1, 0, 1, 0, 1, 2, 14
522, 2, 1, 8, 0, 1, 0, 1, 0, 1, 2, 14
523, 2, 1, 8, 0, 1, 0, 1, 0, 1, 2, 14
524, 2, 1, 8, 0, 1, 0, 1, 0, 1, 2, 14
525, 2, 1, 8, 0, 1, 0, 1, 0, 1, 2, 14
526, 3, 1, 8, 0, 1, 0, 1, 18, 1, 2, 32
527, 2, 1, 8, 0, 1, 0, 1, 0, 1, 2, 14
528, 2, 1, 8, 0, 1, 0, 1, 0, 1, 2, 14
529, 2, 1, 8, 0, 1, 0, 1, 0, 1, 2, 14
530, 2, 1, 8, 0, 1, 0, 1, 9, 1, 2, 23
531, 2, 1, 8, 0, 1, 0, 1, 0, 1, 2, 14
532, 2, 1, 8, 0, 1, 0, 1, 0, 1, 2, 14
533, 3, 1, 8, 0, 1, 0, 1, 9, 1, 2, 23
534, 2, 1, 8, 0, 1, 0, 1, 0, 1, 2, 14
535, 2, 1, 8, 0, 1, 0, 1, 0, 1, 2, 14
536, 3, 1, 8, 0, 1, 0, 1, 18, 1, 2, 32
537, 2, 1, 8, 0, 1, 0, 1, 0, 1, 2, 14
538, 2, 1, 8, 0, 1, 0, 1, 0, 1, 2, 14
539, 3, 1, 8, 0, 1, 0, 1, 18, 1, 2, 32
540, 2, 1, 8, 0, 1, 0, 1, 0, 1, 2, 14
541, 2, 1, 8, 0, 1, 0, 1, 0, 1, 2, 14
542, 3, 1, 8, 0, 1, 0, 1, 18, 1, 2, 32
543, 2, 1, 8, 0, 1, 0, 1, 0, 1, 2, 14
544, 2, 1, 8, 0, 1, 0, 1, 0, 1, 2, 14
545, 3, 1, 8, 0, 1, 0, 1, 18, 1, 2, 32
546, 2, 1, 8, 0, 1, 0, 1, 0, 1, 2, 14
547, 2, 1, 8, 0, 1, 0, 1, 0, 1, 2, 14
548, 3, 1, 8, 0, 1, 0, 1, 18, 1, 2, 32
549, 2, 1, 8, 0, 1, 0, 1, 0, 1, 2, 14
550, 2, 1, 8, 0, 1, 0, 1, 0, 1, 2, 14
551, 3, 1, 8, 0, 1, 0, 1, 18, 1, 2, 32
552, 2, 1, 8, 0, 1, 0, 1, 0, 1, 2, 14
553, 2, 1, 8, 0, 1, 0, 1, 0, 1, 2, 14
554, 3, 1, 8, 0, 1, 0, 1, 18, 1, 2, 32
555, 2, 1, 8, 0, 1, 0, 1, 0, 1, 2, 14
556, 2, 1, 8, 0, 1, 0, 1, 0, 1, 2, 14
557, 3, 1, 8, 0, 1, 0, 1, 18, 1, 2, 32
558, 2, 1, 8, 0, 1, 0, 1, 0, 1, 2, 14
559, 2, 1, 8, 0, 1, 0, 1, 0, 1, 2, 14
560, 3, 1, 8, 0, 1, 0, 1, 18, 1, 2, 32
561, 2, 1, 8, 0, 1, 0, 1, 0, 1, 2, 14
562, 2, 1, 8, 0, 1, 0, 1, 0, 1, 2, 14
563, 2, 1, 8, 0, 1, 0, 1, 0, 1, 2, 14
564, 3, 1, 8, 0, 1, 0, 1, 18, 1, 2, 32
565, 2, 1, 8, 0, 1, 0, 1, 0, 1, 2, 14
566, 2, 1, 8, 0, 1, 0, 1, 0, 1, 2, 14
567, 3, 1, 8, 0, 1, 0, 1, 18, 1, 2, 32
568, 2, 1, 8, 0, 1, 0, 1, 0, 1, 2, 14
569, 2, 1, 8, 0, 1, 0, 1, 0, 1, 2, 14
570, 3, 1, 8, 0, 1, 0, 1, 18, 1, 2, 32
571, 2, 1, 8, 0, 1, 0, 1, 0, 1, 2, 14
572, 2, 1, 8, 0, 1, 0, 1, 0, 1, 2, 14
573, 3, 1, 8, 0, 1, 0, 1, 18, 1, 2, 32
574, 2, 1, 8, 0, 1, 0, 1, 0, 1, 2, 14
575, 2, 1, 8, 0, 1, 0, 1, 0, 1, 2, 14
576, 3, 1, 8, 0, 1, 0, 1, 18, 1, 2, 32
577, 2, 1, 8, 0, 1, 0, 1, 0, 1, 2, 14
578, 2, 1, 8, 0, 1, 0, 1, 0, 1, 2, 14
579, 3, 1, 8, 0, 1, 0, 1, 18, 1, 2, 32
580, 2, 1, 8, 0, 1, 0, 1, 0, 1, 2, 14
581, 2, 1, 8, 0, 1, 0, 1, 0, 1, 2, 14
582, 3, 1, 8, 0, 1, 0, 1, 18, 1, 2, 32
583, 2, 1, 8, 0, 1, 0, 1, 0, 1, 2, 14
584, 2, 1, 8, 0, 1, 0, 1, 0, 1, 2, 14
585, 3, 1, 8, 0, 1, 0, 1, 18, 1, 2, 32
586, 2, 1, 8, 0, 1, 0, 1, 0, 1, 2, 14
587, 2, 1, 8, 0, 1, 0, 1, 0, 1, 2, 14
588, 3, 1, 8, 0, 1, 0, 1, 18, 1, 2, 32
589, 2, 1, 8, 0, 1, 0, 1, 0, 1, 2, 14
590, 2, 1, 8, 0, 1, 0, 1, 0, 1, 2, 14
591, 3, 1, 8, 0, 1, 0, 1, 18, 1, 2, 32
592, 2, 1, 8, 0, 1, 0, 1, 0, 1, 2, 14
593, 2, 1, 8, 0, 1, 0, 1, 0, 1, 2, 14
594, 3, 1, 8, 0, 1, 0, 1, 18, 1, 2, 32
595, 2, 1, 8, 0, 1, 0, 1, 0, 1, 2, 14
596, 2, 1, 8, 0, 1, 0, 1, 0, 1, 2, 14
597, 3, 1, 8, 0, 1, 0, 1, 18, 1, 2, 32
598, 2, 1, 8, 0, 1, 0, 1, 0, 1, 2, 14
599, 2, 1, 8, 0, 1, 0, 1, 0, 1, 2, 14
600, 3, 1, 8, 0, 1, 0, 1, 18, 1, 2, 32
601, 2, 1, 8, 0, 1, 0, 1, 0, 1, 2, 14
602, 2, 1, 8, 0, 1, 0, 1, 0, 1, 2, 14
603, 2, 1, 8, 0, 1, 0, 1, 0, 1, 2, 14
604, 3, 1, 8, 0, 1, 0, 1, 18, 1, 2, 32
605, 2, 1, 8, 0, 1, 0, 1, 0, 1, 2, 14
606, 2, 1, 8, 0, 1, 0, 1, 0, 1, 2, 14
607, 2, 1, 8, 0, 1, 0, 1, 0, 1, 2, 14
608, 2, 1, 8, 0, 1, 0, 1, 0, 1, 2, 14
609, 3, 1, 8, 0, 1, 0, 1, 18, 1, 2, 32
610, 2, 1, 8, 0, 1, 0, 1, 0, 1, 2, 14
611, 2, 1, 8, 0, 1, 0, 1, 0, 1, 2, 14
612, 2, 1, 8, 0, 1, 0, 1, 0, 1, 2, 14
613, 2, 1, 8, 0, 1, 0, 1, 9, 1, 2, 23
614, 2, 1, 8, 0, 1, 0, 1, 0, 1, 2, 14
615, 2, 1, 8, 0, 1, 0, 1, 0, 1, 2, 14
616, 3, 1, 8, 0, 1, 0, 1, 9, 1, 2, 23
617, 2, 1, 8, 0, 1, 0, 1, 0, 1, 2, 14
618, 3, 1, 8, 0, 1, 0, 1, 9, 1, 2, 23
619, 2, 1, 8, 0, 1, 0, 1, 0, 1, 2, 14
620, 3, 1, 8, 0, 1, 0, 1, 9, 1, 2, 23
621, 2, 1, 8, 0, 1, 0, 1, 0, 1, 2, 14
622, 2, 1, 8, 0, 1, 0, 1, 0, 1, 2, 14
623, 3, 1, 8, 0, 1, 0, 1, 18, 1, 2, 32
624, 2, 1, 8, 0, 1, 0, 1, 0, 1, 2, 14
625, 2, 1, 8, 0, 1, 0, 1, 0, 1, 2, 14
626, 3, 1, 8, 0, 1, 0, 1, 18, 1, 2, 32
627, 2, 1, 8, 0, 1, 0, 1, 0, 1, 2, 14
628, 2, 1, 8, 0, 1, 0, 1, 0, 1, 2, 14
629, 2, 1, 8, 0, 1, 0, 1, 0, 1, 2, 14
630, 3, 1, 8, 0, 1, 0, 1, 18, 1, 2, 32
631, 2, 1, 8, 0, 1, 0, 1, 0, 1, 2, 14
632, 2, 1, 8, 0, 1, 0, 1, 0, 1, 2, 14
633, 2, 1, 8, 0, 1, 0, 1, 0, 1, 2, 14
634, 3, 1, 8, 0, 1, 0, 1, 18, 1, 2, 32
635, 2, 1, 8, 0, 1, 0, 1, 0, 1, 2, 14
636, 2, 1, 8, 0, 1, 0, 1, 0, 1, 2, 14
637, 2, 1, 8, 0, 1, 0, 1, 0, 1, 2, 14
638, 3, 1, 8, 0, 1, 0, 1, 18, 1, 2, 32
639, 2, 1, 8, 0, 1, 0, 1, 0, 1, 2, 14
640, 2, 1, 8, 0, 1, 0, 1, 0, 1, 2, 14
641, 2, 1, 8, 0, 1, 0, 1, 0, 1, 2, 14
642, 3, 1, 8, 0, 1, 0, 1, 18, 1, 2, 32
643, 2, 1, 8, 0, 1, 0, 1, 0, 1, 2, 14
644, 2, 1, 8, 0, 1, 0, 1, 0, 1, 2, 14
645, 2, 1, 8, 0, 1, 0, 1, 0, 1, 2, 14
