1, 3, 1, 8, 0, 1, 0, 3, 18, 1, 2, 34
2, 2, 1, 8, 0, 1, 0, 3, 0, 1, 2, 16
3, 2, 1, 8, 0, 1, 0, 3, 0, 1, 2, 16
4, 2, 1, 8, 0, 1, 0, 3, 0, 1, 2, 16
5, 2, 1, 8, 0, 1, 0, 3, 0, 1, 2, 16
6, 2, 1, 8, 0, 1, 0, 3, 0, 1, 2, 16
7, 3, 1, 8, 0, 1, 0, 3, 9, 1, 2, 25
8, 2, 1, 8, 0, 1, 0, 3, 0, 1, 2, 16
9, 2, 1, 8, 0, 1, 0, 3, 0, 1, 2, 16
10, 2, 1, 8, 0, 1, 0, 3, 0, 1, 2, 16
11, 2, 1, 8, 0, 1, 0, 3, 0, 1, 2, 16
12, 60, 1, 8, 0, 1, 0, 3, 522, 1, 2, 538
13, 2, 1, 8, 0, 1, 0, 3, 0, 1, 2, 16
14, 2, 1, 8, 0, 1, 0, 3, 0, 1, 2, 16
15, 2, 1, 8, 0, 1, 0, 3, 0, 1, 2, 16
16, 3, 1, 8, 0, 1, 0, 3, 9, 1, 2, 25
17, 2, 1, 8, 0, 1, 0, 3, 0, 1, 2, 16
18, 3, 1, 8, 0, 1, 0, 3, 9, 1, 2, 25
19, 2, 1, 8, 0, 1, 0, 3, 0, 1, 2, 16
20, 2, 1, 8, 0, 1, 0, 3, 0, 1, 2, 16
21, 3, 1, 8, 0, 1, 0, 3, 9, 1, 2, 25
22, 2, 1, 8, 0, 1, 0, 3, 0, 1, 2, 16
23, 2, 1, 8, 0, 1, 0, 3, 0, 1, 2, 16
24, 3, 1, 8, 0, 1, 0, 3, 9, 1, 2, 25
25, 2, 1, 8, 0, 1, 0, 3, 0, 1, 2, 16
26, 2, 1, 8, 0, 1, 0, 3, 0, 1, 2, 16
27, 2, 1, 8, 0, 1, 0, 3, 0, 1, 2, 16
28, 3, 1, 8, 0, 1, 0, 3, 9, 1, 2, 25
29, 2, 1, 8, 0, 1, 0, 3, 0, 1, 2, 16
30, 2, 1, 8, 0, 1, 0, 3, 0, 1, 2, 16
31, 3, 1, 8, 0, 1, 0, 3, 9, 1, 2, 25
32, 2, 1, 8, 0, 1, 0, 3, 0, 1, 2, 16
33, 2, 1, 8, 0, 1, 0, 3, 0, 1, 2, 16
34, 2, 1, 8, 0, 1, 0, 3, 0, 1, 2, 16
35, 3, 1, 8, 0, 1, 0, 3, 9, 1, 2, 25
36, 2, 1, 8, 0, 1, 0, 3, 0, 1, 2, 16
37, 2, 1, 8, 0, 1, 0, 3, 0, 1, 2, 16
38, 2, 1, 8, 0, 1, 0, 3, 0, 1, 2, 16
39, 2, 1, 8, 0, 1, 0, 3, 0, 1, 2, 16
40, 3, 1, 8, 0, 1, 0, 3, 9, 1, 2, 25
41, 2, 1, 8, 0, 1, 0, 3, 0, 1, 2, 16
42, 2, 1, 8, 0, 1, 0, 3, 0, 1, 2, 16
43, 2, 1, 8, 0, 1, 0, 3, 0, 1, 2, 16
44, 2, 1, 8, 0, 1, 0, 3, 0, 1, 2, 16
45, 2, 1, 8, 0, 1, 0, 3, 9, 1, 2, 25
46, 2, 1, 8, 0, 1, 0, 3, 0, 1, 2, 16
47, 2, 1, 8, 0, 1, 0, 3, 0, 1, 2, 16
48, 2, 1, 8, 0, 1, 0, 3, 0, 1, 2, 16
49, 2, 1, 8, 0, 1, 0, 3, 9, 1, 2, 25
50, 2, 1, 8, 0, 1, 0, 3, 0, 1, 2, 16
51, 2, 1, 8, 0, 1, 0, 3, 0, 1, 2, 16
52, 2, 1, 8, 0, 1, 0, 3, 0, 1, 2, 16
53, 2, 1, 8, 0, 1, 0, 3, 9, 1, 2, 25
54, 2, 1, 8, 0, 1, 0, 3, 0, 1, 2, 16
55, 2, 1, 8, 0, 1, 0, 3, 0, 1, 2, 16
56, 2, 1, 8, 0, 1, 0, 3, 9, 1, 2, 25
57, 2, 1, 8, 0, 1, 0, 3, 0, 1, 2, 16
58, 2, 1, 8, 0, 1, 0, 3, 0, 1, 2, 16
59, 2, 1, 8, 0, 1, 0, 3, 9, 1, 2, 25
60, 2, 1, 8, 0, 1, 0, 3, 0, 1, 2, 16
61, 2, 1, 8, 0, 1, 0, 3, 0, 1, 2, 16
62, 2, 1, 8, 0, 1, 0, 3, 0, 1, 2, 16
63, 2, 1, 8, 0, 1, 0, 3, 9, 1, 2, 25
64, 2, 1, 8, 0, 1, 0, 3, 0, 1, 2, 16
65, 2, 1, 8, 0, 1, 0, 3, 0, 1, 2, 16
66, 2, 1, 8, 0, 1, 0, 3, 0, 1, 2, 16
67, 2, 1, 8, 0, 1, 0, 3, 9, 1, 2, 25
68, 2, 1, 8, 0, 1, 0, 3, 0, 1, 2, 16
69, 2, 1, 8, 0, 1, 0, 3, 0, 1, 2, 16
70, 2, 1, 8, 0, 1, 0, 3, 9, 1, 2, 25
71, 2, 1, 8, 0, 1, 0, 3, 0, 1, 2, 16
72, 2, 1, 8, 0, 1, 0, 3, 0, 1, 2, 16
73, 2, 1, 8, 0, 1, 0, 3, 9, 1, 2, 25
74, 2, 1, 8, 0, 1, 0, 3, 0, 1, 2, 16
75, 2, 1, 8, 0, 1, 0, 3, 0, 1, 2, 16
76, 2, 1, 8, 0, 1, 0, 3, 9, 1, 2, 25
77, 2, 1, 8, 0, 1, 0, 3, 0, 1, 2, 16
78, 2, 1, 8, 0, 1, 0, 3, 0, 1, 2, 16
79, 2, 1, 8, 0, 1, 0, 3, 9, 1, 2, 25
80, 2, 1, 8, 0, 1, 0, 3, 0, 1, 2, 16
81, 2, 1, 8, 0, 1, 0, 3, 0, 1, 2, 16
82, 2, 1, 8, 0, 1, 0, 3, 9, 1, 2, 25
83, 2, 1, 8, 0, 1, 0, 3, 0, 1, 2, 16
84, 2, 1, 8, 0, 1, 0, 3, 0, 1, 2, 16
85, 2, 1, 8, 0, 1, 0, 3, 9, 1, 2, 25
86, 2, 1, 8, 0, 1, 0, 3, 0, 1, 2, 16
87, 2, 1, 8, 0, 1, 0, 3, 0, 1, 2, 16
88, 2, 1, 8, 0, 1, 0, 3, 9, 1, 2, 25
89, 2, 1, 8, 0, 1, 0, 3, 0, 1, 2, 16
90, 2, 1, 8, 0, 1, 0, 3, 0, 1, 2, 16
91, 3, 1, 8, 0, 1, 0, 3, 18, 1, 2, 34
92, 2, 1, 8, 0, 1, 0, 3, 0, 1, 2, 16
93, 2, 1, 8, 0, 1, 0, 3, 0, 1, 2, 16
94, 2, 1, 8, 0, 1, 0, 3, 0, 1, 2, 16
95, 6, 1, 8, 0, 1, 0, 3, 36, 1, 2, 52
96, 2, 1, 8, 0, 1, 0, 3, 0, 1, 2, 16
97, 2, 1, 8, 0, 1, 0, 3, 0, 1, 2, 16
98, 3, 1, 8, 0, 1, 0, 3, 18, 1, 2, 34
99, 2, 1, 8, 0, 1, 0, 3, 0, 1, 2, 16
100, 3, 1, 8, 0, 1, 0, 3, 18, 1, 2, 34
101, 2, 1, 8, 0, 1, 0, 3, 0, 1, 2, 16
102, 2, 1, 8, 0, 1, 0, 3, 0, 1, 2, 16
103, 3, 1, 8, 0, 1, 0, 3, 18, 1, 2, 34
104, 2, 1, 8, 0, 1, 0, 3, 0, 1, 2, 16
105, 2, 1, 8, 0, 1, 0, 3, 0, 1, 2, 16
106, 3, 1, 8, 0, 1, 0, 3, 18, 1, 2, 34
107, 2, 1, 8, 0, 1, 0, 3, 0, 1, 2, 16
108, 2, 1, 8, 0, 1, 0, 3, 0, 1, 2, 16
109, 2, 1, 8, 0, 1, 0, 3, 0, 1, 2, 16
110, 2, 1, 8, 0, 1, 0, 3, 0, 1, 2, 16
111, 2, 1, 8, 0, 1, 0, 3, 0, 1, 2, 16
112, 3, 1, 8, 0, 1, 0, 3, 18, 1, 2, 34
113, 2, 1, 8, 0, 1, 0, 3, 0, 1, 2, 16
114, 2, 1, 8, 0, 1, 0, 3, 0, 1, 2, 16
115, 2, 1, 8, 0, 1, 0, 3, 0, 1, 2, 16
116, 3, 1, 8, 0, 1, 0, 3, 18, 1, 2, 34
117, 2, 1, 8, 0, 1, 0, 3, 0, 1, 2, 16
118, 2, 1, 8, 0, 1, 0, 3, 0, 1, 2, 16
119, 2, 1, 8, 0, 1, 0, 3, 0, 1, 2, 16
120, 2, 1, 8, 0, 1, 0, 3, 0, 1, 2, 16
121, 79, 1, 8, 0, 1, 0, 3, 702, 1, 2, 718
122, 2, 1, 8, 0, 1, 0, 3, 0, 1, 2, 16
123, 2, 1, 8, 0, 1, 0, 3, 0, 1, 2, 16
124, 52, 1, 8, 0, 1, 0, 3, 459, 1, 2, 475
125, 2, 1, 8, 0, 1, 0, 3, 0, 1, 2, 16
126, 2, 1, 8, 0, 1, 0, 3, 0, 1, 2, 16
127, 2, 1, 8, 0, 1, 0, 3, 0, 1, 2, 16
128, 751, 1, 8, 0, 1, 0, 3, 6741, 1, 2, 6757
129, 2, 1, 8, 0, 1, 0, 3, 0, 1, 2, 16
130, 2, 1, 8, 0, 1, 0, 3, 0, 1, 2, 16
131, 3, 1, 8, 0, 1, 0, 3, 9, 1, 2, 25
132, 2, 1, 8, 0, 1, 0, 3, 0, 1, 2, 16
133, 2, 1, 8, 0, 1, 0, 3, 0, 1, 2, 16
134, 3, 1, 8, 0, 1, 0, 3, 9, 1, 2, 25
135, 2, 1, 8, 0, 1, 0, 3, 0, 1, 2, 16
136, 2, 1, 8, 0, 1, 0, 3, 0, 1, 2, 16
137, 3, 1, 8, 0, 1, 0, 3, 9, 1, 2, 25
138, 2, 1, 8, 0, 1, 0, 3, 0, 1, 2, 16
139, 2, 1, 8, 0, 1, 0, 3, 0, 1, 2, 16
140, 3, 1, 8, 0, 1, 0, 3, 9, 1, 2, 25
141, 2, 1, 8, 0, 1, 0, 3, 0, 1, 2, 16
142, 2, 1, 8, 0, 1, 0, 3, 0, 1, 2, 16
143, 3, 1, 8, 0, 1, 0, 3, 9, 1, 2, 25
144, 2, 1, 8, 0, 1, 0, 3, 0, 1, 2, 16
145, 2, 1, 8, 0, 1, 0, 3, 0, 1, 2, 16
146, 3, 1, 8, 0, 1, 0, 3, 9, 1, 2, 25
147, 2, 1, 8, 0, 1, 0, 3, 0, 1, 2, 16
148, 2, 1, 8, 0, 1, 0, 3, 0, 1, 2, 16
149, 3, 1, 8, 0, 1, 0, 3, 9, 1, 2, 25
150, 2, 1, 8, 0, 1, 0, 3, 0, 1, 2, 16
151, 2, 1, 8, 0, 1, 0, 3, 0, 1, 2, 16
152, 3, 1, 8, 0, 1, 0, 3, 9, 1, 2, 25
153, 2, 1, 8, 0, 1, 0, 3, 0, 1, 2, 16
154, 2, 1, 8, 0, 1, 0, 3, 0, 1, 2, 16
155, 3, 1, 8, 0, 1, 0, 3, 9, 1, 2, 25
156, 2, 1, 8, 0, 1, 0, 3, 0, 1, 2, 16
157, 2, 1, 8, 0, 1, 0, 3, 0, 1, 2, 16
158, 3, 1, 8, 0, 1, 0, 3, 9, 1, 2, 25
159, 2, 1, 8, 0, 1, 0, 3, 0, 1, 2, 16
160, 2, 1, 8, 0, 1, 0, 3, 0, 1, 2, 16
161, 3, 1, 8, 0, 1, 0, 3, 18, 1, 2, 34
162, 2, 1, 8, 0, 1, 0, 3, 0, 1, 2, 16
163, 2, 1, 8, 0, 1, 0, 3, 0, 1, 2, 16
164, 2, 1, 8, 0, 1, 0, 3, 0, 1, 2, 16
165, 36, 1, 8, 0, 1, 0, 3, 306, 1, 2, 322
166, 2, 1, 8, 0, 1, 0, 3, 0, 1, 2, 16
167, 2, 1, 8, 0, 1, 0, 3, 0, 1, 2, 16
168, 3, 1, 8, 0, 1, 0, 3, 18, 1, 2, 34
169, 2, 1, 8, 0, 1, 0, 3, 0, 1, 2, 16
170, 2, 1, 8, 0, 1, 0, 3, 0, 1, 2, 16
171, 3, 1, 8, 0, 1, 0, 3, 18, 1, 2, 34
172, 2, 1, 8, 0, 1, 0, 3, 0, 1, 2, 16
173, 2, 1, 8, 0, 1, 0, 3, 0, 1, 2, 16
174, 3, 1, 8, 0, 1, 0, 3, 18, 1, 2, 34
175, 2, 1, 8, 0, 1, 0, 3, 0, 1, 2, 16
176, 2, 1, 8, 0, 1, 0, 3, 0, 1, 2, 16
177, 3, 1, 8, 0, 1, 0, 3, 18, 1, 2, 34
178, 2, 1, 8, 0, 1, 0, 3, 0, 1, 2, 16
179, 2, 1, 8, 0, 1, 0, 3, 0, 1, 2, 16
180, 2, 1, 8, 0, 1, 0, 3, 0, 1, 2, 16
181, 2, 1, 8, 0, 1, 0, 3, 0, 1, 2, 16
182, 2, 1, 8, 0, 1, 0, 3, 0, 1, 2, 16
183, 2, 1, 8, 0, 1, 0, 3, 0, 1, 2, 16
184, 3, 1, 8, 0, 1, 0, 3, 18, 1, 2, 34
185, 2, 1, 8, 0, 1, 0, 3, 0, 1, 2, 16
186, 2, 1, 8, 0, 1, 0, 3, 0, 1, 2, 16
187, 2, 1, 8, 0, 1, 0, 3, 0, 1, 2, 16
188, 2, 1, 8, 0, 1, 0, 3, 0, 1, 2, 16
189, 2, 1, 8, 0, 1, 0, 3, 0, 1, 2, 16
190, 3, 1, 8, 0, 1, 0, 3, 18, 1, 2, 34
191, 2, 1, 8, 0, 1, 0, 3, 0, 1, 2, 16
192, 2, 1, 8, 0, 1, 0, 3, 0, 1, 2, 16
193, 2, 1, 8, 0, 1, 0, 3, 0, 1, 2, 16
194, 2, 1, 8, 0, 1, 0, 3, 0, 1, 2, 16
195, 2, 1, 8, 0, 1, 0, 3, 0, 1, 2, 16
196, 3, 1, 8, 0, 1, 0, 3, 9, 1, 2, 25
197, 2, 1, 8, 0, 1, 0, 3, 0, 1, 2, 16
198, 2, 1, 8, 0, 1, 0, 3, 0, 1, 2, 16
199, 2, 1, 8, 0, 1, 0, 3, 0, 1, 2, 16
200, 35, 1, 8, 0, 1, 0, 3, 297, 1, 2, 313
201, 2, 1, 8, 0, 1, 0, 3, 0, 1, 2, 16
202, 2, 1, 8, 0, 1, 0, 3, 0, 1, 2, 16
203, 3, 1, 8, 0, 1, 0, 3, 9, 1, 2, 25
204, 2, 1, 8, 0, 1, 0, 3, 0, 1, 2, 16
205, 2, 1, 8, 0, 1, 0, 3, 0, 1, 2, 16
206, 3, 1, 8, 0, 1, 0, 3, 9, 1, 2, 25
207, 2, 1, 8, 0, 1, 0, 3, 0, 1, 2, 16
208, 2, 1, 8, 0, 1, 0, 3, 0, 1, 2, 16
209, 3, 1, 8, 0, 1, 0, 3, 9, 1, 2, 25
210, 2, 1, 8, 0, 1, 0, 3, 0, 1, 2, 16
211, 2, 1, 8, 0, 1, 0, 3, 0, 1, 2, 16
212, 3, 1, 8, 0, 1, 0, 3, 9, 1, 2, 25
213, 2, 1, 8, 0, 1, 0, 3, 0, 1, 2, 16
214, 2, 1, 8, 0, 1, 0, 3, 0, 1, 2, 16
215, 3, 1, 8, 0, 1, 0, 3, 9, 1, 2, 25
216, 2, 1, 8, 0, 1, 0, 3, 0, 1, 2, 16
217, 2, 1, 8, 0, 1, 0, 3, 0, 1, 2, 16
218, 3, 1, 8, 0, 1, 0, 3, 9, 1, 2, 25
219, 2, 1, 8, 0, 1, 0, 3, 0, 1, 2, 16
220, 2, 1, 8, 0, 1, 0, 3, 0, 1, 2, 16
221, 3, 1, 8, 0, 1, 0, 3, 9, 1, 2, 25
222, 2, 1, 8, 0, 1, 0, 3, 0, 1, 2, 16
223, 2, 1, 8, 0, 1, 0, 3, 0, 1, 2, 16
224, 3, 1, 8, 0, 1, 0, 3, 9, 1, 2, 25
225, 2, 1, 8, 0, 1, 0, 3, 0, 1, 2, 16
226, 2, 1, 8, 0, 1, 0, 3, 0, 1, 2, 16
227, 3, 1, 8, 0, 1, 0, 3, 9, 1, 2, 25
228, 2, 1, 8, 0, 1, 0, 3, 0, 1, 2, 16
229, 2, 1, 8, 0, 1, 0, 3, 0, 1, 2, 16
230, 2, 1, 8, 0, 1, 0, 3, 0, 1, 2, 16
231, 3, 1, 8, 0, 1, 0, 3, 9, 1, 2, 25
232, 2, 1, 8, 0, 1, 0, 3, 0, 1, 2, 16
233, 2, 1, 8, 0, 1, 0, 3, 0, 1, 2, 16
234, 2, 1, 8, 0, 1, 0, 3, 0, 1, 2, 16
235, 3, 1, 8, 0, 1, 0, 3, 9, 1, 2, 25
236, 2, 1, 8, 0, 1, 0, 3, 0, 1, 2, 16
237, 2, 1, 8, 0, 1, 0, 3, 0, 1, 2, 16
238, 3, 1, 8, 0, 1, 0, 3, 9, 1, 2, 25
239, 2, 1, 8, 0, 1, 0, 3, 0, 1, 2, 16
240, 2, 1, 8, 0, 1, 0, 3, 0, 1, 2, 16
241, 3, 1, 8, 0, 1, 0, 3, 9, 1, 2, 25
242, 2, 1, 8, 0, 1, 0, 3, 0, 1, 2, 16
243, 2, 1, 8, 0, 1, 0, 3, 0, 1, 2, 16
244, 3, 1, 8, 0, 1, 0, 3, 9, 1, 2, 25
245, 2, 1, 8, 0, 1, 0, 3, 0, 1, 2, 16
246, 2, 1, 8, 0, 1, 0, 3, 0, 1, 2, 16
247, 3, 1, 8, 0, 1, 0, 3, 9, 1, 2, 25
248, 2, 1, 8, 0, 1, 0, 3, 0, 1, 2, 16
249, 2, 1, 8, 0, 1, 0, 3, 0, 1, 2, 16
250, 3, 1, 8, 0, 1, 0, 3, 9, 1, 2, 25
251, 2, 1, 8, 0, 1, 0, 3, 0, 1, 2, 16
252, 2, 1, 8, 0, 1, 0, 3, 0, 1, 2, 16
253, 3, 1, 8, 0, 1, 0, 3, 18, 1, 2, 34
254, 2, 1, 8, 0, 1, 0, 3, 0, 1, 2, 16
255, 2, 1, 8, 0, 1, 0, 3, 0, 1, 2, 16
256, 44, 1, 8, 0, 1, 0, 3, 387, 1, 2, 403
257, 2, 1, 8, 0, 1, 0, 3, 0, 1, 2, 16
258, 2, 1, 8, 0, 1, 0, 3, 0, 1, 2, 16
259, 6, 1, 8, 0, 1, 0, 3, 36, 1, 2, 52
260, 2, 1, 8, 0, 1, 0, 3, 0, 1, 2, 16
261, 2, 1, 8, 0, 1, 0, 3, 0, 1, 2, 16
262, 3, 1, 8, 0, 1, 0, 3, 18, 1, 2, 34
263, 2, 1, 8, 0, 1, 0, 3, 0, 1, 2, 16
264, 2, 1, 8, 0, 1, 0, 3, 0, 1, 2, 16
265, 3, 1, 8, 0, 1, 0, 3, 18, 1, 2, 34
266, 2, 1, 8, 0, 1, 0, 3, 0, 1, 2, 16
267, 2, 1, 8, 0, 1, 0, 3, 0, 1, 2, 16
268, 3, 1, 8, 0, 1, 0, 3, 18, 1, 2, 34
269, 2, 1, 8, 0, 1, 0, 3, 0, 1, 2, 16
270, 2, 1, 8, 0, 1, 0, 3, 0, 1, 2, 16
271, 3, 1, 8, 0, 1, 0, 3, 18, 1, 2, 34
272, 2, 1, 8, 0, 1, 0, 3, 0, 1, 2, 16
273, 2, 1, 8, 0, 1, 0, 3, 0, 1, 2, 16
274, 2, 1, 8, 0, 1, 0, 3, 0, 1, 2, 16
275, 3, 1, 8, 0, 1, 0, 3, 18, 1, 2, 34
276, 2, 1, 8, 0, 1, 0, 3, 0, 1, 2, 16
277, 2, 1, 8, 0, 1, 0, 3, 0, 1, 2, 16
278, 2, 1, 8, 0, 1, 0, 3, 0, 1, 2, 16
279, 2, 1, 8, 0, 1, 0, 3, 0, 1, 2, 16
280, 12, 1, 8, 0, 1, 0, 3, 90, 1, 2, 106
281, 2, 1, 8, 0, 1, 0, 3, 0, 1, 2, 16
282, 2, 1, 8, 0, 1, 0, 3, 0, 1, 2, 16
283, 2, 1, 8, 0, 1, 0, 3, 0, 1, 2, 16
284, 137, 1, 8, 0, 1, 0, 3, 1215, 1, 2, 1231
285, 2, 1, 8, 0, 1, 0, 3, 0, 1, 2, 16
286, 2, 1, 8, 0, 1, 0, 3, 0, 1, 2, 16
287, 3, 1, 8, 0, 1, 0, 3, 9, 1, 2, 25
288, 2, 1, 8, 0, 1, 0, 3, 0, 1, 2, 16
289, 3, 1, 8, 0, 1, 0, 3, 9, 1, 2, 25
290, 2, 1, 8, 0, 1, 0, 3, 0, 1, 2, 16
291, 2, 1, 8, 0, 1, 0, 3, 0, 1, 2, 16
292, 3, 1, 8, 0, 1, 0, 3, 9, 1, 2, 25
293, 2, 1, 8, 0, 1, 0, 3, 0, 1, 2, 16
294, 2, 1, 8, 0, 1, 0, 3, 0, 1, 2, 16
295, 3, 1, 8, 0, 1, 0, 3, 9, 1, 2, 25
296, 2, 1, 8, 0, 1, 0, 3, 0, 1, 2, 16
297, 2, 1, 8, 0, 1, 0, 3, 0, 1, 2, 16
298, 3, 1, 8, 0, 1, 0, 3, 9, 1, 2, 25
299, 2, 1, 8, 0, 1, 0, 3, 0, 1, 2, 16
300, 2, 1, 8, 0, 1, 0, 3, 0, 1, 2, 16
301, 2, 1, 8, 0, 1, 0, 3, 0, 1, 2, 16
302, 3, 1, 8, 0, 1, 0, 3, 9, 1, 2, 25
303, 2, 1, 8, 0, 1, 0, 3, 0, 1, 2, 16
304, 2, 1, 8, 0, 1, 0, 3, 0, 1, 2, 16
305, 2, 1, 8, 0, 1, 0, 3, 0, 1, 2, 16
306, 3, 1, 8, 0, 1, 0, 3, 9, 1, 2, 25
307, 2, 1, 8, 0, 1, 0, 3, 0, 1, 2, 16
308, 2, 1, 8, 0, 1, 0, 3, 0, 1, 2, 16
309, 2, 1, 8, 0, 1, 0, 3, 0, 1, 2, 16
310, 3, 1, 8, 0, 1, 0, 3, 9, 1, 2, 25
311, 2, 1, 8, 0, 1, 0, 3, 0, 1, 2, 16
312, 2, 1, 8, 0, 1, 0, 3, 0, 1, 2, 16
313, 2, 1, 8, 0, 1, 0, 3, 0, 1, 2, 16
314, 2, 1, 8, 0, 1, 0, 3, 9, 1, 2, 25
315, 2, 1, 8, 0, 1, 0, 3, 0, 1, 2, 16
316, 2, 1, 8, 0, 1, 0, 3, 0, 1, 2, 16
317, 3, 1, 8, 0, 1, 0, 3, 9, 1, 2, 25
318, 2, 1, 8, 0, 1, 0, 3, 0, 1, 2, 16
319, 2, 1, 8, 0, 1, 0, 3, 0, 1, 2, 16
320, 3, 1, 8, 0, 1, 0, 3, 18, 1, 2, 34
321, 2, 1, 8, 0, 1, 0, 3, 0, 1, 2, 16
322, 2, 1, 8, 0, 1, 0, 3, 0, 1, 2, 16
323, 16, 1, 8, 0, 1, 0, 3, 135, 1, 2, 151
324, 2, 1, 8, 0, 1, 0, 3, 0, 1, 2, 16
325, 2, 1, 8, 0, 1, 0, 3, 0, 1, 2, 16
326, 3, 1, 8, 0, 1, 0, 3, 18, 1, 2, 34
327, 2, 1, 8, 0, 1, 0, 3, 0, 1, 2, 16
328, 2, 1, 8, 0, 1, 0, 3, 0, 1, 2, 16
329, 3, 1, 8, 0, 1, 0, 3, 18, 1, 2, 34
330, 2, 1, 8, 0, 1, 0, 3, 0, 1, 2, 16
331, 3, 1, 8, 0, 1, 0, 3, 18, 1, 2, 34
332, 2, 1, 8, 0, 1, 0, 3, 0, 1, 2, 16
333, 3, 1, 8, 0, 1, 0, 3, 18, 1, 2, 34
334, 2, 1, 8, 0, 1, 0, 3, 0, 1, 2, 16
335, 2, 1, 8, 0, 1, 0, 3, 0, 1, 2, 16
336, 3, 1, 8, 0, 1, 0, 3, 18, 1, 2, 34
337, 2, 1, 8, 0, 1, 0, 3, 0, 1, 2, 16
338, 2, 1, 8, 0, 1, 0, 3, 0, 1, 2, 16
339, 2, 1, 8, 0, 1, 0, 3, 0, 1, 2, 16
340, 2, 1, 8, 0, 1, 0, 3, 0, 1, 2, 16
341, 3, 1, 8, 0, 1, 0, 3, 18, 1, 2, 34
342, 2, 1, 8, 0, 1, 0, 3, 0, 1, 2, 16
343, 2, 1, 8, 0, 1, 0, 3, 0, 1, 2, 16
344, 2, 1, 8, 0, 1, 0, 3, 0, 1, 2, 16
345, 2, 1, 8, 0, 1, 0, 3, 0, 1, 2, 16
346, 69, 1, 8, 0, 1, 0, 3, 603, 1, 2, 619
347, 2, 1, 8, 0, 1, 0, 3, 0, 1, 2, 16
348, 2, 1, 8, 0, 1, 0, 3, 0, 1, 2, 16
349, 1076, 1, 8, 0, 1, 0, 3, 9666, 1, 2, 9682
350, 2, 1, 8, 0, 1, 0, 3, 0, 1, 2, 16
351, 2, 1, 8, 0, 1, 0, 3, 0, 1, 2, 16
352, 3, 1, 8, 0, 1, 0, 3, 9, 1, 2, 25
353, 2, 1, 8, 0, 1, 0, 3, 0, 1, 2, 16
354, 2, 1, 8, 0, 1, 0, 3, 0, 1, 2, 16
355, 3, 1, 8, 0, 1, 0, 3, 9, 1, 2, 25
356, 2, 1, 8, 0, 1, 0, 3, 0, 1, 2, 16
357, 2, 1, 8, 0, 1, 0, 3, 0, 1, 2, 16
358, 3, 1, 8, 0, 1, 0, 3, 9, 1, 2, 25
359, 2, 1, 8, 0, 1, 0, 3, 0, 1, 2, 16
360, 2, 1, 8, 0, 1, 0, 3, 0, 1, 2, 16
361, 2, 1, 8, 0, 1, 0, 3, 0, 1, 2, 16
362, 3, 1, 8, 0, 1, 0, 3, 9, 1, 2, 25
363, 2, 1, 8, 0, 1, 0, 3, 0, 1, 2, 16
364, 2, 1, 8, 0, 1, 0, 3, 0, 1, 2, 16
365, 3, 1, 8, 0, 1, 0, 3, 9, 1, 2, 25
366, 2, 1, 8, 0, 1, 0, 3, 0, 1, 2, 16
367, 2, 1, 8, 0, 1, 0, 3, 0, 1, 2, 16
368, 2, 1, 8, 0, 1, 0, 3, 0, 1, 2, 16
369, 3, 1, 8, 0, 1, 0, 3, 9, 1, 2, 25
370, 2, 1, 8, 0, 1, 0, 3, 0, 1, 2, 16
371, 2, 1, 8, 0, 1, 0, 3, 0, 1, 2, 16
372, 2, 1, 8, 0, 1, 0, 3, 0, 1, 2, 16
373, 2, 1, 8, 0, 1, 0, 3, 0, 1, 2, 16
374, 3, 1, 8, 0, 1, 0, 3, 9, 1, 2, 25
375, 2, 1, 8, 0, 1, 0, 3, 0, 1, 2, 16
376, 2, 1, 8, 0, 1, 0, 3, 0, 1, 2, 16
377, 2, 1, 8, 0, 1, 0, 3, 0, 1, 2, 16
378, 2, 1, 8, 0, 1, 0, 3, 0, 1, 2, 16
379, 2, 1, 8, 0, 1, 0, 3, 0, 1, 2, 16
380, 2, 1, 8, 0, 1, 0, 3, 0, 1, 2, 16
381, 2, 1, 8, 0, 1, 0, 3, 0, 1, 2, 16
382, 3, 1, 8, 0, 1, 0, 3, 9, 1, 2, 25
383, 2, 1, 8, 0, 1, 0, 3, 0, 1, 2, 16
384, 2, 1, 8, 0, 1, 0, 3, 0, 1, 2, 16
385, 2, 1, 8, 0, 1, 0, 3, 0, 1, 2, 16
386, 2, 1, 8, 0, 1, 0, 3, 0, 1, 2, 16
387, 2, 1, 8, 0, 1, 0, 3, 0, 1, 2, 16
388, 2, 1, 8, 0, 1, 0, 3, 0, 1, 2, 16
389, 2, 1, 8, 0, 1, 0, 3, 0, 1, 2, 16
390, 2, 1, 8, 0, 1, 0, 3, 9, 1, 2, 25
391, 2, 1, 8, 0, 1, 0, 3, 0, 1, 2, 16
392, 2, 1, 8, 0, 1, 0, 3, 0, 1, 2, 16
393, 2, 1, 8, 0, 1, 0, 3, 0, 1, 2, 16
394, 2, 1, 8, 0, 1, 0, 3, 0, 1, 2, 16
395, 2, 1, 8, 0, 1, 0, 3, 0, 1, 2, 16
396, 3, 1, 8, 0, 1, 0, 3, 9, 1, 2, 25
397, 2, 1, 8, 0, 1, 0, 3, 0, 1, 2, 16
398, 2, 1, 8, 0, 1, 0, 3, 0, 1, 2, 16
399, 2, 1, 8, 0, 1, 0, 3, 0, 1, 2, 16
400, 3, 1, 8, 0, 1, 0, 3, 9, 1, 2, 25
401, 2, 1, 8, 0, 1, 0, 3, 0, 1, 2, 16
402, 2, 1, 8, 0, 1, 0, 3, 0, 1, 2, 16
403, 2, 1, 8, 0, 1, 0, 3, 0, 1, 2, 16
404, 3, 1, 8, 0, 1, 0, 3, 9, 1, 2, 25
405, 2, 1, 8, 0, 1, 0, 3, 0, 1, 2, 16
406, 2, 1, 8, 0, 1, 0, 3, 0, 1, 2, 16
407, 3, 1, 8, 0, 1, 0, 3, 9, 1, 2, 25
408, 2, 1, 8, 0, 1, 0, 3, 0, 1, 2, 16
409, 2, 1, 8, 0, 1, 0, 3, 0, 1, 2, 16
410, 3, 1, 8, 0, 1, 0, 3, 9, 1, 2, 25
411, 2, 1, 8, 0, 1, 0, 3, 0, 1, 2, 16
412, 2, 1, 8, 0, 1, 0, 3, 0, 1, 2, 16
413, 3, 1, 8, 0, 1, 0, 3, 9, 1, 2, 25
414, 2, 1, 8, 0, 1, 0, 3, 0, 1, 2, 16
415, 2, 1, 8, 0, 1, 0, 3, 0, 1, 2, 16
416, 3, 1, 8, 0, 1, 0, 3, 9, 1, 2, 25
417, 2, 1, 8, 0, 1, 0, 3, 0, 1, 2, 16
418, 2, 1, 8, 0, 1, 0, 3, 0, 1, 2, 16
419, 3, 1, 8, 0, 1, 0, 3, 18, 1, 2, 34
420, 2, 1, 8, 0, 1, 0, 3, 0, 1, 2, 16
421, 2, 1, 8, 0, 1, 0, 3, 0, 1, 2, 16
422, 2, 1, 8, 0, 1, 0, 3, 0, 1, 2, 16
423, 2, 1, 8, 0, 1, 0, 3, 0, 1, 2, 16
424, 17, 1, 8, 0, 1, 0, 3, 144, 1, 2, 160
425, 2, 1, 8, 0, 1, 0, 3, 0, 1, 2, 16
426, 2, 1, 8, 0, 1, 0, 3, 0, 1, 2, 16
427, 26, 1, 8, 0, 1, 0, 3, 216, 1, 2, 232
428, 2, 1, 8, 0, 1, 0, 3, 0, 1, 2, 16
429, 2, 1, 8, 0, 1, 0, 3, 0, 1, 2, 16
430, 3, 1, 8, 0, 1, 0, 3, 18, 1, 2, 34
431, 2, 1, 8, 0, 1, 0, 3, 0, 1, 2, 16
432, 2, 1, 8, 0, 1, 0, 3, 0, 1, 2, 16
433, 2, 1, 8, 0, 1, 0, 3, 0, 1, 2, 16
434, 2, 1, 8, 0, 1, 0, 3, 0, 1, 2, 16
435, 2, 1, 8, 0, 1, 0, 3, 0, 1, 2, 16
436, 3, 1, 8, 0, 1, 0, 3, 18, 1, 2, 34
437, 2, 1, 8, 0, 1, 0, 3, 0, 1, 2, 16
438, 2, 1, 8, 0, 1, 0, 3, 0, 1, 2, 16
439, 2, 1, 8, 0, 1, 0, 3, 0, 1, 2, 16
440, 3, 1, 8, 0, 1, 0, 3, 18, 1, 2, 34
441, 2, 1, 8, 0, 1, 0, 3, 0, 1, 2, 16
442, 2, 1, 8, 0, 1, 0, 3, 0, 1, 2, 16
443, 2, 1, 8, 0, 1, 0, 3, 0, 1, 2, 16
444, 2, 1, 8, 0, 1, 0, 3, 0, 1, 2, 16
445, 116, 1, 8, 0, 1, 0, 3, 1035, 1, 2, 1051
446, 2, 1, 8, 0, 1, 0, 3, 0, 1, 2, 16
447, 2, 1, 8, 0, 1, 0, 3, 0, 1, 2, 16
448, 3, 1, 8, 0, 1, 0, 3, 9, 1, 2, 25
449, 2, 1, 8, 0, 1, 0, 3, 0, 1, 2, 16
450, 2, 1, 8, 0, 1, 0, 3, 0, 1, 2, 16
451, 2, 1, 8, 0, 1, 0, 3, 0, 1, 2, 16
452, 574, 1, 8, 0, 1, 0, 3, 5148, 1, 2, 5164
453, 2, 1, 8, 0, 1, 0, 3, 0, 1, 2, 16
454, 2, 1, 8, 0, 1, 0, 3, 0, 1, 2, 16
455, 3, 1, 8, 0, 1, 0, 3, 9, 1, 2, 25
456, 2, 1, 8, 0, 1, 0, 3, 0, 1, 2, 16
457, 2, 1, 8, 0, 1, 0, 3, 0, 1, 2, 16
458, 3, 1, 8, 0, 1, 0, 3, 9, 1, 2, 25
459, 2, 1, 8, 0, 1, 0, 3, 0, 1, 2, 16
460, 2, 1, 8, 0, 1, 0, 3, 0, 1, 2, 16
461, 3, 1, 8, 0, 1, 0, 3, 9, 1, 2, 25
462, 2, 1, 8, 0, 1, 0, 3, 0, 1, 2, 16
463, 2, 1, 8, 0, 1, 0, 3, 0, 1, 2, 16
464, 3, 1, 8, 0, 1, 0, 3, 9, 1, 2, 25
465, 2, 1, 8, 0, 1, 0, 3, 0, 1, 2, 16
466, 2, 1, 8, 0, 1, 0, 3, 0, 1, 2, 16
467, 3, 1, 8, 0, 1, 0, 3, 9, 1, 2, 25
468, 2, 1, 8, 0, 1, 0, 3, 0, 1, 2, 16
469, 2, 1, 8, 0, 1, 0, 3, 0, 1, 2, 16
470, 3, 1, 8, 0, 1, 0, 3, 9, 1, 2, 25
471, 2, 1, 8, 0, 1, 0, 3, 0, 1, 2, 16
472, 2, 1, 8, 0, 1, 0, 3, 0, 1, 2, 16
473, 3, 1, 8, 0, 1, 0, 3, 9, 1, 2, 25
474, 2, 1, 8, 0, 1, 0, 3, 0, 1, 2, 16
475, 2, 1, 8, 0, 1, 0, 3, 0, 1, 2, 16
476, 3, 1, 8, 0, 1, 0, 3, 9, 1, 2, 25
477, 2, 1, 8, 0, 1, 0, 3, 0, 1, 2, 16
478, 2, 1, 8, 0, 1, 0, 3, 0, 1, 2, 16
479, 3, 1, 8, 0, 1, 0, 3, 9, 1, 2, 25
480, 2, 1, 8, 0, 1, 0, 3, 0, 1, 2, 16
481, 2, 1, 8, 0, 1, 0, 3, 0, 1, 2, 16
482, 3, 1, 8, 0, 1, 0, 3, 9, 1, 2, 25
483, 2, 1, 8, 0, 1, 0, 3, 0, 1, 2, 16
484, 2, 1, 8, 0, 1, 0, 3, 0, 1, 2, 16
485, 3, 1, 8, 0, 1, 0, 3, 18, 1, 2, 34
486, 2, 1, 8, 0, 1, 0, 3, 0, 1, 2, 16
487, 2, 1, 8, 0, 1, 0, 3, 0, 1, 2, 16
488, 2, 1, 8, 0, 1, 0, 3, 0, 1, 2, 16
489, 40, 1, 8, 0, 1, 0, 3, 351, 1, 2, 367
490, 2, 1, 8, 0, 1, 0, 3, 0, 1, 2, 16
491, 2, 1, 8, 0, 1, 0, 3, 0, 1, 2, 16
492, 3, 1, 8, 0, 1, 0, 3, 18, 1, 2, 34
493, 2, 1, 8, 0, 1, 0, 3, 0, 1, 2, 16
494, 2, 1, 8, 0, 1, 0, 3, 0, 1, 2, 16
495, 3, 1, 8, 0, 1, 0, 3, 18, 1, 2, 34
496, 2, 1, 8, 0, 1, 0, 3, 0, 1, 2, 16
497, 2, 1, 8, 0, 1, 0, 3, 0, 1, 2, 16
498, 2, 1, 8, 0, 1, 0, 3, 0, 1, 2, 16
499, 3, 1, 8, 0, 1, 0, 3, 18, 1, 2, 34
500, 2, 1, 8, 0, 1, 0, 3, 0, 1, 2, 16
501, 2, 1, 8, 0, 1, 0, 3, 0, 1, 2, 16
502, 2, 1, 8, 0, 1, 0, 3, 0, 1, 2, 16
503, 2, 1, 8, 0, 1, 0, 3, 0, 1, 2, 16
504, 2, 1, 8, 0, 1, 0, 3, 0, 1, 2, 16
505, 2, 1, 8, 0, 1, 0, 3, 0, 1, 2, 16
506, 3, 1, 8, 0, 1, 0, 3, 18, 1, 2, 34
507, 2, 1, 8, 0, 1, 0, 3, 0, 1, 2, 16
508, 2, 1, 8, 0, 1, 0, 3, 0, 1, 2, 16
509, 2, 1, 8, 0, 1, 0, 3, 0, 1, 2, 16
510, 2, 1, 8, 0, 1, 0, 3, 0, 1, 2, 16
511, 2, 1, 8, 0, 1, 0, 3, 0, 1, 2, 16
512, 2, 1, 8, 0, 1, 0, 3, 0, 1, 2, 16
513, 3, 1, 8, 0, 1, 0, 3, 18, 1, 2, 34
514, 2, 1, 8, 0, 1, 0, 3, 0, 1, 2, 16
515, 2, 1, 8, 0, 1, 0, 3, 0, 1, 2, 16
516, 3, 1, 8, 0, 1, 0, 3, 9, 1, 2, 25
517, 2, 1, 8, 0, 1, 0, 3, 0, 1, 2, 16
518, 2, 1, 8, 0, 1, 0, 3, 0, 1, 2, 16
519, 34, 1, 8, 0, 1, 0, 3, 288, 1, 2, 304
520, 2, 1, 8, 0, 1, 0, 3, 0, 1, 2, 16
521, 2, 1, 8, 0, 1, 0, 3, 0, 1, 2, 16
522, 3, 1, 8, 0, 1, 0, 3, 9, 1, 2, 25
523, 2, 1, 8, 0, 1, 0, 3, 0, 1, 2, 16
524, 2, 1, 8, 0, 1, 0, 3, 0, 1, 2, 16
525, 3, 1, 8, 0, 1, 0, 3, 9, 1, 2, 25
526, 2, 1, 8, 0, 1, 0, 3, 0, 1, 2, 16
527, 2, 1, 8, 0, 1, 0, 3, 0, 1, 2, 16
528, 3, 1, 8, 0, 1, 0, 3, 9, 1, 2, 25
529, 2, 1, 8, 0, 1, 0, 3, 0, 1, 2, 16
530, 2, 1, 8, 0, 1, 0, 3, 0, 1, 2, 16
531, 3, 1, 8, 0, 1, 0, 3, 9, 1, 2, 25
532, 2, 1, 8, 0, 1, 0, 3, 0, 1, 2, 16
533, 2, 1, 8, 0, 1, 0, 3, 0, 1, 2, 16
534, 3, 1, 8, 0, 1, 0, 3, 9, 1, 2, 25
535, 2, 1, 8, 0, 1, 0, 3, 0, 1, 2, 16
536, 2, 1, 8, 0, 1, 0, 3, 0, 1, 2, 16
537, 3, 1, 8, 0, 1, 0, 3, 9, 1, 2, 25
538, 2, 1, 8, 0, 1, 0, 3, 0, 1, 2, 16
539, 2, 1, 8, 0, 1, 0, 3, 0, 1, 2, 16
540, 3, 1, 8, 0, 1, 0, 3, 9, 1, 2, 25
541, 2, 1, 8, 0, 1, 0, 3, 0, 1, 2, 16
542, 2, 1, 8, 0, 1, 0, 3, 0, 1, 2, 16
543, 3, 1, 8, 0, 1, 0, 3, 9, 1, 2, 25
544, 2, 1, 8, 0, 1, 0, 3, 0, 1, 2, 16
545, 2, 1, 8, 0, 1, 0, 3, 0, 1, 2, 16
546, 3, 1, 8, 0, 1, 0, 3, 9, 1, 2, 25
547, 2, 1, 8, 0, 1, 0, 3, 0, 1, 2, 16
548, 2, 1, 8, 0, 1, 0, 3, 0, 1, 2, 16
549, 3, 1, 8, 0, 1, 0, 3, 9, 1, 2, 25
550, 2, 1, 8, 0, 1, 0, 3, 0, 1, 2, 16
551, 2, 1, 8, 0, 1, 0, 3, 0, 1, 2, 16
552, 2, 1, 8, 0, 1, 0, 3, 0, 1, 2, 16
553, 3, 1, 8, 0, 1, 0, 3, 9, 1, 2, 25
554, 2, 1, 8, 0, 1, 0, 3, 0, 1, 2, 16
555, 2, 1, 8, 0, 1, 0, 3, 0, 1, 2, 16
556, 3, 1, 8, 0, 1, 0, 3, 9, 1, 2, 25
557, 2, 1, 8, 0, 1, 0, 3, 0, 1, 2, 16
558, 2, 1, 8, 0, 1, 0, 3, 0, 1, 2, 16
559, 3, 1, 8, 0, 1, 0, 3, 9, 1, 2, 25
560, 2, 1, 8, 0, 1, 0, 3, 0, 1, 2, 16
561, 2, 1, 8, 0, 1, 0, 3, 0, 1, 2, 16
562, 3, 1, 8, 0, 1, 0, 3, 9, 1, 2, 25
563, 2, 1, 8, 0, 1, 0, 3, 0, 1, 2, 16
564, 2, 1, 8, 0, 1, 0, 3, 0, 1, 2, 16
565, 3, 1, 8, 0, 1, 0, 3, 9, 1, 2, 25
566, 2, 1, 8, 0, 1, 0, 3, 0, 1, 2, 16
567, 2, 1, 8, 0, 1, 0, 3, 0, 1, 2, 16
568, 3, 1, 8, 0, 1, 0, 3, 9, 1, 2, 25
569, 2, 1, 8, 0, 1, 0, 3, 0, 1, 2, 16
570, 2, 1, 8, 0, 1, 0, 3, 0, 1, 2, 16
571, 3, 1, 8, 0, 1, 0, 3, 9, 1, 2, 25
572, 2, 1, 8, 0, 1, 0, 3, 0, 1, 2, 16
573, 2, 1, 8, 0, 1, 0, 3, 0, 1, 2, 16
574, 3, 1, 8, 0, 1, 0, 3, 18, 1, 2, 34
575, 2, 1, 8, 0, 1, 0, 3, 0, 1, 2, 16
576, 2, 1, 8, 0, 1, 0, 3, 0, 1, 2, 16
577, 43, 1, 8, 0, 1, 0, 3, 378, 1, 2, 394
578, 2, 1, 8, 0, 1, 0, 3, 0, 1, 2, 16
579, 2, 1, 8, 0, 1, 0, 3, 0, 1, 2, 16
580, 6, 1, 8, 0, 1, 0, 3, 36, 1, 2, 52
581, 2, 1, 8, 0, 1, 0, 3, 0, 1, 2, 16
582, 2, 1, 8, 0, 1, 0, 3, 0, 1, 2, 16
583, 3, 1, 8, 0, 1, 0, 3, 18, 1, 2, 34
584, 2, 1, 8, 0, 1, 0, 3, 0, 1, 2, 16
585, 2, 1, 8, 0, 1, 0, 3, 0, 1, 2, 16
586, 3, 1, 8, 0, 1, 0, 3, 18, 1, 2, 34
587, 2, 1, 8, 0, 1, 0, 3, 0, 1, 2, 16
588, 2, 1, 8, 0, 1, 0, 3, 0, 1, 2, 16
589, 3, 1, 8, 0, 1, 0, 3, 18, 1, 2, 34
590, 2, 1, 8, 0, 1, 0, 3, 0, 1, 2, 16
591, 2, 1, 8, 0, 1, 0, 3, 0, 1, 2, 16
592, 3, 1, 8, 0, 1, 0, 3, 18, 1, 2, 34
593, 2, 1, 8, 0, 1, 0, 3, 0, 1, 2, 16
594, 2, 1, 8, 0, 1, 0, 3, 0, 1, 2, 16
595, 2, 1, 8, 0, 1, 0, 3, 0, 1, 2, 16
596, 13, 1, 8, 0, 1, 0, 3, 99, 1, 2, 115
597, 2, 1, 8, 0, 1, 0, 3, 0, 1, 2, 16
598, 2, 1, 8, 0, 1, 0, 3, 0, 1, 2, 16
599, 2, 1, 8, 0, 1, 0, 3, 0, 1, 2, 16
600, 8, 1, 8, 0, 1, 0, 3, 54, 1, 2, 70
601, 2, 1, 8, 0, 1, 0, 3, 0, 1, 2, 16
602, 2, 1, 8, 0, 1, 0, 3, 0, 1, 2, 16
603, 2, 1, 8, 0, 1, 0, 3, 0, 1, 2, 16
604, 111, 1, 8, 0, 1, 0, 3, 981, 1, 2, 997
605, 2, 1, 8, 0, 1, 0, 3, 0, 1, 2, 16
606, 2, 1, 8, 0, 1, 0, 3, 0, 1, 2, 16
607, 3, 1, 8, 0, 1, 0, 3, 9, 1, 2, 25
608, 2, 1, 8, 0, 1, 0, 3, 0, 1, 2, 16
609, 3, 1, 8, 0, 1, 0, 3, 9, 1, 2, 25
610, 2, 1, 8, 0, 1, 0, 3, 0, 1, 2, 16
611, 3, 1, 8, 0, 1, 0, 3, 9, 1, 2, 25
612, 2, 1, 8, 0, 1, 0, 3, 0, 1, 2, 16
613, 2, 1, 8, 0, 1, 0, 3, 0, 1, 2, 16
614, 3, 1, 8, 0, 1, 0, 3, 9, 1, 2, 25
615, 2, 1, 8, 0, 1, 0, 3, 0, 1, 2, 16
616, 2, 1, 8, 0, 1, 0, 3, 0, 1, 2, 16
617, 3, 1, 8, 0, 1, 0, 3, 9, 1, 2, 25
618, 2, 1, 8, 0, 1, 0, 3, 0, 1, 2, 16
619, 2, 1, 8, 0, 1, 0, 3, 0, 1, 2, 16
620, 2, 1, 8, 0, 1, 0, 3, 0, 1, 2, 16
621, 3, 1, 8, 0, 1, 0, 3, 9, 1, 2, 25
622, 2, 1, 8, 0, 1, 0, 3, 0, 1, 2, 16
623, 2, 1, 8, 0, 1, 0, 3, 0, 1, 2, 16
624, 2, 1, 8, 0, 1, 0, 3, 0, 1, 2, 16
625, 3, 1, 8, 0, 1, 0, 3, 9, 1, 2, 25
626, 2, 1, 8, 0, 1, 0, 3, 0, 1, 2, 16
627, 2, 1, 8, 0, 1, 0, 3, 0, 1, 2, 16
628, 2, 1, 8, 0, 1, 0, 3, 0, 1, 2, 16
629, 3, 1, 8, 0, 1, 0, 3, 9, 1, 2, 25
630, 2, 1, 8, 0, 1, 0, 3, 0, 1, 2, 16
631, 2, 1, 8, 0, 1, 0, 3, 0, 1, 2, 16
632, 2, 1, 8, 0, 1, 0, 3, 9, 1, 2, 25
633, 2, 1, 8, 0, 1, 0, 3, 0, 1, 2, 16
634, 2, 1, 8, 0, 1, 0, 3, 0, 1, 2, 16
635, 2, 1, 8, 0, 1, 0, 3, 0, 1, 2, 16
636, 2, 1, 8, 0, 1, 0, 3, 9, 1, 2, 25
637, 2, 1, 8, 0, 1, 0, 3, 0, 1, 2, 16
638, 2, 1, 8, 0, 1, 0, 3, 0, 1, 2, 16
