timestep, iters, adds, subs, mults, divs, total
1, 3, 190140, 24489, 188857, 27134, 430620
2, 3, 189983, 24489, 188700, 27134, 430306
3, 60, 199692, 722283, 198409, 27134, 1147518
4, 3, 189983, 24489, 188700, 27134, 430306
5, 3, 189983, 24489, 188700, 27134, 430306
6, 3, 189983, 24489, 188700, 27134, 430306
7, 3, 189983, 24489, 188700, 27134, 430306
8, 3, 189983, 24489, 188700, 27134, 430306
9, 3, 189983, 24489, 188700, 27134, 430306
10, 3, 189983, 24489, 188700, 27134, 430306
11, 3, 189983, 24489, 188700, 27134, 430306
12, 2, 189983, 12247, 188700, 27134, 418064
13, 2, 189983, 12247, 188700, 27134, 418064
14, 2, 189983, 12247, 188700, 27134, 418064
15, 2, 189983, 12247, 188700, 27134, 418064
16, 2, 189983, 12247, 188700, 27134, 418064
17, 2, 189983, 12247, 188700, 27134, 418064
18, 2, 189983, 12247, 188700, 27134, 418064
19, 2, 189983, 12247, 188700, 27134, 418064
20, 2, 189983, 12247, 188700, 27134, 418064
21, 2, 189983, 12247, 188700, 27134, 418064
22, 2, 189983, 12247, 188700, 27134, 418064
23, 2, 189983, 12247, 188700, 27134, 418064
24, 2, 189983, 12247, 188700, 27134, 418064
25, 2, 189983, 12247, 188700, 27134, 418064
26, 3, 190140, 24489, 188857, 27134, 430620
27, 6, 190498, 61215, 189215, 27134, 468062
28, 3, 190140, 24489, 188857, 27134, 430620
29, 3, 190140, 24489, 188857, 27134, 430620
30, 3, 190140, 24489, 188857, 27134, 430620
31, 3, 190140, 24489, 188857, 27134, 430620
32, 3, 190140, 24489, 188857, 27134, 430620
33, 3, 190140, 24489, 188857, 27134, 430620
34, 79, 203652, 954881, 202369, 27134, 1388036
35, 52, 200681, 624347, 199398, 27134, 1051560
36, 751, 329687, 9181505, 328404, 27134, 9866730
37, 3, 189983, 24489, 188700, 27134, 430306
38, 3, 189983, 24489, 188700, 27134, 430306
39, 3, 189983, 24489, 188700, 27134, 430306
40, 3, 189983, 24489, 188700, 27134, 430306
41, 3, 189983, 24489, 188700, 27134, 430306
42, 3, 189983, 24489, 188700, 27134, 430306
43, 3, 189983, 24489, 188700, 27134, 430306
44, 3, 189983, 24489, 188700, 27134, 430306
45, 3, 189983, 24489, 188700, 27134, 430306
46, 3, 189983, 24489, 188700, 27134, 430306
47, 3, 190140, 24489, 188857, 27134, 430620
48, 36, 198032, 428475, 196749, 27134, 850390
49, 3, 190140, 24489, 188857, 27134, 430620
50, 3, 190140, 24489, 188857, 27134, 430620
51, 3, 190140, 24489, 188857, 27134, 430620
52, 3, 190140, 24489, 188857, 27134, 430620
53, 3, 190140, 24489, 188857, 27134, 430620
54, 3, 190140, 24489, 188857, 27134, 430620
55, 3, 189983, 24489, 188700, 27134, 430306
56, 35, 198187, 416233, 196904, 27134, 838458
57, 3, 189983, 24489, 188700, 27134, 430306
58, 3, 189983, 24489, 188700, 27134, 430306
59, 3, 189983, 24489, 188700, 27134, 430306
60, 3, 189983, 24489, 188700, 27134, 430306
61, 3, 189983, 24489, 188700, 27134, 430306
62, 3, 189983, 24489, 188700, 27134, 430306
63, 3, 189983, 24489, 188700, 27134, 430306
64, 3, 189983, 24489, 188700, 27134, 430306
65, 3, 189983, 24489, 188700, 27134, 430306
66, 3, 189983, 24489, 188700, 27134, 430306
67, 3, 189983, 24489, 188700, 27134, 430306
68, 3, 189983, 24489, 188700, 27134, 430306
69, 3, 189983, 24489, 188700, 27134, 430306
70, 3, 189983, 24489, 188700, 27134, 430306
71, 3, 189983, 24489, 188700, 27134, 430306
72, 3, 189983, 24489, 188700, 27134, 430306
73, 3, 190140, 24489, 188857, 27134, 430620
74, 44, 200393, 526411, 199110, 27134, 953048
75, 6, 190646, 61215, 189363, 27134, 468358
76, 3, 190140, 24489, 188857, 27134, 430620
77, 3, 190140, 24489, 188857, 27134, 430620
78, 3, 190140, 24489, 188857, 27134, 430620
79, 3, 190140, 24489, 188857, 27134, 430620
80, 3, 190140, 24489, 188857, 27134, 430620
81, 12, 191972, 134667, 190689, 27134, 544462
82, 137, 253589, 1664917, 252306, 27134, 2197946
83, 3, 189983, 24489, 188700, 27134, 430306
84, 3, 189983, 24489, 188700, 27134, 430306
85, 3, 189983, 24489, 188700, 27134, 430306
86, 3, 189983, 24489, 188700, 27134, 430306
87, 3, 189983, 24489, 188700, 27134, 430306
88, 3, 189983, 24489, 188700, 27134, 430306
89, 3, 189983, 24489, 188700, 27134, 430306
90, 3, 189983, 24489, 188700, 27134, 430306
91, 2, 189983, 12247, 188700, 27134, 418064
92, 3, 189983, 24489, 188700, 27134, 430306
93, 3, 190140, 24489, 188857, 27134, 430620
94, 16, 193013, 183635, 191730, 27134, 595512
95, 3, 190140, 24489, 188857, 27134, 430620
96, 3, 190140, 24489, 188857, 27134, 430620
97, 3, 190140, 24489, 188857, 27134, 430620
98, 3, 190140, 24489, 188857, 27134, 430620
99, 3, 190140, 24489, 188857, 27134, 430620
100, 3, 190140, 24489, 188857, 27134, 430620
101, 69, 204493, 832461, 203210, 27134, 1267298
102, 1076, 371496, 13160155, 370213, 27134, 13928998
103, 3, 189983, 24489, 188700, 27134, 430306
104, 3, 189983, 24489, 188700, 27134, 430306
105, 3, 189983, 24489, 188700, 27134, 430306
106, 3, 189983, 24489, 188700, 27134, 430306
107, 3, 189983, 24489, 188700, 27134, 430306
108, 3, 189983, 24489, 188700, 27134, 430306
109, 3, 189983, 24489, 188700, 27134, 430306
110, 3, 189983, 24489, 188700, 27134, 430306
111, 2, 189983, 12247, 188700, 27134, 418064
112, 3, 189983, 24489, 188700, 27134, 430306
113, 3, 189983, 24489, 188700, 27134, 430306
114, 3, 189983, 24489, 188700, 27134, 430306
115, 3, 189983, 24489, 188700, 27134, 430306
116, 3, 189983, 24489, 188700, 27134, 430306
117, 3, 189983, 24489, 188700, 27134, 430306
118, 3, 189983, 24489, 188700, 27134, 430306
119, 3, 190140, 24489, 188857, 27134, 430620
120, 17, 192618, 195877, 191335, 27134, 606964
121, 26, 194294, 306055, 193011, 27134, 720494
122, 3, 190140, 24489, 188857, 27134, 430620
123, 3, 190140, 24489, 188857, 27134, 430620
124, 3, 190140, 24489, 188857, 27134, 430620
125, 116, 214241, 1407835, 212958, 27134, 1862168
126, 3, 189983, 24489, 188700, 27134, 430306
127, 574, 287630, 7014671, 286347, 27134, 7615782
128, 3, 189983, 24489, 188700, 27134, 430306
129, 3, 189983, 24489, 188700, 27134, 430306
130, 3, 189983, 24489, 188700, 27134, 430306
131, 3, 189983, 24489, 188700, 27134, 430306
132, 3, 189983, 24489, 188700, 27134, 430306
133, 3, 189983, 24489, 188700, 27134, 430306
134, 3, 189983, 24489, 188700, 27134, 430306
135, 3, 189983, 24489, 188700, 27134, 430306
136, 3, 189983, 24489, 188700, 27134, 430306
137, 3, 189983, 24489, 188700, 27134, 430306
138, 3, 190140, 24489, 188857, 27134, 430620
139, 40, 196721, 477443, 195438, 27134, 896736
140, 3, 190140, 24489, 188857, 27134, 430620
141, 3, 190140, 24489, 188857, 27134, 430620
142, 3, 190140, 24489, 188857, 27134, 430620
143, 3, 190140, 24489, 188857, 27134, 430620
144, 3, 190140, 24489, 188857, 27134, 430620
145, 3, 189983, 24489, 188700, 27134, 430306
146, 34, 198514, 403991, 197231, 27134, 826870
147, 3, 189983, 24489, 188700, 27134, 430306
148, 3, 189983, 24489, 188700, 27134, 430306
149, 3, 189983, 24489, 188700, 27134, 430306
150, 3, 189983, 24489, 188700, 27134, 430306
151, 3, 189983, 24489, 188700, 27134, 430306
152, 3, 189983, 24489, 188700, 27134, 430306
153, 3, 189983, 24489, 188700, 27134, 430306
154, 3, 189983, 24489, 188700, 27134, 430306
155, 3, 189983, 24489, 188700, 27134, 430306
156, 3, 189983, 24489, 188700, 27134, 430306
157, 3, 189983, 24489, 188700, 27134, 430306
158, 3, 189983, 24489, 188700, 27134, 430306
159, 3, 189983, 24489, 188700, 27134, 430306
160, 3, 189983, 24489, 188700, 27134, 430306
161, 3, 189983, 24489, 188700, 27134, 430306
162, 3, 189983, 24489, 188700, 27134, 430306
163, 3, 189983, 24489, 188700, 27134, 430306
164, 3, 190140, 24489, 188857, 27134, 430620
165, 43, 198344, 514169, 197061, 27134, 936708
166, 6, 190646, 61215, 189363, 27134, 468358
167, 3, 190140, 24489, 188857, 27134, 430620
168, 3, 190140, 24489, 188857, 27134, 430620
169, 3, 190140, 24489, 188857, 27134, 430620
170, 3, 190140, 24489, 188857, 27134, 430620
171, 13, 192177, 146909, 190894, 27134, 557114
172, 8, 191040, 85699, 189757, 27134, 493630
173, 111, 219551, 1346625, 218268, 27134, 1811578
174, 3, 189983, 24489, 188700, 27134, 430306
175, 3, 189983, 24489, 188700, 27134, 430306
176, 3, 189983, 24489, 188700, 27134, 430306
177, 3, 189983, 24489, 188700, 27134, 430306
178, 3, 189983, 24489, 188700, 27134, 430306
179, 3, 189983, 24489, 188700, 27134, 430306
180, 3, 189983, 24489, 188700, 27134, 430306
181, 3, 189983, 24489, 188700, 27134, 430306
182, 2, 189983, 12247, 188700, 27134, 418064
183, 2, 189983, 12247, 188700, 27134, 418064
