* Nachinote: Removed \s and elimited multi-line spacing
 
 vsupply1 supply1 gnd PWL (  0.000n 1  1.000n 1  1.053n 1.000  1.497n 1.000  3.274n 1.000  5.023n 1.000  6.838n 1.000  7.899n 1.000  )
 
 vsupply2 supply2 gnd PWL (  0.000n 1  1.000n 1  1.728n 1.000  2.870n 1.000  4.049n 1.000  5.339n 1.000  5.974n 1.000  6.706n 1.000  6.958n 1.000  8.890n 1.000  )
 
 vsupply3 supply3 gnd PWL (  0.000n 1  1.000n 1  1.225n 1.000  2.321n 1.000  2.438n 1.000  2.551n 1.000  3.809n 1.000  4.555n 1.000  4.722n 1.000  5.528n 1.000  7.035n 1.000  8.614n 1.000  )
 
 vsupply4 supply4 gnd PWL (  0.000n 1  1.000n 1  1.138n 1.000  1.415n 1.000  1.974n 1.000  3.030n 1.000  4.050n 1.000  5.051n 1.000  5.963n 1.000  5.992n 1.000  7.045n 1.000  7.978n 1.000  ) 

 vsupply5 supply5 gnd PWL (  0.000n 1  1.000n 1  2.003n 1.000  2.865n 1.000  4.752n 1.000  5.349n 1.000  6.225n 1.000  6.713n 1.000  8.334n 1.000  )
 
 vsupply6 supply6 gnd PWL (  0.000n 1  1.000n 1  2.432n 1.000  3.388n 1.000  4.815n 1.000  6.758n 1.000  6.792n 1.000  6.864n 1.000  7.252n 1.000  9.123n 1.000  ) 
 
 vsupply7 supply7 gnd PWL (  0.000n 1  1.000n 1  2.530n 1.000  2.832n 1.000  3.925n 1.000  4.627n 1.000  5.777n 1.000  7.262n 1.000  8.451n 1.000  ) 
 
 vsupply8 supply8 gnd PWL (  0.000n 1  1.000n 1  2.680n 1.000  2.965n 1.000  4.256n 1.000  4.998n 1.000  6.644n 1.000  8.432n 1.000  ) 
 
 vsupply9 supply9 gnd PWL (  0.000n 1  1.000n 1  2.660n 1.000  4.334n 1.000  4.790n 1.000  5.858n 1.000  6.957n 1.000  8.699n 1.000  ) 
