innerloop, iters, adds, subs, mults, divs, total
1, 3, 11, 12, 2, 2, 27
2, 5, 20, 19, 2, 4, 45
3, 7, 31, 26, 4, 6, 67
4, 9, 40, 33, 4, 8, 85
5, 11, 51, 40, 6, 10, 107
6, 13, 60, 47, 6, 12, 125
7, 15, 71, 54, 8, 14, 147
8, 17, 80, 61, 8, 16, 165
9, 19, 91, 68, 10, 18, 187
10, 21, 100, 75, 10, 20, 205
11, 23, 111, 82, 12, 22, 227
12, 25, 120, 89, 12, 24, 245
13, 27, 131, 96, 14, 26, 267
14, 29, 140, 103, 14, 28, 285
15, 31, 151, 110, 16, 30, 307
16, 33, 160, 117, 16, 32, 325
17, 35, 171, 124, 18, 34, 347
18, 37, 180, 131, 18, 36, 365
19, 39, 191, 138, 20, 38, 387
20, 41, 200, 145, 20, 40, 405
21, 43, 211, 152, 22, 42, 427
22, 45, 220, 159, 22, 44, 445
23, 47, 231, 166, 24, 46, 467
24, 49, 240, 173, 24, 48, 485
25, 51, 251, 180, 26, 50, 507
26, 53, 260, 187, 26, 52, 525
27, 55, 271, 194, 28, 54, 547
28, 57, 280, 201, 28, 56, 565
29, 59, 291, 208, 30, 58, 587
30, 61, 300, 215, 30, 60, 605
31, 63, 311, 222, 32, 62, 627
32, 65, 320, 229, 32, 64, 645
33, 68, 331, 241, 34, 66, 672
34, 70, 340, 248, 34, 68, 690
35, 73, 352, 260, 37, 70, 719
36, 75, 361, 267, 37, 72, 737
37, 78, 373, 279, 40, 74, 766
38, 80, 382, 286, 40, 76, 784
39, 83, 394, 298, 43, 78, 813
40, 85, 403, 305, 43, 80, 831
41, 88, 415, 317, 46, 82, 860
42, 90, 424, 324, 46, 84, 878
43, 92, 433, 331, 46, 86, 896
44, 94, 444, 338, 48, 88, 918
45, 96, 453, 345, 48, 90, 936
46, 98, 464, 352, 50, 92, 958
47, 100, 473, 359, 50, 94, 976
48, 102, 484, 366, 52, 96, 998
49, 104, 493, 373, 52, 98, 1016
50, 106, 504, 380, 54, 100, 1038
51, 108, 513, 387, 54, 102, 1056
52, 110, 524, 394, 56, 104, 1078
53, 112, 533, 401, 56, 106, 1096
54, 114, 544, 408, 58, 108, 1118
55, 116, 553, 415, 58, 110, 1136
56, 118, 564, 422, 60, 112, 1158
57, 120, 573, 429, 60, 114, 1176
58, 122, 584, 436, 62, 116, 1198
59, 124, 593, 443, 62, 118, 1216
60, 126, 604, 450, 64, 120, 1238
61, 128, 613, 457, 64, 122, 1256
62, 130, 624, 464, 66, 124, 1278
63, 132, 633, 471, 66, 126, 1296
64, 134, 644, 478, 68, 128, 1318
65, 136, 653, 485, 68, 130, 1336
66, 138, 664, 492, 70, 132, 1358
67, 140, 673, 499, 70, 134, 1376
68, 142, 684, 506, 72, 136, 1398
69, 144, 693, 513, 72, 138, 1416
70, 146, 704, 520, 74, 140, 1438
71, 148, 713, 527, 74, 142, 1456
72, 150, 724, 534, 76, 144, 1478
73, 152, 733, 541, 76, 146, 1496
74, 154, 744, 548, 78, 148, 1518
75, 156, 753, 555, 78, 150, 1536
76, 158, 764, 562, 80, 152, 1558
77, 160, 773, 569, 80, 154, 1576
78, 162, 784, 576, 82, 156, 1598
79, 164, 793, 583, 82, 158, 1616
80, 166, 804, 590, 84, 160, 1638
81, 168, 813, 597, 84, 162, 1656
82, 170, 824, 604, 86, 164, 1678
83, 172, 833, 611, 86, 166, 1696
84, 174, 844, 618, 88, 168, 1718
85, 176, 853, 625, 88, 170, 1736
86, 178, 864, 632, 90, 172, 1758
87, 180, 873, 639, 90, 174, 1776
88, 182, 884, 646, 92, 176, 1798
89, 184, 893, 653, 92, 178, 1816
90, 186, 904, 660, 94, 180, 1838
91, 188, 913, 667, 94, 182, 1856
92, 190, 924, 674, 96, 184, 1878
93, 192, 933, 681, 96, 186, 1896
94, 194, 944, 688, 98, 188, 1918
95, 196, 953, 695, 98, 190, 1936
96, 198, 964, 702, 100, 192, 1958
97, 200, 973, 709, 100, 194, 1976
98, 202, 984, 716, 102, 196, 1998
99, 204, 993, 723, 102, 198, 2016
100, 206, 1004, 730, 104, 200, 2038
101, 208, 1013, 737, 104, 202, 2056
102, 210, 1024, 744, 106, 204, 2078
103, 212, 1033, 751, 106, 206, 2096
104, 214, 1044, 758, 108, 208, 2118
105, 216, 1053, 765, 108, 210, 2136
106, 218, 1064, 772, 110, 212, 2158
107, 220, 1073, 779, 110, 214, 2176
108, 222, 1084, 786, 112, 216, 2198
109, 224, 1093, 793, 112, 218, 2216
110, 226, 1104, 800, 114, 220, 2238
111, 228, 1113, 807, 114, 222, 2256
112, 230, 1124, 814, 116, 224, 2278
113, 232, 1133, 821, 116, 226, 2296
114, 234, 1144, 828, 118, 228, 2318
115, 236, 1153, 835, 118, 230, 2336
116, 239, 1164, 847, 120, 232, 2363
117, 241, 1173, 854, 120, 234, 2381
118, 244, 1185, 866, 123, 236, 2410
119, 246, 1194, 873, 123, 238, 2428
120, 249, 1206, 885, 126, 240, 2457
121, 251, 1215, 892, 126, 242, 2475
122, 254, 1227, 904, 129, 244, 2504
123, 256, 1236, 911, 129, 246, 2522
124, 259, 1248, 923, 132, 248, 2551
125, 261, 1257, 930, 132, 250, 2569
126, 263, 1268, 937, 134, 252, 2591
127, 265, 1277, 944, 134, 254, 2609
128, 267, 1288, 951, 136, 256, 2631
129, 269, 1297, 958, 136, 258, 2649
130, 271, 1308, 965, 138, 260, 2671
131, 273, 1317, 972, 138, 262, 2689
132, 275, 1328, 979, 140, 264, 2711
133, 277, 1337, 986, 140, 266, 2729
134, 279, 1348, 993, 142, 268, 2751
135, 281, 1357, 1000, 142, 270, 2769
136, 283, 1368, 1007, 144, 272, 2791
137, 285, 1377, 1014, 144, 274, 2809
138, 287, 1388, 1021, 146, 276, 2831
139, 289, 1397, 1028, 146, 278, 2849
140, 291, 1408, 1035, 148, 280, 2871
141, 293, 1417, 1042, 148, 282, 2889
142, 295, 1428, 1049, 150, 284, 2911
143, 297, 1437, 1056, 150, 286, 2929
144, 299, 1448, 1063, 152, 288, 2951
145, 301, 1457, 1070, 152, 290, 2969
146, 303, 1468, 1077, 154, 292, 2991
147, 305, 1477, 1084, 154, 294, 3009
148, 307, 1488, 1091, 156, 296, 3031
149, 309, 1497, 1098, 156, 298, 3049
150, 311, 1508, 1105, 158, 300, 3071
151, 313, 1518, 1112, 159, 302, 3091
152, 315, 1529, 1119, 161, 304, 3113
153, 317, 1539, 1126, 162, 306, 3133
154, 319, 1550, 1133, 164, 308, 3155
155, 321, 1560, 1140, 165, 310, 3175
156, 323, 1571, 1147, 167, 312, 3197
157, 325, 1581, 1154, 168, 314, 3217
158, 327, 1592, 1161, 170, 316, 3239
159, 329, 1602, 1168, 171, 318, 3259
160, 331, 1613, 1175, 173, 320, 3281
161, 333, 1623, 1182, 174, 322, 3301
162, 335, 1634, 1189, 176, 324, 3323
163, 337, 1644, 1196, 177, 326, 3343
164, 339, 1655, 1203, 179, 328, 3365
165, 341, 1665, 1210, 180, 330, 3385
166, 343, 1676, 1217, 182, 332, 3407
167, 345, 1686, 1224, 183, 334, 3427
168, 347, 1697, 1231, 185, 336, 3449
169, 349, 1707, 1238, 186, 338, 3469
170, 351, 1718, 1245, 188, 340, 3491
171, 353, 1728, 1252, 189, 342, 3511
172, 355, 1739, 1259, 191, 344, 3533
173, 357, 1749, 1266, 192, 346, 3553
174, 359, 1760, 1273, 194, 348, 3575
175, 361, 1770, 1280, 195, 350, 3595
176, 363, 1781, 1287, 197, 352, 3617
177, 365, 1791, 1294, 198, 354, 3637
178, 367, 1802, 1301, 200, 356, 3659
179, 369, 1812, 1308, 201, 358, 3679
180, 371, 1823, 1315, 203, 360, 3701
181, 373, 1833, 1322, 204, 362, 3721
182, 375, 1844, 1329, 206, 364, 3743
183, 377, 1854, 1336, 207, 366, 3763
184, 379, 1865, 1343, 209, 368, 3785
185, 381, 1875, 1350, 210, 370, 3805
186, 383, 1886, 1357, 212, 372, 3827
187, 385, 1895, 1364, 212, 374, 3845
