innerloop, iters, adds, subs, mults, divs, total
1, 3, 946, 9715, 465, 288, 11414
2, 5, 1427, 14579, 465, 576, 17047
3, 7, 1908, 19443, 465, 864, 22680
4, 9, 2389, 24307, 465, 1152, 28313
5, 11, 2870, 29171, 465, 1440, 33946
6, 13, 3351, 34035, 465, 1728, 39579
7, 16, 4297, 43750, 930, 2016, 50993
8, 18, 4778, 48614, 930, 2304, 56626
9, 20, 5259, 53478, 930, 2592, 62259
10, 22, 5740, 58342, 930, 2880, 67892
11, 24, 6221, 63206, 930, 3168, 73525
12, 26, 7012, 68070, 1240, 3456, 79778
13, 28, 7493, 72934, 1240, 3744, 85411
14, 30, 7974, 77798, 1240, 4032, 91044
15, 32, 8455, 82662, 1240, 4320, 96677
16, 34, 9246, 87526, 1550, 4608, 102930
17, 36, 9727, 92390, 1550, 4896, 108563
18, 39, 10518, 102105, 1860, 5184, 119667
19, 41, 10999, 106969, 1860, 5472, 125300
20, 43, 11480, 111833, 1860, 5760, 130933
21, 46, 12426, 121548, 2325, 6048, 142347
22, 48, 12907, 126412, 2325, 6336, 147980
23, 50, 13388, 131276, 2325, 6624, 153613
24, 53, 14334, 140991, 2790, 6912, 165027
25, 55, 14815, 145855, 2790, 7200, 170660
26, 57, 15296, 150719, 2790, 7488, 176293
27, 59, 15777, 155583, 2790, 7776, 181926
28, 62, 16723, 165298, 3255, 8064, 193340
29, 64, 17204, 170162, 3255, 8352, 198973
30, 66, 17685, 175026, 3255, 8640, 204606
31, 69, 18631, 184741, 3720, 8928, 216020
32, 71, 19112, 189605, 3720, 9216, 221653
33, 73, 19593, 194469, 3720, 9504, 227286
34, 75, 20074, 199333, 3720, 9792, 232919
35, 78, 21020, 209048, 4185, 10080, 244333
36, 80, 21501, 213912, 4185, 10368, 249966
37, 82, 21982, 218776, 4185, 10656, 255599
38, 84, 22463, 223640, 4185, 10944, 261232
39, 86, 22944, 228504, 4185, 11232, 266865
40, 89, 23890, 238219, 4650, 11520, 278279
41, 91, 24371, 243083, 4650, 11808, 283912
42, 93, 24852, 247947, 4650, 12096, 289545
43, 95, 25333, 252811, 4650, 12384, 295178
44, 97, 25814, 257675, 4650, 12672, 300811
45, 100, 26760, 267390, 5115, 12960, 312225
46, 102, 27241, 272254, 5115, 13248, 317858
47, 104, 27722, 277118, 5115, 13536, 323491
48, 106, 28203, 281982, 5115, 13824, 329124
49, 109, 29149, 291697, 5580, 14112, 340538
50, 111, 29630, 296561, 5580, 14400, 346171
51, 113, 30111, 301425, 5580, 14688, 351804
52, 115, 30592, 306289, 5580, 14976, 357437
53, 118, 31538, 316004, 6045, 15264, 368851
54, 120, 32019, 320868, 6045, 15552, 374484
55, 122, 32500, 325732, 6045, 15840, 380117
56, 125, 33446, 335447, 6510, 16128, 391531
57, 127, 33927, 340311, 6510, 16416, 397164
58, 129, 34408, 345175, 6510, 16704, 402797
59, 132, 35354, 354890, 6975, 16992, 414211
60, 134, 35835, 359754, 6975, 17280, 419844
61, 136, 36316, 364618, 6975, 17568, 425477
62, 138, 36797, 369482, 6975, 17856, 431110
63, 141, 37743, 379197, 7440, 18144, 442524
64, 143, 38224, 384061, 7440, 18432, 448157
65, 145, 38705, 388925, 7440, 18720, 453790
66, 147, 39186, 393789, 7440, 19008, 459423
67, 150, 40132, 403504, 7905, 19296, 470837
68, 152, 40613, 408368, 7905, 19584, 476470
69, 154, 41094, 413232, 7905, 19872, 482103
70, 157, 42040, 422947, 8370, 20160, 493517
71, 159, 42521, 427811, 8370, 20448, 499150
72, 161, 43002, 432675, 8370, 20736, 504783
73, 164, 43948, 442390, 8835, 21024, 516197
74, 166, 44429, 447254, 8835, 21312, 521830
75, 168, 44910, 452118, 8835, 21600, 527463
76, 171, 45856, 461833, 9300, 21888, 538877
77, 173, 46337, 466697, 9300, 22176, 544510
78, 175, 46818, 471561, 9300, 22464, 550143
79, 178, 47764, 481276, 9765, 22752, 561557
80, 180, 48245, 486140, 9765, 23040, 567190
81, 182, 48726, 491004, 9765, 23328, 572823
82, 185, 49672, 500719, 10230, 23616, 584237
83, 187, 50153, 505583, 10230, 23904, 589870
84, 189, 50634, 510447, 10230, 24192, 595503
85, 192, 51580, 520162, 10695, 24480, 606917
86, 194, 52061, 525026, 10695, 24768, 612550
87, 196, 52542, 529890, 10695, 25056, 618183
88, 199, 53488, 539605, 11160, 25344, 629597
89, 201, 53969, 544469, 11160, 25632, 635230
90, 203, 54450, 549333, 11160, 25920, 640863
91, 206, 55396, 559048, 11625, 26208, 652277
92, 208, 55877, 563912, 11625, 26496, 657910
93, 210, 56358, 568776, 11625, 26784, 663543
94, 212, 56839, 573640, 11625, 27072, 669176
95, 215, 57785, 583355, 12090, 27360, 680590
96, 217, 58266, 588219, 12090, 27648, 686223
97, 219, 58747, 593083, 12090, 27936, 691856
98, 222, 59693, 602798, 12555, 28224, 703270
99, 224, 60174, 607662, 12555, 28512, 708903
100, 227, 61120, 617377, 13020, 28800, 720317
101, 229, 61601, 622241, 13020, 29088, 725950
102, 231, 62082, 627105, 13020, 29376, 731583
103, 234, 63028, 636820, 13485, 29664, 742997
104, 236, 63509, 641684, 13485, 29952, 748630
105, 238, 63990, 646548, 13485, 30240, 754263
106, 241, 64936, 656263, 13950, 30528, 765677
107, 243, 65417, 661127, 13950, 30816, 771310
108, 245, 65898, 665991, 13950, 31104, 776943
109, 247, 66379, 670855, 13950, 31392, 782576
110, 249, 66860, 675719, 13950, 31680, 788209
111, 251, 67341, 680583, 13950, 31968, 793842
112, 254, 68287, 690298, 14415, 32256, 805256
113, 256, 68768, 695162, 14415, 32544, 810889
114, 258, 69249, 700026, 14415, 32832, 816522
115, 260, 69730, 704890, 14415, 33120, 822155
116, 263, 70676, 714605, 14880, 33408, 833569
117, 265, 71157, 719469, 14880, 33696, 839202
118, 267, 71638, 724333, 14880, 33984, 844835
119, 269, 72119, 729197, 14880, 34272, 850468
120, 271, 72600, 734061, 14880, 34560, 856101
121, 274, 73546, 743776, 15345, 34848, 867515
122, 276, 74027, 748640, 15345, 35136, 873148
123, 278, 74508, 753504, 15345, 35424, 878781
124, 281, 75454, 763219, 15810, 35712, 890195
125, 283, 75935, 768083, 15810, 36000, 895828
126, 285, 76416, 772947, 15810, 36288, 901461
127, 287, 76897, 777811, 15810, 36576, 907094
128, 289, 77688, 782675, 16120, 36864, 913347
129, 291, 78169, 787539, 16120, 37152, 918980
130, 293, 78650, 792403, 16120, 37440, 924613
131, 296, 79596, 802118, 16585, 37728, 936027
132, 298, 80077, 806982, 16585, 38016, 941660
133, 300, 80558, 811846, 16585, 38304, 947293
134, 303, 81349, 821561, 16895, 38592, 958397
135, 305, 81830, 826425, 16895, 38880, 964030
136, 307, 82311, 831289, 16895, 39168, 969663
137, 310, 83257, 841004, 17360, 39456, 981077
138, 312, 83738, 845868, 17360, 39744, 986710
139, 314, 84219, 850732, 17360, 40032, 992343
140, 317, 85165, 860447, 17825, 40320, 1003757
141, 319, 85646, 865311, 17825, 40608, 1009390
142, 321, 86127, 870175, 17825, 40896, 1015023
143, 324, 87073, 879890, 18290, 41184, 1026437
144, 326, 87554, 884754, 18290, 41472, 1032070
145, 328, 88035, 889618, 18290, 41760, 1037703
146, 331, 88981, 899333, 18755, 42048, 1049117
147, 333, 89462, 904197, 18755, 42336, 1054750
148, 335, 89943, 909061, 18755, 42624, 1060383
149, 338, 90889, 918776, 19220, 42912, 1071797
150, 340, 91370, 923640, 19220, 43200, 1077430
151, 342, 91851, 928504, 19220, 43488, 1083063
152, 345, 92797, 938219, 19685, 43776, 1094477
153, 347, 93278, 943083, 19685, 44064, 1100110
154, 349, 93759, 947947, 19685, 44352, 1105743
155, 352, 94705, 957662, 20150, 44640, 1117157
156, 354, 95186, 962526, 20150, 44928, 1122790
157, 356, 95667, 967390, 20150, 45216, 1128423
158, 359, 96613, 977105, 20615, 45504, 1139837
159, 361, 97094, 981969, 20615, 45792, 1145470
160, 363, 97575, 986833, 20615, 46080, 1151103
161, 366, 98521, 996548, 21080, 46368, 1162517
162, 368, 99002, 1001412, 21080, 46656, 1168150
163, 370, 99483, 1006276, 21080, 46944, 1173783
164, 372, 99964, 1011140, 21080, 47232, 1179416
165, 375, 100910, 1020855, 21545, 47520, 1190830
166, 377, 101391, 1025719, 21545, 47808, 1196463
167, 379, 101872, 1030583, 21545, 48096, 1202096
168, 382, 102818, 1040298, 22010, 48384, 1213510
169, 384, 103299, 1045162, 22010, 48672, 1219143
170, 386, 103780, 1050026, 22010, 48960, 1224776
171, 389, 104726, 1059741, 22475, 49248, 1236190
172, 391, 105207, 1064605, 22475, 49536, 1241823
173, 393, 105688, 1069469, 22475, 49824, 1247456
174, 396, 106634, 1079184, 22940, 50112, 1258870
175, 398, 107115, 1084048, 22940, 50400, 1264503
176, 400, 107596, 1088912, 22940, 50688, 1270136
177, 403, 108542, 1098627, 23405, 50976, 1281550
178, 405, 109023, 1103491, 23405, 51264, 1287183
179, 407, 109504, 1108355, 23405, 51552, 1292816
180, 409, 109985, 1113219, 23405, 51840, 1298449
181, 411, 110466, 1118083, 23405, 52128, 1304082
182, 413, 110947, 1122947, 23405, 52416, 1309715
183, 415, 111428, 1127811, 23405, 52704, 1315348
184, 417, 111909, 1132675, 23405, 52992, 1320981
185, 420, 112855, 1142390, 23870, 53280, 1332395
186, 422, 113336, 1147254, 23870, 53568, 1338028
187, 424, 113817, 1152118, 23870, 53856, 1343661
188, 426, 114298, 1156982, 23870, 54144, 1349294
189, 428, 114779, 1161846, 23870, 54432, 1354927
190, 430, 115260, 1166710, 23870, 54720, 1360560
191, 433, 116206, 1176425, 24335, 55008, 1371974
192, 435, 116687, 1181289, 24335, 55296, 1377607
193, 437, 117168, 1186153, 24335, 55584, 1383240
194, 439, 117649, 1191017, 24335, 55872, 1388873
195, 441, 118130, 1195881, 24335, 56160, 1394506
196, 444, 119076, 1205596, 24800, 56448, 1405920
197, 446, 119557, 1210460, 24800, 56736, 1411553
198, 448, 120038, 1215324, 24800, 57024, 1417186
199, 450, 120519, 1220188, 24800, 57312, 1422819
200, 452, 121310, 1225052, 25110, 57600, 1429072
201, 454, 121791, 1229916, 25110, 57888, 1434705
202, 456, 122272, 1234780, 25110, 58176, 1440338
203, 459, 123063, 1244495, 25420, 58464, 1451442
204, 461, 123544, 1249359, 25420, 58752, 1457075
205, 463, 124025, 1254223, 25420, 59040, 1462708
206, 466, 124971, 1263938, 25885, 59328, 1474122
207, 468, 125452, 1268802, 25885, 59616, 1479755
208, 470, 125933, 1273666, 25885, 59904, 1485388
209, 473, 126879, 1283381, 26350, 60192, 1496802
210, 475, 127360, 1288245, 26350, 60480, 1502435
211, 477, 127841, 1293109, 26350, 60768, 1508068
212, 480, 128787, 1302824, 26815, 61056, 1519482
213, 482, 129268, 1307688, 26815, 61344, 1525115
214, 484, 129749, 1312552, 26815, 61632, 1530748
215, 487, 130695, 1322267, 27280, 61920, 1542162
216, 489, 131176, 1327131, 27280, 62208, 1547795
217, 491, 131657, 1331995, 27280, 62496, 1553428
218, 494, 132603, 1341710, 27745, 62784, 1564842
219, 496, 133084, 1346574, 27745, 63072, 1570475
220, 498, 133565, 1351438, 27745, 63360, 1576108
221, 501, 134511, 1361153, 28210, 63648, 1587522
222, 503, 134992, 1366017, 28210, 63936, 1593155
223, 505, 135473, 1370881, 28210, 64224, 1598788
224, 508, 136419, 1380596, 28675, 64512, 1610202
225, 510, 136900, 1385460, 28675, 64800, 1615835
226, 512, 137381, 1390324, 28675, 65088, 1621468
227, 515, 138327, 1400039, 29140, 65376, 1632882
228, 517, 138808, 1404903, 29140, 65664, 1638515
229, 519, 139289, 1409767, 29140, 65952, 1644148
230, 522, 140235, 1419482, 29605, 66240, 1655562
231, 524, 140716, 1424346, 29605, 66528, 1661195
232, 526, 141197, 1429210, 29605, 66816, 1666828
233, 528, 141678, 1434074, 29605, 67104, 1672461
234, 531, 142624, 1443789, 30070, 67392, 1683875
235, 533, 143105, 1448653, 30070, 67680, 1689508
236, 535, 143586, 1453517, 30070, 67968, 1695141
237, 537, 144067, 1458381, 30070, 68256, 1700774
238, 540, 145013, 1468096, 30535, 68544, 1712188
239, 542, 145494, 1472960, 30535, 68832, 1717821
240, 544, 145975, 1477824, 30535, 69120, 1723454
241, 547, 146921, 1487539, 31000, 69408, 1734868
242, 549, 147402, 1492403, 31000, 69696, 1740501
243, 551, 147883, 1497267, 31000, 69984, 1746134
244, 554, 148829, 1506982, 31465, 70272, 1757548
245, 556, 149310, 1511846, 31465, 70560, 1763181
246, 558, 149791, 1516710, 31465, 70848, 1768814
247, 561, 150737, 1526425, 31930, 71136, 1780228
248, 563, 151218, 1531289, 31930, 71424, 1785861
249, 565, 151699, 1536153, 31930, 71712, 1791494
250, 568, 152645, 1545868, 32395, 72000, 1802908
251, 570, 153126, 1550732, 32395, 72288, 1808541
252, 572, 153607, 1555596, 32395, 72576, 1814174
253, 575, 154553, 1565311, 32860, 72864, 1825588
254, 577, 155034, 1570175, 32860, 73152, 1831221
255, 579, 155515, 1575039, 32860, 73440, 1836854
256, 582, 156461, 1584754, 33325, 73728, 1848268
257, 584, 156942, 1589618, 33325, 74016, 1853901
258, 586, 157423, 1594482, 33325, 74304, 1859534
259, 589, 158369, 1604197, 33790, 74592, 1870948
260, 591, 158850, 1609061, 33790, 74880, 1876581
261, 593, 159331, 1613925, 33790, 75168, 1882214
262, 596, 160277, 1623640, 34255, 75456, 1893628
263, 598, 160758, 1628504, 34255, 75744, 1899261
264, 600, 161239, 1633368, 34255, 76032, 1904894
265, 603, 162185, 1643083, 34720, 76320, 1916308
266, 605, 162666, 1647947, 34720, 76608, 1921941
267, 607, 163147, 1652811, 34720, 76896, 1927574
268, 610, 164093, 1662526, 35185, 77184, 1938988
269, 612, 164574, 1667390, 35185, 77472, 1944621
270, 614, 165055, 1672254, 35185, 77760, 1950254
271, 617, 166001, 1681969, 35650, 78048, 1961668
272, 619, 166482, 1686833, 35650, 78336, 1967301
273, 621, 166963, 1691697, 35650, 78624, 1972934
274, 623, 167444, 1696561, 35650, 78912, 1978567
275, 626, 168390, 1706276, 36115, 79200, 1989981
276, 628, 168871, 1711140, 36115, 79488, 1995614
277, 630, 169352, 1716004, 36115, 79776, 2001247
278, 632, 169833, 1720868, 36115, 80064, 2006880
279, 635, 170779, 1730583, 36580, 80352, 2018294
280, 637, 171260, 1735447, 36580, 80640, 2023927
281, 639, 171741, 1740311, 36580, 80928, 2029560
282, 641, 172222, 1745175, 36580, 81216, 2035193
283, 643, 173013, 1750039, 36890, 81504, 2041446
284, 645, 173494, 1754903, 36890, 81792, 2047079
285, 647, 173975, 1759767, 36890, 82080, 2052712
286, 650, 174766, 1769482, 37200, 82368, 2063816
287, 652, 175247, 1774346, 37200, 82656, 2069449
288, 654, 175728, 1779210, 37200, 82944, 2075082
289, 656, 176519, 1784074, 37510, 83232, 2081335
290, 658, 177000, 1788938, 37510, 83520, 2086968
291, 660, 177481, 1793802, 37510, 83808, 2092601
292, 663, 178272, 1803517, 37820, 84096, 2103705
293, 665, 178753, 1808381, 37820, 84384, 2109338
294, 667, 179234, 1813245, 37820, 84672, 2114971
295, 670, 180025, 1822960, 38130, 84960, 2126075
296, 672, 180506, 1827824, 38130, 85248, 2131708
297, 675, 181452, 1837539, 38595, 85536, 2143122
298, 677, 181933, 1842403, 38595, 85824, 2148755
299, 679, 182414, 1847267, 38595, 86112, 2154388
300, 682, 183360, 1856982, 39060, 86400, 2165802
301, 684, 183841, 1861846, 39060, 86688, 2171435
302, 686, 184322, 1866710, 39060, 86976, 2177068
303, 689, 185268, 1876425, 39525, 87264, 2188482
304, 691, 185749, 1881289, 39525, 87552, 2194115
305, 693, 186230, 1886153, 39525, 87840, 2199748
306, 695, 186711, 1891017, 39525, 88128, 2205381
307, 698, 187657, 1900732, 39990, 88416, 2216795
308, 700, 188138, 1905596, 39990, 88704, 2222428
309, 702, 188619, 1910460, 39990, 88992, 2228061
310, 704, 189100, 1915324, 39990, 89280, 2233694
311, 707, 190046, 1925039, 40455, 89568, 2245108
312, 709, 190527, 1929903, 40455, 89856, 2250741
313, 711, 191008, 1934767, 40455, 90144, 2256374
314, 714, 191954, 1944482, 40920, 90432, 2267788
315, 716, 192435, 1949346, 40920, 90720, 2273421
316, 718, 192916, 1954210, 40920, 91008, 2279054
317, 721, 193862, 1963925, 41385, 91296, 2290468
318, 723, 194343, 1968789, 41385, 91584, 2296101
319, 725, 194824, 1973653, 41385, 91872, 2301734
320, 728, 195770, 1983368, 41850, 92160, 2313148
321, 730, 196251, 1988232, 41850, 92448, 2318781
322, 732, 196732, 1993096, 41850, 92736, 2324414
323, 735, 197678, 2002811, 42315, 93024, 2335828
324, 737, 198159, 2007675, 42315, 93312, 2341461
325, 739, 198640, 2012539, 42315, 93600, 2347094
326, 742, 199586, 2022254, 42780, 93888, 2358508
327, 744, 200067, 2027118, 42780, 94176, 2364141
328, 746, 200548, 2031982, 42780, 94464, 2369774
329, 749, 201494, 2041697, 43245, 94752, 2381188
330, 751, 201975, 2046561, 43245, 95040, 2386821
331, 754, 202921, 2056276, 43710, 95328, 2398235
332, 756, 203402, 2061140, 43710, 95616, 2403868
333, 759, 204348, 2070855, 44175, 95904, 2415282
334, 761, 204829, 2075719, 44175, 96192, 2420915
335, 763, 205310, 2080583, 44175, 96480, 2426548
336, 766, 206256, 2090298, 44640, 96768, 2437962
337, 768, 206737, 2095162, 44640, 97056, 2443595
338, 770, 207218, 2100026, 44640, 97344, 2449228
339, 772, 207699, 2104890, 44640, 97632, 2454861
340, 774, 208180, 2109754, 44640, 97920, 2460494
341, 777, 209126, 2119469, 45105, 98208, 2471908
342, 779, 209607, 2124333, 45105, 98496, 2477541
343, 781, 210088, 2129197, 45105, 98784, 2483174
344, 783, 210569, 2134061, 45105, 99072, 2488807
345, 785, 211050, 2138925, 45105, 99360, 2494440
346, 788, 211996, 2148640, 45570, 99648, 2505854
347, 790, 212477, 2153504, 45570, 99936, 2511487
348, 792, 212958, 2158368, 45570, 100224, 2517120
349, 795, 213904, 2168083, 46035, 100512, 2528534
350, 797, 214385, 2172947, 46035, 100800, 2534167
351, 799, 214866, 2177811, 46035, 101088, 2539800
352, 801, 215657, 2182675, 46345, 101376, 2546053
353, 803, 216138, 2187539, 46345, 101664, 2551686
354, 805, 216619, 2192403, 46345, 101952, 2557319
355, 808, 217410, 2202118, 46655, 102240, 2568423
356, 810, 217891, 2206982, 46655, 102528, 2574056
357, 812, 218372, 2211846, 46655, 102816, 2579689
358, 815, 219163, 2221561, 46965, 103104, 2590793
359, 817, 219644, 2226425, 46965, 103392, 2596426
360, 819, 220125, 2231289, 46965, 103680, 2602059
361, 822, 220916, 2241004, 47275, 103968, 2613163
362, 824, 221397, 2245868, 47275, 104256, 2618796
363, 826, 221878, 2250732, 47275, 104544, 2624429
364, 829, 222824, 2260447, 47740, 104832, 2635843
365, 831, 223305, 2265311, 47740, 105120, 2641476
366, 834, 224251, 2275026, 48205, 105408, 2652890
367, 836, 224732, 2279890, 48205, 105696, 2658523
368, 838, 225213, 2284754, 48205, 105984, 2664156
369, 841, 226159, 2294469, 48670, 106272, 2675570
370, 843, 226640, 2299333, 48670, 106560, 2681203
371, 845, 227121, 2304197, 48670, 106848, 2686836
372, 848, 228067, 2313912, 49135, 107136, 2698250
373, 850, 228548, 2318776, 49135, 107424, 2703883
374, 852, 229029, 2323640, 49135, 107712, 2709516
375, 854, 229510, 2328504, 49135, 108000, 2715149
376, 857, 230456, 2338219, 49600, 108288, 2726563
377, 859, 230937, 2343083, 49600, 108576, 2732196
378, 861, 231418, 2347947, 49600, 108864, 2737829
379, 863, 231899, 2352811, 49600, 109152, 2743462
380, 865, 232380, 2357675, 49600, 109440, 2749095
381, 868, 233326, 2367390, 50065, 109728, 2760509
382, 870, 233807, 2372254, 50065, 110016, 2766142
383, 872, 234288, 2377118, 50065, 110304, 2771775
384, 874, 234769, 2381982, 50065, 110592, 2777408
385, 876, 235250, 2386846, 50065, 110880, 2783041
386, 878, 235731, 2391710, 50065, 111168, 2788674
387, 881, 236677, 2401425, 50530, 111456, 2800088
388, 883, 237158, 2406289, 50530, 111744, 2805721
389, 885, 237639, 2411153, 50530, 112032, 2811354
390, 887, 238120, 2416017, 50530, 112320, 2816987
391, 889, 238601, 2420881, 50530, 112608, 2822620
392, 891, 239082, 2425745, 50530, 112896, 2828253
393, 893, 239563, 2430609, 50530, 113184, 2833886
394, 896, 240509, 2440324, 50995, 113472, 2845300
395, 898, 240990, 2445188, 50995, 113760, 2850933
396, 900, 241471, 2450052, 50995, 114048, 2856566
397, 902, 241952, 2454916, 50995, 114336, 2862199
398, 905, 242898, 2464631, 51460, 114624, 2873613
399, 907, 243379, 2469495, 51460, 114912, 2879246
400, 909, 243860, 2474359, 51460, 115200, 2884879
401, 912, 244806, 2484074, 51925, 115488, 2896293
402, 914, 245287, 2488938, 51925, 115776, 2901926
403, 916, 245768, 2493802, 51925, 116064, 2907559
404, 919, 246714, 2503517, 52390, 116352, 2918973
405, 921, 247195, 2508381, 52390, 116640, 2924606
406, 923, 247676, 2513245, 52390, 116928, 2930239
407, 926, 248622, 2522960, 52855, 117216, 2941653
408, 928, 249103, 2527824, 52855, 117504, 2947286
409, 930, 249584, 2532688, 52855, 117792, 2952919
410, 933, 250530, 2542403, 53320, 118080, 2964333
411, 935, 251011, 2547267, 53320, 118368, 2969966
412, 937, 251492, 2552131, 53320, 118656, 2975599
413, 940, 252438, 2561846, 53785, 118944, 2987013
414, 942, 252919, 2566710, 53785, 119232, 2992646
415, 945, 253865, 2576425, 54250, 119520, 3004060
416, 947, 254346, 2581289, 54250, 119808, 3009693
417, 950, 255292, 2591004, 54715, 120096, 3021107
418, 952, 255773, 2595868, 54715, 120384, 3026740
419, 954, 256254, 2600732, 54715, 120672, 3032373
420, 957, 257200, 2610447, 55180, 120960, 3043787
421, 959, 257681, 2615311, 55180, 121248, 3049420
422, 961, 258162, 2620175, 55180, 121536, 3055053
423, 963, 258643, 2625039, 55180, 121824, 3060686
424, 965, 259124, 2629903, 55180, 122112, 3066319
425, 968, 260070, 2639618, 55645, 122400, 3077733
426, 970, 260551, 2644482, 55645, 122688, 3083366
427, 972, 261032, 2649346, 55645, 122976, 3088999
428, 975, 261978, 2659061, 56110, 123264, 3100413
429, 977, 262459, 2663925, 56110, 123552, 3106046
430, 980, 263405, 2673640, 56575, 123840, 3117460
431, 982, 263886, 2678504, 56575, 124128, 3123093
432, 984, 264367, 2683368, 56575, 124416, 3128726
433, 987, 265313, 2693083, 57040, 124704, 3140140
434, 989, 265794, 2697947, 57040, 124992, 3145773
435, 991, 266275, 2702811, 57040, 125280, 3151406
436, 994, 267221, 2712526, 57505, 125568, 3162820
437, 996, 267702, 2717390, 57505, 125856, 3168453
438, 998, 268183, 2722254, 57505, 126144, 3174086
439, 1000, 268664, 2727118, 57505, 126432, 3179719
440, 1002, 269145, 2731982, 57505, 126720, 3185352
441, 1004, 269626, 2736846, 57505, 127008, 3190985
442, 1007, 270572, 2746561, 57970, 127296, 3202399
443, 1009, 271053, 2751425, 57970, 127584, 3208032
444, 1011, 271534, 2756289, 57970, 127872, 3213665
445, 1013, 272015, 2761153, 57970, 128160, 3219298
446, 1016, 272961, 2770868, 58435, 128448, 3230712
447, 1018, 273442, 2775732, 58435, 128736, 3236345
448, 1020, 273923, 2780596, 58435, 129024, 3241978
449, 1022, 274404, 2785460, 58435, 129312, 3247611
450, 1024, 274885, 2790324, 58435, 129600, 3253244
451, 1027, 275831, 2800039, 58900, 129888, 3264658
452, 1029, 276312, 2804903, 58900, 130176, 3270291
453, 1031, 276793, 2809767, 58900, 130464, 3275924
454, 1034, 277739, 2819482, 59365, 130752, 3287338
455, 1036, 278220, 2824346, 59365, 131040, 3292971
456, 1038, 278701, 2829210, 59365, 131328, 3298604
457, 1040, 279182, 2834074, 59365, 131616, 3304237
458, 1042, 279973, 2838938, 59675, 131904, 3310490
459, 1044, 280454, 2843802, 59675, 132192, 3316123
460, 1046, 280935, 2848666, 59675, 132480, 3321756
461, 1049, 281881, 2858381, 60140, 132768, 3333170
462, 1051, 282362, 2863245, 60140, 133056, 3338803
463, 1053, 282843, 2868109, 60140, 133344, 3344436
464, 1056, 283634, 2877824, 60450, 133632, 3355540
465, 1058, 284115, 2882688, 60450, 133920, 3361173
466, 1060, 284596, 2887552, 60450, 134208, 3366806
467, 1063, 285542, 2897267, 60915, 134496, 3378220
468, 1065, 286023, 2902131, 60915, 134784, 3383853
469, 1067, 286504, 2906995, 60915, 135072, 3389486
470, 1070, 287450, 2916710, 61380, 135360, 3400900
471, 1072, 287931, 2921574, 61380, 135648, 3406533
472, 1074, 288412, 2926438, 61380, 135936, 3412166
473, 1077, 289358, 2936153, 61845, 136224, 3423580
474, 1079, 289839, 2941017, 61845, 136512, 3429213
475, 1081, 290320, 2945881, 61845, 136800, 3434846
476, 1084, 291266, 2955596, 62310, 137088, 3446260
477, 1086, 291747, 2960460, 62310, 137376, 3451893
478, 1088, 292228, 2965324, 62310, 137664, 3457526
479, 1091, 293174, 2975039, 62775, 137952, 3468940
480, 1093, 293655, 2979903, 62775, 138240, 3474573
481, 1095, 294136, 2984767, 62775, 138528, 3480206
482, 1098, 295082, 2994482, 63240, 138816, 3491620
483, 1100, 295563, 2999346, 63240, 139104, 3497253
484, 1102, 296044, 3004210, 63240, 139392, 3502886
485, 1105, 296990, 3013925, 63705, 139680, 3514300
486, 1107, 297471, 3018789, 63705, 139968, 3519933
487, 1109, 297952, 3023653, 63705, 140256, 3525566
488, 1112, 298898, 3033368, 64170, 140544, 3536980
489, 1114, 299379, 3038232, 64170, 140832, 3542613
490, 1116, 299860, 3043096, 64170, 141120, 3548246
491, 1119, 300806, 3052811, 64635, 141408, 3559660
492, 1121, 301287, 3057675, 64635, 141696, 3565293
493, 1123, 301768, 3062539, 64635, 141984, 3570926
494, 1125, 302249, 3067403, 64635, 142272, 3576559
495, 1128, 303195, 3077118, 65100, 142560, 3587973
496, 1130, 303676, 3081982, 65100, 142848, 3593606
497, 1132, 304157, 3086846, 65100, 143136, 3599239
498, 1135, 305103, 3096561, 65565, 143424, 3610653
499, 1137, 305584, 3101425, 65565, 143712, 3616286
500, 1139, 306065, 3106289, 65565, 144000, 3621919
501, 1142, 307011, 3116004, 66030, 144288, 3633333
502, 1144, 307492, 3120868, 66030, 144576, 3638966
503, 1146, 307973, 3125732, 66030, 144864, 3644599
504, 1149, 308919, 3135447, 66495, 145152, 3656013
505, 1151, 309400, 3140311, 66495, 145440, 3661646
506, 1153, 309881, 3145175, 66495, 145728, 3667279
507, 1156, 310827, 3154890, 66960, 146016, 3678693
508, 1158, 311308, 3159754, 66960, 146304, 3684326
509, 1160, 311789, 3164618, 66960, 146592, 3689959
510, 1162, 312270, 3169482, 66960, 146880, 3695592
511, 1164, 312751, 3174346, 66960, 147168, 3701225
512, 1166, 313232, 3179210, 66960, 147456, 3706858
513, 1168, 313713, 3184074, 66960, 147744, 3712491
514, 1171, 314659, 3193789, 67425, 148032, 3723905
515, 1173, 315140, 3198653, 67425, 148320, 3729538
516, 1175, 315621, 3203517, 67425, 148608, 3735171
517, 1177, 316102, 3208381, 67425, 148896, 3740804
518, 1179, 316583, 3213245, 67425, 149184, 3746437
519, 1181, 317064, 3218109, 67425, 149472, 3752070
520, 1184, 318010, 3227824, 67890, 149760, 3763484
521, 1186, 318491, 3232688, 67890, 150048, 3769117
522, 1188, 318972, 3237552, 67890, 150336, 3774750
523, 1190, 319453, 3242416, 67890, 150624, 3780383
524, 1192, 319934, 3247280, 67890, 150912, 3786016
525, 1194, 320415, 3252144, 67890, 151200, 3791649
526, 1197, 321361, 3261859, 68355, 151488, 3803063
527, 1199, 321842, 3266723, 68355, 151776, 3808696
528, 1201, 322323, 3271587, 68355, 152064, 3814329
529, 1203, 322804, 3276451, 68355, 152352, 3819962
530, 1205, 323595, 3281315, 68665, 152640, 3826215
531, 1207, 324076, 3286179, 68665, 152928, 3831848
532, 1209, 324557, 3291043, 68665, 153216, 3837481
533, 1212, 325348, 3300758, 68975, 153504, 3848585
534, 1214, 325829, 3305622, 68975, 153792, 3854218
535, 1216, 326310, 3310486, 68975, 154080, 3859851
536, 1219, 327256, 3320201, 69440, 154368, 3871265
537, 1221, 327737, 3325065, 69440, 154656, 3876898
538, 1223, 328218, 3329929, 69440, 154944, 3882531
539, 1226, 329164, 3339644, 69905, 155232, 3893945
540, 1228, 329645, 3344508, 69905, 155520, 3899578
541, 1230, 330126, 3349372, 69905, 155808, 3905211
542, 1233, 331072, 3359087, 70370, 156096, 3916625
543, 1235, 331553, 3363951, 70370, 156384, 3922258
544, 1237, 332034, 3368815, 70370, 156672, 3927891
545, 1240, 332980, 3378530, 70835, 156960, 3939305
546, 1242, 333461, 3383394, 70835, 157248, 3944938
547, 1244, 333942, 3388258, 70835, 157536, 3950571
548, 1247, 334888, 3397973, 71300, 157824, 3961985
549, 1249, 335369, 3402837, 71300, 158112, 3967618
550, 1251, 335850, 3407701, 71300, 158400, 3973251
551, 1254, 336796, 3417416, 71765, 158688, 3984665
552, 1256, 337277, 3422280, 71765, 158976, 3990298
553, 1258, 337758, 3427144, 71765, 159264, 3995931
554, 1261, 338704, 3436859, 72230, 159552, 4007345
555, 1263, 339185, 3441723, 72230, 159840, 4012978
556, 1265, 339666, 3446587, 72230, 160128, 4018611
557, 1268, 340612, 3456302, 72695, 160416, 4030025
558, 1270, 341093, 3461166, 72695, 160704, 4035658
559, 1272, 341574, 3466030, 72695, 160992, 4041291
560, 1275, 342520, 3475745, 73160, 161280, 4052705
561, 1277, 343001, 3480609, 73160, 161568, 4058338
562, 1279, 343482, 3485473, 73160, 161856, 4063971
563, 1281, 343963, 3490337, 73160, 162144, 4069604
564, 1284, 344909, 3500052, 73625, 162432, 4081018
565, 1286, 345390, 3504916, 73625, 162720, 4086651
566, 1288, 345871, 3509780, 73625, 163008, 4092284
567, 1291, 346817, 3519495, 74090, 163296, 4103698
568, 1293, 347298, 3524359, 74090, 163584, 4109331
569, 1295, 347779, 3529223, 74090, 163872, 4114964
570, 1298, 348725, 3538938, 74555, 164160, 4126378
571, 1300, 349206, 3543802, 74555, 164448, 4132011
572, 1302, 349687, 3548666, 74555, 164736, 4137644
573, 1305, 350633, 3558381, 75020, 165024, 4149058
574, 1307, 351114, 3563245, 75020, 165312, 4154691
575, 1309, 351595, 3568109, 75020, 165600, 4160324
576, 1312, 352541, 3577824, 75485, 165888, 4171738
577, 1314, 353022, 3582688, 75485, 166176, 4177371
578, 1316, 353503, 3587552, 75485, 166464, 4183004
579, 1319, 354449, 3597267, 75950, 166752, 4194418
580, 1321, 354930, 3602131, 75950, 167040, 4200051
581, 1323, 355411, 3606995, 75950, 167328, 4205684
582, 1326, 356357, 3616710, 76415, 167616, 4217098
583, 1328, 356838, 3621574, 76415, 167904, 4222731
584, 1330, 357319, 3626438, 76415, 168192, 4228364
585, 1333, 358265, 3636153, 76880, 168480, 4239778
586, 1335, 358746, 3641017, 76880, 168768, 4245411
587, 1337, 359227, 3645881, 76880, 169056, 4251044
588, 1340, 360173, 3655596, 77345, 169344, 4262458
589, 1342, 360654, 3660460, 77345, 169632, 4268091
590, 1344, 361135, 3665324, 77345, 169920, 4273724
591, 1347, 362081, 3675039, 77810, 170208, 4285138
592, 1349, 362562, 3679903, 77810, 170496, 4290771
593, 1351, 363043, 3684767, 77810, 170784, 4296404
594, 1354, 363989, 3694482, 78275, 171072, 4307818
595, 1356, 364470, 3699346, 78275, 171360, 4313451
596, 1358, 364951, 3704210, 78275, 171648, 4319084
597, 1361, 365897, 3713925, 78740, 171936, 4330498
598, 1363, 366378, 3718789, 78740, 172224, 4336131
599, 1365, 366859, 3723653, 78740, 172512, 4341764
600, 1368, 367805, 3733368, 79205, 172800, 4353178
601, 1370, 368286, 3738232, 79205, 173088, 4358811
602, 1372, 368767, 3743096, 79205, 173376, 4364444
603, 1374, 369248, 3747960, 79205, 173664, 4370077
604, 1377, 370194, 3757675, 79670, 173952, 4381491
605, 1379, 370675, 3762539, 79670, 174240, 4387124
606, 1381, 371156, 3767403, 79670, 174528, 4392757
607, 1383, 371637, 3772267, 79670, 174816, 4398390
608, 1385, 372118, 3777131, 79670, 175104, 4404023
609, 1388, 373064, 3786846, 80135, 175392, 4415437
610, 1390, 373545, 3791710, 80135, 175680, 4421070
611, 1392, 374026, 3796574, 80135, 175968, 4426703
612, 1394, 374507, 3801438, 80135, 176256, 4432336
613, 1396, 375298, 3806302, 80445, 176544, 4438589
614, 1398, 375779, 3811166, 80445, 176832, 4444222
615, 1400, 376260, 3816030, 80445, 177120, 4449855
616, 1403, 377051, 3825745, 80755, 177408, 4460959
617, 1405, 377532, 3830609, 80755, 177696, 4466592
618, 1408, 378323, 3840324, 81065, 177984, 4477696
619, 1410, 378804, 3845188, 81065, 178272, 4483329
620, 1413, 379595, 3854903, 81375, 178560, 4494433
621, 1415, 380076, 3859767, 81375, 178848, 4500066
622, 1417, 380557, 3864631, 81375, 179136, 4505699
623, 1420, 381503, 3874346, 81840, 179424, 4517113
624, 1422, 381984, 3879210, 81840, 179712, 4522746
625, 1424, 382465, 3884074, 81840, 180000, 4528379
626, 1427, 383411, 3893789, 82305, 180288, 4539793
627, 1429, 383892, 3898653, 82305, 180576, 4545426
628, 1431, 384373, 3903517, 82305, 180864, 4551059
629, 1433, 384854, 3908381, 82305, 181152, 4556692
630, 1436, 385800, 3918096, 82770, 181440, 4568106
631, 1438, 386281, 3922960, 82770, 181728, 4573739
632, 1440, 386762, 3927824, 82770, 182016, 4579372
633, 1442, 387243, 3932688, 82770, 182304, 4585005
634, 1445, 388189, 3942403, 83235, 182592, 4596419
635, 1447, 388670, 3947267, 83235, 182880, 4602052
636, 1449, 389151, 3952131, 83235, 183168, 4607685
637, 1451, 389632, 3956995, 83235, 183456, 4613318
638, 1454, 390578, 3966710, 83700, 183744, 4624732
639, 1456, 391059, 3971574, 83700, 184032, 4630365
640, 1458, 391540, 3976438, 83700, 184320, 4635998
641, 1460, 392021, 3981302, 83700, 184608, 4641631
642, 1463, 392967, 3991017, 84165, 184896, 4653045
643, 1465, 393448, 3995881, 84165, 185184, 4658678
644, 1467, 393929, 4000745, 84165, 185472, 4664311
645, 1469, 394410, 4005609, 84165, 185760, 4669944
