timestep, iters, adds, subs, mults, divs, total
1, 3, 946, 9715, 465, 288, 11414
2, 3, 946, 9715, 465, 288, 11414
3, 2, 791, 4864, 310, 288, 6253
4, 2, 791, 4864, 310, 288, 6253
5, 3, 791, 9715, 310, 288, 11104
6, 3, 946, 9715, 465, 288, 11414
7, 3, 946, 9715, 465, 288, 11414
8, 3, 946, 9715, 465, 288, 11414
9, 3, 946, 9715, 465, 288, 11414
10, 3, 946, 9715, 465, 288, 11414
11, 3, 946, 9715, 465, 288, 11414
12, 3, 946, 9715, 465, 288, 11414
13, 3, 946, 9715, 465, 288, 11414
14, 3, 946, 9715, 465, 288, 11414
15, 3, 946, 9715, 465, 288, 11414
16, 3, 946, 9715, 465, 288, 11414
17, 3, 946, 9715, 465, 288, 11414
18, 3, 946, 9715, 465, 288, 11414
19, 3, 946, 9715, 465, 288, 11414
20, 3, 946, 9715, 465, 288, 11414
21, 3, 946, 9715, 465, 288, 11414
22, 3, 946, 9715, 465, 288, 11414
23, 3, 946, 9715, 465, 288, 11414
24, 3, 946, 9715, 465, 288, 11414
25, 3, 946, 9715, 465, 288, 11414
26, 3, 946, 9715, 465, 288, 11414
27, 3, 946, 9715, 465, 288, 11414
28, 3, 946, 9715, 465, 288, 11414
29, 3, 946, 9715, 465, 288, 11414
30, 3, 946, 9715, 465, 288, 11414
31, 3, 946, 9715, 465, 288, 11414
32, 3, 946, 9715, 465, 288, 11414
33, 3, 946, 9715, 465, 288, 11414
34, 3, 946, 9715, 465, 288, 11414
35, 3, 946, 9715, 465, 288, 11414
36, 2, 791, 4864, 310, 288, 6253
37, 3, 946, 9715, 465, 288, 11414
38, 3, 791, 9715, 310, 288, 11104
39, 3, 946, 9715, 465, 288, 11414
40, 3, 946, 9715, 465, 288, 11414
41, 3, 946, 9715, 465, 288, 11414
42, 3, 946, 9715, 465, 288, 11414
43, 3, 946, 9715, 465, 288, 11414
44, 3, 946, 9715, 465, 288, 11414
45, 3, 946, 9715, 465, 288, 11414
46, 3, 946, 9715, 465, 288, 11414
47, 3, 946, 9715, 465, 288, 11414
48, 3, 946, 9715, 465, 288, 11414
49, 3, 946, 9715, 465, 288, 11414
50, 3, 946, 9715, 465, 288, 11414
51, 3, 946, 9715, 465, 288, 11414
52, 3, 946, 9715, 465, 288, 11414
53, 3, 946, 9715, 465, 288, 11414
54, 3, 946, 9715, 465, 288, 11414
55, 3, 946, 9715, 465, 288, 11414
56, 2, 791, 4864, 310, 288, 6253
57, 3, 791, 9715, 310, 288, 11104
58, 3, 946, 9715, 465, 288, 11414
59, 3, 946, 9715, 465, 288, 11414
60, 3, 946, 9715, 465, 288, 11414
61, 3, 946, 9715, 465, 288, 11414
62, 3, 946, 9715, 465, 288, 11414
63, 3, 946, 9715, 465, 288, 11414
64, 3, 946, 9715, 465, 288, 11414
65, 3, 946, 9715, 465, 288, 11414
66, 3, 946, 9715, 465, 288, 11414
67, 3, 946, 9715, 465, 288, 11414
68, 3, 946, 9715, 465, 288, 11414
69, 3, 946, 9715, 465, 288, 11414
70, 3, 946, 9715, 465, 288, 11414
71, 3, 946, 9715, 465, 288, 11414
72, 3, 946, 9715, 465, 288, 11414
73, 3, 946, 9715, 465, 288, 11414
74, 3, 946, 9715, 465, 288, 11414
75, 3, 946, 9715, 465, 288, 11414
76, 3, 946, 9715, 465, 288, 11414
77, 3, 946, 9715, 465, 288, 11414
78, 3, 946, 9715, 465, 288, 11414
79, 3, 946, 9715, 465, 288, 11414
80, 3, 946, 9715, 465, 288, 11414
81, 3, 946, 9715, 465, 288, 11414
82, 2, 791, 4864, 310, 288, 6253
83, 3, 791, 9715, 310, 288, 11104
84, 2, 791, 4864, 310, 288, 6253
85, 3, 791, 9715, 310, 288, 11104
86, 3, 791, 9715, 310, 288, 11104
87, 3, 946, 9715, 465, 288, 11414
88, 3, 946, 9715, 465, 288, 11414
89, 3, 946, 9715, 465, 288, 11414
90, 3, 946, 9715, 465, 288, 11414
91, 3, 946, 9715, 465, 288, 11414
92, 3, 946, 9715, 465, 288, 11414
93, 3, 946, 9715, 465, 288, 11414
94, 3, 946, 9715, 465, 288, 11414
95, 3, 946, 9715, 465, 288, 11414
96, 3, 946, 9715, 465, 288, 11414
97, 3, 946, 9715, 465, 288, 11414
98, 3, 946, 9715, 465, 288, 11414
99, 3, 946, 9715, 465, 288, 11414
100, 3, 946, 9715, 465, 288, 11414
101, 3, 946, 9715, 465, 288, 11414
102, 3, 946, 9715, 465, 288, 11414
103, 3, 946, 9715, 465, 288, 11414
104, 2, 791, 4864, 310, 288, 6253
105, 3, 791, 9715, 310, 288, 11104
106, 3, 791, 9715, 310, 288, 11104
107, 3, 791, 9715, 310, 288, 11104
108, 3, 946, 9715, 465, 288, 11414
109, 3, 946, 9715, 465, 288, 11414
110, 3, 946, 9715, 465, 288, 11414
111, 3, 946, 9715, 465, 288, 11414
112, 3, 946, 9715, 465, 288, 11414
113, 3, 946, 9715, 465, 288, 11414
114, 3, 946, 9715, 465, 288, 11414
115, 3, 946, 9715, 465, 288, 11414
116, 3, 946, 9715, 465, 288, 11414
117, 3, 946, 9715, 465, 288, 11414
118, 3, 946, 9715, 465, 288, 11414
119, 3, 946, 9715, 465, 288, 11414
120, 3, 946, 9715, 465, 288, 11414
121, 3, 946, 9715, 465, 288, 11414
122, 3, 946, 9715, 465, 288, 11414
123, 3, 946, 9715, 465, 288, 11414
124, 3, 946, 9715, 465, 288, 11414
125, 3, 946, 9715, 465, 288, 11414
126, 3, 946, 9715, 465, 288, 11414
127, 3, 946, 9715, 465, 288, 11414
128, 3, 946, 9715, 465, 288, 11414
129, 3, 946, 9715, 465, 288, 11414
130, 3, 946, 9715, 465, 288, 11414
131, 3, 946, 9715, 465, 288, 11414
132, 3, 946, 9715, 465, 288, 11414
133, 3, 946, 9715, 465, 288, 11414
134, 2, 791, 4864, 310, 288, 6253
135, 3, 946, 9715, 465, 288, 11414
136, 3, 791, 9715, 310, 288, 11104
137, 3, 946, 9715, 465, 288, 11414
138, 3, 946, 9715, 465, 288, 11414
139, 3, 946, 9715, 465, 288, 11414
140, 3, 946, 9715, 465, 288, 11414
141, 3, 946, 9715, 465, 288, 11414
142, 3, 946, 9715, 465, 288, 11414
143, 3, 946, 9715, 465, 288, 11414
144, 3, 946, 9715, 465, 288, 11414
145, 3, 946, 9715, 465, 288, 11414
146, 3, 946, 9715, 465, 288, 11414
147, 3, 946, 9715, 465, 288, 11414
148, 3, 946, 9715, 465, 288, 11414
149, 3, 946, 9715, 465, 288, 11414
150, 3, 946, 9715, 465, 288, 11414
151, 3, 946, 9715, 465, 288, 11414
152, 3, 946, 9715, 465, 288, 11414
153, 3, 946, 9715, 465, 288, 11414
154, 2, 791, 4864, 310, 288, 6253
155, 3, 791, 9715, 310, 288, 11104
156, 3, 946, 9715, 465, 288, 11414
157, 3, 946, 9715, 465, 288, 11414
158, 3, 946, 9715, 465, 288, 11414
159, 3, 946, 9715, 465, 288, 11414
160, 3, 946, 9715, 465, 288, 11414
161, 3, 946, 9715, 465, 288, 11414
162, 3, 946, 9715, 465, 288, 11414
163, 3, 946, 9715, 465, 288, 11414
164, 3, 946, 9715, 465, 288, 11414
165, 3, 946, 9715, 465, 288, 11414
166, 3, 946, 9715, 465, 288, 11414
167, 3, 946, 9715, 465, 288, 11414
168, 3, 946, 9715, 465, 288, 11414
169, 3, 946, 9715, 465, 288, 11414
170, 3, 946, 9715, 465, 288, 11414
171, 3, 946, 9715, 465, 288, 11414
172, 3, 946, 9715, 465, 288, 11414
173, 3, 946, 9715, 465, 288, 11414
174, 3, 946, 9715, 465, 288, 11414
175, 3, 946, 9715, 465, 288, 11414
176, 3, 946, 9715, 465, 288, 11414
177, 3, 946, 9715, 465, 288, 11414
178, 3, 946, 9715, 465, 288, 11414
179, 3, 946, 9715, 465, 288, 11414
180, 2, 791, 4864, 310, 288, 6253
181, 3, 791, 9715, 310, 288, 11104
182, 3, 791, 9715, 310, 288, 11104
183, 3, 791, 9715, 310, 288, 11104
184, 3, 946, 9715, 465, 288, 11414
185, 3, 946, 9715, 465, 288, 11414
186, 3, 946, 9715, 465, 288, 11414
187, 3, 946, 9715, 465, 288, 11414
188, 3, 946, 9715, 465, 288, 11414
189, 3, 946, 9715, 465, 288, 11414
