innerloop, iters, adds, subs, mults, divs, total
1, 3, 946, 9715, 465, 288, 11414
2, 2, 481, 4864, 0, 288, 5633
3, 2, 481, 4864, 0, 288, 5633
4, 2, 481, 4864, 0, 288, 5633
5, 2, 481, 4864, 0, 288, 5633
6, 2, 481, 4864, 0, 288, 5633
7, 3, 946, 9715, 465, 288, 11414
8, 2, 481, 4864, 0, 288, 5633
9, 2, 481, 4864, 0, 288, 5633
10, 2, 481, 4864, 0, 288, 5633
11, 2, 481, 4864, 0, 288, 5633
12, 2, 791, 4864, 310, 288, 6253
13, 2, 481, 4864, 0, 288, 5633
14, 2, 481, 4864, 0, 288, 5633
15, 2, 481, 4864, 0, 288, 5633
16, 2, 791, 4864, 310, 288, 6253
17, 2, 481, 4864, 0, 288, 5633
18, 3, 791, 9715, 310, 288, 11104
19, 2, 481, 4864, 0, 288, 5633
20, 2, 481, 4864, 0, 288, 5633
21, 3, 946, 9715, 465, 288, 11414
22, 2, 481, 4864, 0, 288, 5633
23, 2, 481, 4864, 0, 288, 5633
24, 3, 946, 9715, 465, 288, 11414
25, 2, 481, 4864, 0, 288, 5633
26, 2, 481, 4864, 0, 288, 5633
27, 2, 481, 4864, 0, 288, 5633
28, 3, 946, 9715, 465, 288, 11414
29, 2, 481, 4864, 0, 288, 5633
30, 2, 481, 4864, 0, 288, 5633
31, 3, 946, 9715, 465, 288, 11414
32, 2, 481, 4864, 0, 288, 5633
33, 2, 481, 4864, 0, 288, 5633
34, 2, 481, 4864, 0, 288, 5633
35, 3, 946, 9715, 465, 288, 11414
36, 2, 481, 4864, 0, 288, 5633
37, 2, 481, 4864, 0, 288, 5633
38, 2, 481, 4864, 0, 288, 5633
39, 2, 481, 4864, 0, 288, 5633
40, 3, 946, 9715, 465, 288, 11414
41, 2, 481, 4864, 0, 288, 5633
42, 2, 481, 4864, 0, 288, 5633
43, 2, 481, 4864, 0, 288, 5633
44, 2, 481, 4864, 0, 288, 5633
45, 3, 946, 9715, 465, 288, 11414
46, 2, 481, 4864, 0, 288, 5633
47, 2, 481, 4864, 0, 288, 5633
48, 2, 481, 4864, 0, 288, 5633
49, 3, 946, 9715, 465, 288, 11414
50, 2, 481, 4864, 0, 288, 5633
51, 2, 481, 4864, 0, 288, 5633
52, 2, 481, 4864, 0, 288, 5633
53, 3, 946, 9715, 465, 288, 11414
54, 2, 481, 4864, 0, 288, 5633
55, 2, 481, 4864, 0, 288, 5633
56, 3, 946, 9715, 465, 288, 11414
57, 2, 481, 4864, 0, 288, 5633
58, 2, 481, 4864, 0, 288, 5633
59, 3, 946, 9715, 465, 288, 11414
60, 2, 481, 4864, 0, 288, 5633
61, 2, 481, 4864, 0, 288, 5633
62, 2, 481, 4864, 0, 288, 5633
63, 3, 946, 9715, 465, 288, 11414
64, 2, 481, 4864, 0, 288, 5633
65, 2, 481, 4864, 0, 288, 5633
66, 2, 481, 4864, 0, 288, 5633
67, 3, 946, 9715, 465, 288, 11414
68, 2, 481, 4864, 0, 288, 5633
69, 2, 481, 4864, 0, 288, 5633
70, 3, 946, 9715, 465, 288, 11414
71, 2, 481, 4864, 0, 288, 5633
72, 2, 481, 4864, 0, 288, 5633
73, 3, 946, 9715, 465, 288, 11414
74, 2, 481, 4864, 0, 288, 5633
75, 2, 481, 4864, 0, 288, 5633
76, 3, 946, 9715, 465, 288, 11414
77, 2, 481, 4864, 0, 288, 5633
78, 2, 481, 4864, 0, 288, 5633
79, 3, 946, 9715, 465, 288, 11414
80, 2, 481, 4864, 0, 288, 5633
81, 2, 481, 4864, 0, 288, 5633
82, 3, 946, 9715, 465, 288, 11414
83, 2, 481, 4864, 0, 288, 5633
84, 2, 481, 4864, 0, 288, 5633
85, 3, 946, 9715, 465, 288, 11414
86, 2, 481, 4864, 0, 288, 5633
87, 2, 481, 4864, 0, 288, 5633
88, 3, 946, 9715, 465, 288, 11414
89, 2, 481, 4864, 0, 288, 5633
90, 2, 481, 4864, 0, 288, 5633
91, 3, 946, 9715, 465, 288, 11414
92, 2, 481, 4864, 0, 288, 5633
93, 2, 481, 4864, 0, 288, 5633
94, 2, 481, 4864, 0, 288, 5633
95, 3, 946, 9715, 465, 288, 11414
96, 2, 481, 4864, 0, 288, 5633
97, 2, 481, 4864, 0, 288, 5633
98, 3, 946, 9715, 465, 288, 11414
99, 2, 481, 4864, 0, 288, 5633
100, 3, 946, 9715, 465, 288, 11414
101, 2, 481, 4864, 0, 288, 5633
102, 2, 481, 4864, 0, 288, 5633
103, 3, 946, 9715, 465, 288, 11414
104, 2, 481, 4864, 0, 288, 5633
105, 2, 481, 4864, 0, 288, 5633
106, 3, 946, 9715, 465, 288, 11414
107, 2, 481, 4864, 0, 288, 5633
108, 2, 481, 4864, 0, 288, 5633
109, 2, 481, 4864, 0, 288, 5633
110, 2, 481, 4864, 0, 288, 5633
111, 2, 481, 4864, 0, 288, 5633
112, 3, 946, 9715, 465, 288, 11414
113, 2, 481, 4864, 0, 288, 5633
114, 2, 481, 4864, 0, 288, 5633
115, 2, 481, 4864, 0, 288, 5633
116, 3, 946, 9715, 465, 288, 11414
117, 2, 481, 4864, 0, 288, 5633
118, 2, 481, 4864, 0, 288, 5633
119, 2, 481, 4864, 0, 288, 5633
120, 2, 481, 4864, 0, 288, 5633
121, 3, 946, 9715, 465, 288, 11414
122, 2, 481, 4864, 0, 288, 5633
123, 2, 481, 4864, 0, 288, 5633
124, 3, 946, 9715, 465, 288, 11414
125, 2, 481, 4864, 0, 288, 5633
126, 2, 481, 4864, 0, 288, 5633
127, 2, 481, 4864, 0, 288, 5633
128, 2, 791, 4864, 310, 288, 6253
129, 2, 481, 4864, 0, 288, 5633
130, 2, 481, 4864, 0, 288, 5633
131, 3, 946, 9715, 465, 288, 11414
132, 2, 481, 4864, 0, 288, 5633
133, 2, 481, 4864, 0, 288, 5633
134, 3, 791, 9715, 310, 288, 11104
135, 2, 481, 4864, 0, 288, 5633
136, 2, 481, 4864, 0, 288, 5633
137, 3, 946, 9715, 465, 288, 11414
138, 2, 481, 4864, 0, 288, 5633
139, 2, 481, 4864, 0, 288, 5633
140, 3, 946, 9715, 465, 288, 11414
141, 2, 481, 4864, 0, 288, 5633
142, 2, 481, 4864, 0, 288, 5633
143, 3, 946, 9715, 465, 288, 11414
144, 2, 481, 4864, 0, 288, 5633
145, 2, 481, 4864, 0, 288, 5633
146, 3, 946, 9715, 465, 288, 11414
147, 2, 481, 4864, 0, 288, 5633
148, 2, 481, 4864, 0, 288, 5633
149, 3, 946, 9715, 465, 288, 11414
150, 2, 481, 4864, 0, 288, 5633
151, 2, 481, 4864, 0, 288, 5633
152, 3, 946, 9715, 465, 288, 11414
153, 2, 481, 4864, 0, 288, 5633
154, 2, 481, 4864, 0, 288, 5633
155, 3, 946, 9715, 465, 288, 11414
156, 2, 481, 4864, 0, 288, 5633
157, 2, 481, 4864, 0, 288, 5633
158, 3, 946, 9715, 465, 288, 11414
159, 2, 481, 4864, 0, 288, 5633
160, 2, 481, 4864, 0, 288, 5633
161, 3, 946, 9715, 465, 288, 11414
162, 2, 481, 4864, 0, 288, 5633
163, 2, 481, 4864, 0, 288, 5633
164, 2, 481, 4864, 0, 288, 5633
165, 3, 946, 9715, 465, 288, 11414
166, 2, 481, 4864, 0, 288, 5633
167, 2, 481, 4864, 0, 288, 5633
168, 3, 946, 9715, 465, 288, 11414
169, 2, 481, 4864, 0, 288, 5633
170, 2, 481, 4864, 0, 288, 5633
171, 3, 946, 9715, 465, 288, 11414
172, 2, 481, 4864, 0, 288, 5633
173, 2, 481, 4864, 0, 288, 5633
174, 3, 946, 9715, 465, 288, 11414
175, 2, 481, 4864, 0, 288, 5633
176, 2, 481, 4864, 0, 288, 5633
177, 3, 946, 9715, 465, 288, 11414
178, 2, 481, 4864, 0, 288, 5633
179, 2, 481, 4864, 0, 288, 5633
180, 2, 481, 4864, 0, 288, 5633
181, 2, 481, 4864, 0, 288, 5633
182, 2, 481, 4864, 0, 288, 5633
183, 2, 481, 4864, 0, 288, 5633
184, 2, 481, 4864, 0, 288, 5633
185, 3, 946, 9715, 465, 288, 11414
186, 2, 481, 4864, 0, 288, 5633
187, 2, 481, 4864, 0, 288, 5633
188, 2, 481, 4864, 0, 288, 5633
189, 2, 481, 4864, 0, 288, 5633
190, 2, 481, 4864, 0, 288, 5633
191, 3, 946, 9715, 465, 288, 11414
192, 2, 481, 4864, 0, 288, 5633
193, 2, 481, 4864, 0, 288, 5633
194, 2, 481, 4864, 0, 288, 5633
195, 2, 481, 4864, 0, 288, 5633
196, 3, 946, 9715, 465, 288, 11414
197, 2, 481, 4864, 0, 288, 5633
198, 2, 481, 4864, 0, 288, 5633
199, 2, 481, 4864, 0, 288, 5633
200, 2, 791, 4864, 310, 288, 6253
201, 2, 481, 4864, 0, 288, 5633
202, 2, 481, 4864, 0, 288, 5633
203, 3, 791, 9715, 310, 288, 11104
204, 2, 481, 4864, 0, 288, 5633
205, 2, 481, 4864, 0, 288, 5633
206, 3, 946, 9715, 465, 288, 11414
207, 2, 481, 4864, 0, 288, 5633
208, 2, 481, 4864, 0, 288, 5633
209, 3, 946, 9715, 465, 288, 11414
210, 2, 481, 4864, 0, 288, 5633
211, 2, 481, 4864, 0, 288, 5633
212, 3, 946, 9715, 465, 288, 11414
213, 2, 481, 4864, 0, 288, 5633
214, 2, 481, 4864, 0, 288, 5633
215, 3, 946, 9715, 465, 288, 11414
216, 2, 481, 4864, 0, 288, 5633
217, 2, 481, 4864, 0, 288, 5633
218, 3, 946, 9715, 465, 288, 11414
219, 2, 481, 4864, 0, 288, 5633
220, 2, 481, 4864, 0, 288, 5633
221, 3, 946, 9715, 465, 288, 11414
222, 2, 481, 4864, 0, 288, 5633
223, 2, 481, 4864, 0, 288, 5633
224, 3, 946, 9715, 465, 288, 11414
225, 2, 481, 4864, 0, 288, 5633
226, 2, 481, 4864, 0, 288, 5633
227, 3, 946, 9715, 465, 288, 11414
228, 2, 481, 4864, 0, 288, 5633
229, 2, 481, 4864, 0, 288, 5633
230, 3, 946, 9715, 465, 288, 11414
231, 2, 481, 4864, 0, 288, 5633
232, 2, 481, 4864, 0, 288, 5633
233, 2, 481, 4864, 0, 288, 5633
234, 3, 946, 9715, 465, 288, 11414
235, 2, 481, 4864, 0, 288, 5633
236, 2, 481, 4864, 0, 288, 5633
237, 2, 481, 4864, 0, 288, 5633
238, 3, 946, 9715, 465, 288, 11414
239, 2, 481, 4864, 0, 288, 5633
240, 2, 481, 4864, 0, 288, 5633
241, 3, 946, 9715, 465, 288, 11414
242, 2, 481, 4864, 0, 288, 5633
243, 2, 481, 4864, 0, 288, 5633
244, 3, 946, 9715, 465, 288, 11414
245, 2, 481, 4864, 0, 288, 5633
246, 2, 481, 4864, 0, 288, 5633
247, 3, 946, 9715, 465, 288, 11414
248, 2, 481, 4864, 0, 288, 5633
249, 2, 481, 4864, 0, 288, 5633
250, 3, 946, 9715, 465, 288, 11414
251, 2, 481, 4864, 0, 288, 5633
252, 2, 481, 4864, 0, 288, 5633
253, 3, 946, 9715, 465, 288, 11414
254, 2, 481, 4864, 0, 288, 5633
255, 2, 481, 4864, 0, 288, 5633
256, 3, 946, 9715, 465, 288, 11414
257, 2, 481, 4864, 0, 288, 5633
258, 2, 481, 4864, 0, 288, 5633
259, 3, 946, 9715, 465, 288, 11414
260, 2, 481, 4864, 0, 288, 5633
261, 2, 481, 4864, 0, 288, 5633
262, 3, 946, 9715, 465, 288, 11414
263, 2, 481, 4864, 0, 288, 5633
264, 2, 481, 4864, 0, 288, 5633
265, 3, 946, 9715, 465, 288, 11414
266, 2, 481, 4864, 0, 288, 5633
267, 2, 481, 4864, 0, 288, 5633
268, 3, 946, 9715, 465, 288, 11414
269, 2, 481, 4864, 0, 288, 5633
270, 2, 481, 4864, 0, 288, 5633
271, 3, 946, 9715, 465, 288, 11414
272, 2, 481, 4864, 0, 288, 5633
273, 2, 481, 4864, 0, 288, 5633
274, 2, 481, 4864, 0, 288, 5633
275, 3, 946, 9715, 465, 288, 11414
276, 2, 481, 4864, 0, 288, 5633
277, 2, 481, 4864, 0, 288, 5633
278, 2, 481, 4864, 0, 288, 5633
279, 3, 946, 9715, 465, 288, 11414
280, 2, 481, 4864, 0, 288, 5633
281, 2, 481, 4864, 0, 288, 5633
282, 2, 481, 4864, 0, 288, 5633
283, 2, 791, 4864, 310, 288, 6253
284, 2, 481, 4864, 0, 288, 5633
285, 2, 481, 4864, 0, 288, 5633
286, 3, 791, 9715, 310, 288, 11104
287, 2, 481, 4864, 0, 288, 5633
288, 2, 481, 4864, 0, 288, 5633
289, 2, 791, 4864, 310, 288, 6253
290, 2, 481, 4864, 0, 288, 5633
291, 2, 481, 4864, 0, 288, 5633
292, 3, 791, 9715, 310, 288, 11104
293, 2, 481, 4864, 0, 288, 5633
294, 2, 481, 4864, 0, 288, 5633
295, 3, 791, 9715, 310, 288, 11104
296, 2, 481, 4864, 0, 288, 5633
297, 3, 946, 9715, 465, 288, 11414
298, 2, 481, 4864, 0, 288, 5633
299, 2, 481, 4864, 0, 288, 5633
300, 3, 946, 9715, 465, 288, 11414
301, 2, 481, 4864, 0, 288, 5633
302, 2, 481, 4864, 0, 288, 5633
303, 3, 946, 9715, 465, 288, 11414
304, 2, 481, 4864, 0, 288, 5633
305, 2, 481, 4864, 0, 288, 5633
306, 2, 481, 4864, 0, 288, 5633
307, 3, 946, 9715, 465, 288, 11414
308, 2, 481, 4864, 0, 288, 5633
309, 2, 481, 4864, 0, 288, 5633
310, 2, 481, 4864, 0, 288, 5633
311, 3, 946, 9715, 465, 288, 11414
312, 2, 481, 4864, 0, 288, 5633
313, 2, 481, 4864, 0, 288, 5633
314, 3, 946, 9715, 465, 288, 11414
315, 2, 481, 4864, 0, 288, 5633
316, 2, 481, 4864, 0, 288, 5633
317, 3, 946, 9715, 465, 288, 11414
318, 2, 481, 4864, 0, 288, 5633
319, 2, 481, 4864, 0, 288, 5633
320, 3, 946, 9715, 465, 288, 11414
321, 2, 481, 4864, 0, 288, 5633
322, 2, 481, 4864, 0, 288, 5633
323, 3, 946, 9715, 465, 288, 11414
324, 2, 481, 4864, 0, 288, 5633
325, 2, 481, 4864, 0, 288, 5633
326, 3, 946, 9715, 465, 288, 11414
327, 2, 481, 4864, 0, 288, 5633
328, 2, 481, 4864, 0, 288, 5633
329, 3, 946, 9715, 465, 288, 11414
330, 2, 481, 4864, 0, 288, 5633
331, 3, 946, 9715, 465, 288, 11414
332, 2, 481, 4864, 0, 288, 5633
333, 3, 946, 9715, 465, 288, 11414
334, 2, 481, 4864, 0, 288, 5633
335, 2, 481, 4864, 0, 288, 5633
336, 3, 946, 9715, 465, 288, 11414
337, 2, 481, 4864, 0, 288, 5633
338, 2, 481, 4864, 0, 288, 5633
339, 2, 481, 4864, 0, 288, 5633
340, 2, 481, 4864, 0, 288, 5633
341, 3, 946, 9715, 465, 288, 11414
342, 2, 481, 4864, 0, 288, 5633
343, 2, 481, 4864, 0, 288, 5633
344, 2, 481, 4864, 0, 288, 5633
345, 2, 481, 4864, 0, 288, 5633
346, 3, 946, 9715, 465, 288, 11414
347, 2, 481, 4864, 0, 288, 5633
348, 2, 481, 4864, 0, 288, 5633
349, 3, 946, 9715, 465, 288, 11414
350, 2, 481, 4864, 0, 288, 5633
351, 2, 481, 4864, 0, 288, 5633
352, 2, 791, 4864, 310, 288, 6253
353, 2, 481, 4864, 0, 288, 5633
354, 2, 481, 4864, 0, 288, 5633
355, 3, 791, 9715, 310, 288, 11104
356, 2, 481, 4864, 0, 288, 5633
357, 2, 481, 4864, 0, 288, 5633
358, 3, 791, 9715, 310, 288, 11104
359, 2, 481, 4864, 0, 288, 5633
360, 2, 481, 4864, 0, 288, 5633
361, 3, 791, 9715, 310, 288, 11104
362, 2, 481, 4864, 0, 288, 5633
363, 2, 481, 4864, 0, 288, 5633
364, 3, 946, 9715, 465, 288, 11414
365, 2, 481, 4864, 0, 288, 5633
366, 3, 946, 9715, 465, 288, 11414
367, 2, 481, 4864, 0, 288, 5633
368, 2, 481, 4864, 0, 288, 5633
369, 3, 946, 9715, 465, 288, 11414
370, 2, 481, 4864, 0, 288, 5633
371, 2, 481, 4864, 0, 288, 5633
372, 3, 946, 9715, 465, 288, 11414
373, 2, 481, 4864, 0, 288, 5633
374, 2, 481, 4864, 0, 288, 5633
375, 2, 481, 4864, 0, 288, 5633
376, 3, 946, 9715, 465, 288, 11414
377, 2, 481, 4864, 0, 288, 5633
378, 2, 481, 4864, 0, 288, 5633
379, 2, 481, 4864, 0, 288, 5633
380, 2, 481, 4864, 0, 288, 5633
381, 3, 946, 9715, 465, 288, 11414
382, 2, 481, 4864, 0, 288, 5633
383, 2, 481, 4864, 0, 288, 5633
384, 2, 481, 4864, 0, 288, 5633
385, 2, 481, 4864, 0, 288, 5633
386, 2, 481, 4864, 0, 288, 5633
387, 3, 946, 9715, 465, 288, 11414
388, 2, 481, 4864, 0, 288, 5633
389, 2, 481, 4864, 0, 288, 5633
390, 2, 481, 4864, 0, 288, 5633
391, 2, 481, 4864, 0, 288, 5633
392, 2, 481, 4864, 0, 288, 5633
393, 2, 481, 4864, 0, 288, 5633
394, 3, 946, 9715, 465, 288, 11414
395, 2, 481, 4864, 0, 288, 5633
396, 2, 481, 4864, 0, 288, 5633
397, 2, 481, 4864, 0, 288, 5633
398, 3, 946, 9715, 465, 288, 11414
399, 2, 481, 4864, 0, 288, 5633
400, 2, 481, 4864, 0, 288, 5633
401, 3, 946, 9715, 465, 288, 11414
402, 2, 481, 4864, 0, 288, 5633
403, 2, 481, 4864, 0, 288, 5633
404, 3, 946, 9715, 465, 288, 11414
405, 2, 481, 4864, 0, 288, 5633
406, 2, 481, 4864, 0, 288, 5633
407, 3, 946, 9715, 465, 288, 11414
408, 2, 481, 4864, 0, 288, 5633
409, 2, 481, 4864, 0, 288, 5633
410, 3, 946, 9715, 465, 288, 11414
411, 2, 481, 4864, 0, 288, 5633
412, 2, 481, 4864, 0, 288, 5633
413, 3, 946, 9715, 465, 288, 11414
414, 2, 481, 4864, 0, 288, 5633
415, 3, 946, 9715, 465, 288, 11414
416, 2, 481, 4864, 0, 288, 5633
417, 3, 946, 9715, 465, 288, 11414
418, 2, 481, 4864, 0, 288, 5633
419, 2, 481, 4864, 0, 288, 5633
420, 3, 946, 9715, 465, 288, 11414
421, 2, 481, 4864, 0, 288, 5633
422, 2, 481, 4864, 0, 288, 5633
423, 2, 481, 4864, 0, 288, 5633
424, 2, 481, 4864, 0, 288, 5633
425, 3, 946, 9715, 465, 288, 11414
426, 2, 481, 4864, 0, 288, 5633
427, 2, 481, 4864, 0, 288, 5633
428, 3, 946, 9715, 465, 288, 11414
429, 2, 481, 4864, 0, 288, 5633
430, 3, 946, 9715, 465, 288, 11414
431, 2, 481, 4864, 0, 288, 5633
432, 2, 481, 4864, 0, 288, 5633
433, 3, 946, 9715, 465, 288, 11414
434, 2, 481, 4864, 0, 288, 5633
435, 2, 481, 4864, 0, 288, 5633
436, 3, 946, 9715, 465, 288, 11414
437, 2, 481, 4864, 0, 288, 5633
438, 2, 481, 4864, 0, 288, 5633
439, 2, 481, 4864, 0, 288, 5633
440, 2, 481, 4864, 0, 288, 5633
441, 2, 481, 4864, 0, 288, 5633
442, 3, 946, 9715, 465, 288, 11414
443, 2, 481, 4864, 0, 288, 5633
444, 2, 481, 4864, 0, 288, 5633
445, 2, 481, 4864, 0, 288, 5633
446, 3, 946, 9715, 465, 288, 11414
447, 2, 481, 4864, 0, 288, 5633
448, 2, 481, 4864, 0, 288, 5633
449, 2, 481, 4864, 0, 288, 5633
450, 2, 481, 4864, 0, 288, 5633
451, 3, 946, 9715, 465, 288, 11414
452, 2, 481, 4864, 0, 288, 5633
453, 2, 481, 4864, 0, 288, 5633
454, 3, 946, 9715, 465, 288, 11414
455, 2, 481, 4864, 0, 288, 5633
456, 2, 481, 4864, 0, 288, 5633
457, 2, 481, 4864, 0, 288, 5633
458, 2, 791, 4864, 310, 288, 6253
459, 2, 481, 4864, 0, 288, 5633
460, 2, 481, 4864, 0, 288, 5633
461, 3, 946, 9715, 465, 288, 11414
462, 2, 481, 4864, 0, 288, 5633
463, 2, 481, 4864, 0, 288, 5633
464, 3, 791, 9715, 310, 288, 11104
465, 2, 481, 4864, 0, 288, 5633
466, 2, 481, 4864, 0, 288, 5633
467, 3, 946, 9715, 465, 288, 11414
468, 2, 481, 4864, 0, 288, 5633
469, 2, 481, 4864, 0, 288, 5633
470, 3, 946, 9715, 465, 288, 11414
471, 2, 481, 4864, 0, 288, 5633
472, 2, 481, 4864, 0, 288, 5633
473, 3, 946, 9715, 465, 288, 11414
474, 2, 481, 4864, 0, 288, 5633
475, 2, 481, 4864, 0, 288, 5633
476, 3, 946, 9715, 465, 288, 11414
477, 2, 481, 4864, 0, 288, 5633
478, 2, 481, 4864, 0, 288, 5633
479, 3, 946, 9715, 465, 288, 11414
480, 2, 481, 4864, 0, 288, 5633
481, 2, 481, 4864, 0, 288, 5633
482, 3, 946, 9715, 465, 288, 11414
483, 2, 481, 4864, 0, 288, 5633
484, 2, 481, 4864, 0, 288, 5633
485, 3, 946, 9715, 465, 288, 11414
486, 2, 481, 4864, 0, 288, 5633
487, 2, 481, 4864, 0, 288, 5633
488, 3, 946, 9715, 465, 288, 11414
489, 2, 481, 4864, 0, 288, 5633
490, 2, 481, 4864, 0, 288, 5633
491, 3, 946, 9715, 465, 288, 11414
492, 2, 481, 4864, 0, 288, 5633
493, 2, 481, 4864, 0, 288, 5633
494, 2, 481, 4864, 0, 288, 5633
495, 3, 946, 9715, 465, 288, 11414
496, 2, 481, 4864, 0, 288, 5633
497, 2, 481, 4864, 0, 288, 5633
498, 3, 946, 9715, 465, 288, 11414
499, 2, 481, 4864, 0, 288, 5633
500, 2, 481, 4864, 0, 288, 5633
501, 3, 946, 9715, 465, 288, 11414
502, 2, 481, 4864, 0, 288, 5633
503, 2, 481, 4864, 0, 288, 5633
504, 3, 946, 9715, 465, 288, 11414
505, 2, 481, 4864, 0, 288, 5633
506, 2, 481, 4864, 0, 288, 5633
507, 3, 946, 9715, 465, 288, 11414
508, 2, 481, 4864, 0, 288, 5633
509, 2, 481, 4864, 0, 288, 5633
510, 2, 481, 4864, 0, 288, 5633
511, 2, 481, 4864, 0, 288, 5633
512, 2, 481, 4864, 0, 288, 5633
513, 2, 481, 4864, 0, 288, 5633
514, 3, 946, 9715, 465, 288, 11414
515, 2, 481, 4864, 0, 288, 5633
516, 2, 481, 4864, 0, 288, 5633
517, 2, 481, 4864, 0, 288, 5633
518, 2, 481, 4864, 0, 288, 5633
519, 2, 481, 4864, 0, 288, 5633
520, 3, 946, 9715, 465, 288, 11414
521, 2, 481, 4864, 0, 288, 5633
522, 2, 481, 4864, 0, 288, 5633
523, 2, 481, 4864, 0, 288, 5633
524, 2, 481, 4864, 0, 288, 5633
525, 2, 481, 4864, 0, 288, 5633
526, 3, 946, 9715, 465, 288, 11414
527, 2, 481, 4864, 0, 288, 5633
528, 2, 481, 4864, 0, 288, 5633
529, 2, 481, 4864, 0, 288, 5633
530, 2, 791, 4864, 310, 288, 6253
531, 2, 481, 4864, 0, 288, 5633
532, 2, 481, 4864, 0, 288, 5633
533, 3, 791, 9715, 310, 288, 11104
534, 2, 481, 4864, 0, 288, 5633
535, 2, 481, 4864, 0, 288, 5633
536, 3, 946, 9715, 465, 288, 11414
537, 2, 481, 4864, 0, 288, 5633
538, 2, 481, 4864, 0, 288, 5633
539, 3, 946, 9715, 465, 288, 11414
540, 2, 481, 4864, 0, 288, 5633
541, 2, 481, 4864, 0, 288, 5633
542, 3, 946, 9715, 465, 288, 11414
543, 2, 481, 4864, 0, 288, 5633
544, 2, 481, 4864, 0, 288, 5633
545, 3, 946, 9715, 465, 288, 11414
546, 2, 481, 4864, 0, 288, 5633
547, 2, 481, 4864, 0, 288, 5633
548, 3, 946, 9715, 465, 288, 11414
549, 2, 481, 4864, 0, 288, 5633
550, 2, 481, 4864, 0, 288, 5633
551, 3, 946, 9715, 465, 288, 11414
552, 2, 481, 4864, 0, 288, 5633
553, 2, 481, 4864, 0, 288, 5633
554, 3, 946, 9715, 465, 288, 11414
555, 2, 481, 4864, 0, 288, 5633
556, 2, 481, 4864, 0, 288, 5633
557, 3, 946, 9715, 465, 288, 11414
558, 2, 481, 4864, 0, 288, 5633
559, 2, 481, 4864, 0, 288, 5633
560, 3, 946, 9715, 465, 288, 11414
561, 2, 481, 4864, 0, 288, 5633
562, 2, 481, 4864, 0, 288, 5633
563, 2, 481, 4864, 0, 288, 5633
564, 3, 946, 9715, 465, 288, 11414
565, 2, 481, 4864, 0, 288, 5633
566, 2, 481, 4864, 0, 288, 5633
567, 3, 946, 9715, 465, 288, 11414
568, 2, 481, 4864, 0, 288, 5633
569, 2, 481, 4864, 0, 288, 5633
570, 3, 946, 9715, 465, 288, 11414
571, 2, 481, 4864, 0, 288, 5633
572, 2, 481, 4864, 0, 288, 5633
573, 3, 946, 9715, 465, 288, 11414
574, 2, 481, 4864, 0, 288, 5633
575, 2, 481, 4864, 0, 288, 5633
576, 3, 946, 9715, 465, 288, 11414
577, 2, 481, 4864, 0, 288, 5633
578, 2, 481, 4864, 0, 288, 5633
579, 3, 946, 9715, 465, 288, 11414
580, 2, 481, 4864, 0, 288, 5633
581, 2, 481, 4864, 0, 288, 5633
582, 3, 946, 9715, 465, 288, 11414
583, 2, 481, 4864, 0, 288, 5633
584, 2, 481, 4864, 0, 288, 5633
585, 3, 946, 9715, 465, 288, 11414
586, 2, 481, 4864, 0, 288, 5633
587, 2, 481, 4864, 0, 288, 5633
588, 3, 946, 9715, 465, 288, 11414
589, 2, 481, 4864, 0, 288, 5633
590, 2, 481, 4864, 0, 288, 5633
591, 3, 946, 9715, 465, 288, 11414
592, 2, 481, 4864, 0, 288, 5633
593, 2, 481, 4864, 0, 288, 5633
594, 3, 946, 9715, 465, 288, 11414
595, 2, 481, 4864, 0, 288, 5633
596, 2, 481, 4864, 0, 288, 5633
597, 3, 946, 9715, 465, 288, 11414
598, 2, 481, 4864, 0, 288, 5633
599, 2, 481, 4864, 0, 288, 5633
600, 3, 946, 9715, 465, 288, 11414
601, 2, 481, 4864, 0, 288, 5633
602, 2, 481, 4864, 0, 288, 5633
603, 2, 481, 4864, 0, 288, 5633
604, 3, 946, 9715, 465, 288, 11414
605, 2, 481, 4864, 0, 288, 5633
606, 2, 481, 4864, 0, 288, 5633
607, 2, 481, 4864, 0, 288, 5633
608, 2, 481, 4864, 0, 288, 5633
609, 3, 946, 9715, 465, 288, 11414
610, 2, 481, 4864, 0, 288, 5633
611, 2, 481, 4864, 0, 288, 5633
612, 2, 481, 4864, 0, 288, 5633
613, 2, 791, 4864, 310, 288, 6253
614, 2, 481, 4864, 0, 288, 5633
615, 2, 481, 4864, 0, 288, 5633
616, 3, 791, 9715, 310, 288, 11104
617, 2, 481, 4864, 0, 288, 5633
618, 3, 791, 9715, 310, 288, 11104
619, 2, 481, 4864, 0, 288, 5633
620, 3, 791, 9715, 310, 288, 11104
621, 2, 481, 4864, 0, 288, 5633
622, 2, 481, 4864, 0, 288, 5633
623, 3, 946, 9715, 465, 288, 11414
624, 2, 481, 4864, 0, 288, 5633
625, 2, 481, 4864, 0, 288, 5633
626, 3, 946, 9715, 465, 288, 11414
627, 2, 481, 4864, 0, 288, 5633
628, 2, 481, 4864, 0, 288, 5633
629, 2, 481, 4864, 0, 288, 5633
630, 3, 946, 9715, 465, 288, 11414
631, 2, 481, 4864, 0, 288, 5633
632, 2, 481, 4864, 0, 288, 5633
633, 2, 481, 4864, 0, 288, 5633
634, 3, 946, 9715, 465, 288, 11414
635, 2, 481, 4864, 0, 288, 5633
636, 2, 481, 4864, 0, 288, 5633
637, 2, 481, 4864, 0, 288, 5633
638, 3, 946, 9715, 465, 288, 11414
639, 2, 481, 4864, 0, 288, 5633
640, 2, 481, 4864, 0, 288, 5633
641, 2, 481, 4864, 0, 288, 5633
642, 3, 946, 9715, 465, 288, 11414
643, 2, 481, 4864, 0, 288, 5633
644, 2, 481, 4864, 0, 288, 5633
645, 2, 481, 4864, 0, 288, 5633
