1, 3, 1, 1, 0, 1, 0, 1, 2, 1, 1, 8
2, 2, 1, 1, 0, 1, 0, 1, 0, 1, 1, 6
3, 2, 1, 1, 0, 1, 0, 1, 2, 1, 1, 8
4, 2, 1, 1, 0, 1, 0, 1, 0, 1, 1, 6
5, 2, 1, 1, 0, 1, 0, 1, 2, 1, 1, 8
6, 2, 1, 1, 0, 1, 0, 1, 0, 1, 1, 6
7, 2, 1, 1, 0, 1, 0, 1, 2, 1, 1, 8
8, 2, 1, 1, 0, 1, 0, 1, 0, 1, 1, 6
9, 2, 1, 1, 0, 1, 0, 1, 2, 1, 1, 8
10, 2, 1, 1, 0, 1, 0, 1, 0, 1, 1, 6
11, 2, 1, 1, 0, 1, 0, 1, 2, 1, 1, 8
12, 2, 1, 1, 0, 1, 0, 1, 0, 1, 1, 6
13, 2, 1, 1, 0, 1, 0, 1, 2, 1, 1, 8
14, 2, 1, 1, 0, 1, 0, 1, 0, 1, 1, 6
15, 2, 1, 1, 0, 1, 0, 1, 2, 1, 1, 8
16, 2, 1, 1, 0, 1, 0, 1, 0, 1, 1, 6
17, 2, 1, 1, 0, 1, 0, 1, 2, 1, 1, 8
18, 2, 1, 1, 0, 1, 0, 1, 0, 1, 1, 6
19, 2, 1, 1, 0, 1, 0, 1, 2, 1, 1, 8
20, 2, 1, 1, 0, 1, 0, 1, 0, 1, 1, 6
21, 2, 1, 1, 0, 1, 0, 1, 2, 1, 1, 8
22, 2, 1, 1, 0, 1, 0, 1, 0, 1, 1, 6
23, 2, 1, 1, 0, 1, 0, 1, 2, 1, 1, 8
24, 2, 1, 1, 0, 1, 0, 1, 0, 1, 1, 6
25, 2, 1, 1, 0, 1, 0, 1, 2, 1, 1, 8
26, 2, 1, 1, 0, 1, 0, 1, 0, 1, 1, 6
27, 2, 1, 1, 0, 1, 0, 1, 2, 1, 1, 8
28, 2, 1, 1, 0, 1, 0, 1, 0, 1, 1, 6
29, 2, 1, 1, 0, 1, 0, 1, 2, 1, 1, 8
30, 2, 1, 1, 0, 1, 0, 1, 0, 1, 1, 6
31, 2, 1, 1, 0, 1, 0, 1, 2, 1, 1, 8
32, 2, 1, 1, 0, 1, 0, 1, 0, 1, 1, 6
33, 3, 1, 1, 0, 1, 0, 1, 2, 1, 1, 8
34, 2, 1, 1, 0, 1, 0, 1, 0, 1, 1, 6
35, 3, 1, 1, 0, 1, 0, 1, 4, 1, 1, 10
36, 2, 1, 1, 0, 1, 0, 1, 0, 1, 1, 6
37, 3, 1, 1, 0, 1, 0, 1, 4, 1, 1, 10
38, 2, 1, 1, 0, 1, 0, 1, 0, 1, 1, 6
39, 3, 1, 1, 0, 1, 0, 1, 4, 1, 1, 10
40, 2, 1, 1, 0, 1, 0, 1, 0, 1, 1, 6
41, 3, 1, 1, 0, 1, 0, 1, 4, 1, 1, 10
42, 2, 1, 1, 0, 1, 0, 1, 0, 1, 1, 6
43, 2, 1, 1, 0, 1, 0, 1, 0, 1, 1, 6
44, 2, 1, 1, 0, 1, 0, 1, 2, 1, 1, 8
45, 2, 1, 1, 0, 1, 0, 1, 0, 1, 1, 6
46, 2, 1, 1, 0, 1, 0, 1, 2, 1, 1, 8
47, 2, 1, 1, 0, 1, 0, 1, 0, 1, 1, 6
48, 2, 1, 1, 0, 1, 0, 1, 2, 1, 1, 8
49, 2, 1, 1, 0, 1, 0, 1, 0, 1, 1, 6
50, 2, 1, 1, 0, 1, 0, 1, 2, 1, 1, 8
51, 2, 1, 1, 0, 1, 0, 1, 0, 1, 1, 6
52, 2, 1, 1, 0, 1, 0, 1, 2, 1, 1, 8
53, 2, 1, 1, 0, 1, 0, 1, 0, 1, 1, 6
54, 2, 1, 1, 0, 1, 0, 1, 2, 1, 1, 8
55, 2, 1, 1, 0, 1, 0, 1, 0, 1, 1, 6
56, 2, 1, 1, 0, 1, 0, 1, 2, 1, 1, 8
57, 2, 1, 1, 0, 1, 0, 1, 0, 1, 1, 6
58, 2, 1, 1, 0, 1, 0, 1, 2, 1, 1, 8
59, 2, 1, 1, 0, 1, 0, 1, 0, 1, 1, 6
60, 2, 1, 1, 0, 1, 0, 1, 2, 1, 1, 8
61, 2, 1, 1, 0, 1, 0, 1, 0, 1, 1, 6
62, 2, 1, 1, 0, 1, 0, 1, 2, 1, 1, 8
63, 2, 1, 1, 0, 1, 0, 1, 0, 1, 1, 6
64, 2, 1, 1, 0, 1, 0, 1, 2, 1, 1, 8
65, 2, 1, 1, 0, 1, 0, 1, 0, 1, 1, 6
66, 2, 1, 1, 0, 1, 0, 1, 2, 1, 1, 8
67, 2, 1, 1, 0, 1, 0, 1, 0, 1, 1, 6
68, 2, 1, 1, 0, 1, 0, 1, 2, 1, 1, 8
69, 2, 1, 1, 0, 1, 0, 1, 0, 1, 1, 6
70, 2, 1, 1, 0, 1, 0, 1, 2, 1, 1, 8
71, 2, 1, 1, 0, 1, 0, 1, 0, 1, 1, 6
72, 2, 1, 1, 0, 1, 0, 1, 2, 1, 1, 8
73, 2, 1, 1, 0, 1, 0, 1, 0, 1, 1, 6
74, 2, 1, 1, 0, 1, 0, 1, 2, 1, 1, 8
75, 2, 1, 1, 0, 1, 0, 1, 0, 1, 1, 6
76, 2, 1, 1, 0, 1, 0, 1, 2, 1, 1, 8
77, 2, 1, 1, 0, 1, 0, 1, 0, 1, 1, 6
78, 2, 1, 1, 0, 1, 0, 1, 2, 1, 1, 8
79, 2, 1, 1, 0, 1, 0, 1, 0, 1, 1, 6
80, 2, 1, 1, 0, 1, 0, 1, 2, 1, 1, 8
81, 2, 1, 1, 0, 1, 0, 1, 0, 1, 1, 6
82, 2, 1, 1, 0, 1, 0, 1, 2, 1, 1, 8
83, 2, 1, 1, 0, 1, 0, 1, 0, 1, 1, 6
84, 2, 1, 1, 0, 1, 0, 1, 2, 1, 1, 8
85, 2, 1, 1, 0, 1, 0, 1, 0, 1, 1, 6
86, 2, 1, 1, 0, 1, 0, 1, 2, 1, 1, 8
87, 2, 1, 1, 0, 1, 0, 1, 0, 1, 1, 6
88, 2, 1, 1, 0, 1, 0, 1, 2, 1, 1, 8
89, 2, 1, 1, 0, 1, 0, 1, 0, 1, 1, 6
90, 2, 1, 1, 0, 1, 0, 1, 2, 1, 1, 8
91, 2, 1, 1, 0, 1, 0, 1, 0, 1, 1, 6
92, 2, 1, 1, 0, 1, 0, 1, 2, 1, 1, 8
93, 2, 1, 1, 0, 1, 0, 1, 0, 1, 1, 6
94, 2, 1, 1, 0, 1, 0, 1, 2, 1, 1, 8
95, 2, 1, 1, 0, 1, 0, 1, 0, 1, 1, 6
96, 2, 1, 1, 0, 1, 0, 1, 2, 1, 1, 8
97, 2, 1, 1, 0, 1, 0, 1, 0, 1, 1, 6
98, 2, 1, 1, 0, 1, 0, 1, 2, 1, 1, 8
99, 2, 1, 1, 0, 1, 0, 1, 0, 1, 1, 6
100, 2, 1, 1, 0, 1, 0, 1, 2, 1, 1, 8
101, 2, 1, 1, 0, 1, 0, 1, 0, 1, 1, 6
102, 2, 1, 1, 0, 1, 0, 1, 2, 1, 1, 8
103, 2, 1, 1, 0, 1, 0, 1, 0, 1, 1, 6
104, 2, 1, 1, 0, 1, 0, 1, 2, 1, 1, 8
105, 2, 1, 1, 0, 1, 0, 1, 0, 1, 1, 6
106, 2, 1, 1, 0, 1, 0, 1, 2, 1, 1, 8
107, 2, 1, 1, 0, 1, 0, 1, 0, 1, 1, 6
108, 2, 1, 1, 0, 1, 0, 1, 2, 1, 1, 8
109, 2, 1, 1, 0, 1, 0, 1, 0, 1, 1, 6
110, 2, 1, 1, 0, 1, 0, 1, 2, 1, 1, 8
111, 2, 1, 1, 0, 1, 0, 1, 0, 1, 1, 6
112, 2, 1, 1, 0, 1, 0, 1, 2, 1, 1, 8
113, 2, 1, 1, 0, 1, 0, 1, 0, 1, 1, 6
114, 2, 1, 1, 0, 1, 0, 1, 2, 1, 1, 8
115, 2, 1, 1, 0, 1, 0, 1, 0, 1, 1, 6
116, 3, 1, 1, 0, 1, 0, 1, 2, 1, 1, 8
117, 2, 1, 1, 0, 1, 0, 1, 0, 1, 1, 6
118, 3, 1, 1, 0, 1, 0, 1, 4, 1, 1, 10
119, 2, 1, 1, 0, 1, 0, 1, 0, 1, 1, 6
120, 3, 1, 1, 0, 1, 0, 1, 4, 1, 1, 10
121, 2, 1, 1, 0, 1, 0, 1, 0, 1, 1, 6
122, 3, 1, 1, 0, 1, 0, 1, 4, 1, 1, 10
123, 2, 1, 1, 0, 1, 0, 1, 0, 1, 1, 6
124, 3, 1, 1, 0, 1, 0, 1, 4, 1, 1, 10
125, 2, 1, 1, 0, 1, 0, 1, 0, 1, 1, 6
126, 2, 1, 1, 0, 1, 0, 1, 2, 1, 1, 8
127, 2, 1, 1, 0, 1, 0, 1, 0, 1, 1, 6
128, 2, 1, 1, 0, 1, 0, 1, 2, 1, 1, 8
129, 2, 1, 1, 0, 1, 0, 1, 0, 1, 1, 6
130, 2, 1, 1, 0, 1, 0, 1, 2, 1, 1, 8
131, 2, 1, 1, 0, 1, 0, 1, 0, 1, 1, 6
132, 2, 1, 1, 0, 1, 0, 1, 2, 1, 1, 8
133, 2, 1, 1, 0, 1, 0, 1, 0, 1, 1, 6
134, 2, 1, 1, 0, 1, 0, 1, 2, 1, 1, 8
135, 2, 1, 1, 0, 1, 0, 1, 0, 1, 1, 6
136, 2, 1, 1, 0, 1, 0, 1, 2, 1, 1, 8
137, 2, 1, 1, 0, 1, 0, 1, 0, 1, 1, 6
138, 2, 1, 1, 0, 1, 0, 1, 2, 1, 1, 8
139, 2, 1, 1, 0, 1, 0, 1, 0, 1, 1, 6
140, 2, 1, 1, 0, 1, 0, 1, 2, 1, 1, 8
141, 2, 1, 1, 0, 1, 0, 1, 0, 1, 1, 6
142, 2, 1, 1, 0, 1, 0, 1, 2, 1, 1, 8
143, 2, 1, 1, 0, 1, 0, 1, 0, 1, 1, 6
144, 2, 1, 1, 0, 1, 0, 1, 2, 1, 1, 8
145, 2, 1, 1, 0, 1, 0, 1, 0, 1, 1, 6
146, 2, 1, 1, 0, 1, 0, 1, 2, 1, 1, 8
147, 2, 1, 1, 0, 1, 0, 1, 0, 1, 1, 6
148, 2, 1, 1, 0, 1, 0, 1, 2, 1, 1, 8
149, 2, 1, 1, 0, 1, 0, 1, 0, 1, 1, 6
150, 2, 1, 1, 0, 1, 0, 1, 2, 1, 1, 8
151, 2, 1, 1, 0, 1, 0, 1, 2, 1, 1, 8
152, 2, 1, 1, 0, 1, 0, 1, 2, 1, 1, 8
153, 2, 1, 1, 0, 1, 0, 1, 2, 1, 1, 8
154, 2, 1, 1, 0, 1, 0, 1, 2, 1, 1, 8
155, 2, 1, 1, 0, 1, 0, 1, 2, 1, 1, 8
156, 2, 1, 1, 0, 1, 0, 1, 2, 1, 1, 8
157, 2, 1, 1, 0, 1, 0, 1, 2, 1, 1, 8
158, 2, 1, 1, 0, 1, 0, 1, 2, 1, 1, 8
159, 2, 1, 1, 0, 1, 0, 1, 2, 1, 1, 8
160, 2, 1, 1, 0, 1, 0, 1, 2, 1, 1, 8
161, 2, 1, 1, 0, 1, 0, 1, 2, 1, 1, 8
162, 2, 1, 1, 0, 1, 0, 1, 2, 1, 1, 8
163, 2, 1, 1, 0, 1, 0, 1, 2, 1, 1, 8
164, 2, 1, 1, 0, 1, 0, 1, 2, 1, 1, 8
165, 2, 1, 1, 0, 1, 0, 1, 2, 1, 1, 8
166, 2, 1, 1, 0, 1, 0, 1, 2, 1, 1, 8
167, 2, 1, 1, 0, 1, 0, 1, 2, 1, 1, 8
168, 2, 1, 1, 0, 1, 0, 1, 2, 1, 1, 8
169, 2, 1, 1, 0, 1, 0, 1, 2, 1, 1, 8
170, 2, 1, 1, 0, 1, 0, 1, 2, 1, 1, 8
171, 2, 1, 1, 0, 1, 0, 1, 2, 1, 1, 8
172, 2, 1, 1, 0, 1, 0, 1, 2, 1, 1, 8
173, 2, 1, 1, 0, 1, 0, 1, 2, 1, 1, 8
174, 2, 1, 1, 0, 1, 0, 1, 2, 1, 1, 8
175, 2, 1, 1, 0, 1, 0, 1, 2, 1, 1, 8
176, 2, 1, 1, 0, 1, 0, 1, 2, 1, 1, 8
177, 2, 1, 1, 0, 1, 0, 1, 2, 1, 1, 8
178, 2, 1, 1, 0, 1, 0, 1, 2, 1, 1, 8
179, 2, 1, 1, 0, 1, 0, 1, 2, 1, 1, 8
180, 2, 1, 1, 0, 1, 0, 1, 2, 1, 1, 8
181, 2, 1, 1, 0, 1, 0, 1, 2, 1, 1, 8
182, 2, 1, 1, 0, 1, 0, 1, 2, 1, 1, 8
183, 2, 1, 1, 0, 1, 0, 1, 2, 1, 1, 8
184, 2, 1, 1, 0, 1, 0, 1, 2, 1, 1, 8
185, 2, 1, 1, 0, 1, 0, 1, 2, 1, 1, 8
186, 2, 1, 1, 0, 1, 0, 1, 2, 1, 1, 8
187, 2, 1, 1, 0, 1, 0, 1, 0, 1, 1, 6
