timestep, iters, adds, subs, mults, divs, total
1, 3, 802, 9715, 465, 288, 11270
2, 16, 3289, 43750, 930, 2016, 49985
3, 26, 5284, 68070, 1240, 3456, 78050
4, 34, 6942, 87526, 1550, 4608, 100626
5, 39, 7926, 102105, 1860, 5184, 117075
6, 46, 9402, 121548, 2325, 6048, 139323
7, 53, 10878, 140991, 2790, 6912, 161571
8, 62, 12691, 165298, 3255, 8064, 189308
9, 69, 14167, 184741, 3720, 8928, 211556
10, 78, 15980, 209048, 4185, 10080, 239293
11, 89, 18130, 238219, 4650, 11520, 272519
12, 100, 20280, 267390, 5115, 12960, 305745
13, 109, 22093, 291697, 5580, 14112, 333482
14, 118, 23906, 316004, 6045, 15264, 361219
15, 125, 25382, 335447, 6510, 16128, 383467
16, 132, 26858, 354890, 6975, 16992, 405715
17, 141, 28671, 379197, 7440, 18144, 433452
18, 150, 30484, 403504, 7905, 19296, 461189
19, 157, 31960, 422947, 8370, 20160, 483437
20, 164, 33436, 442390, 8835, 21024, 505685
21, 171, 34912, 461833, 9300, 21888, 527933
22, 178, 36388, 481276, 9765, 22752, 550181
23, 185, 37864, 500719, 10230, 23616, 572429
24, 192, 39340, 520162, 10695, 24480, 594677
25, 199, 40816, 539605, 11160, 25344, 616925
26, 206, 42292, 559048, 11625, 26208, 639173
27, 215, 44105, 583355, 12090, 27360, 666910
28, 222, 45581, 602798, 12555, 28224, 689158
29, 227, 46720, 617377, 13020, 28800, 705917
30, 234, 48196, 636820, 13485, 29664, 728165
31, 241, 49672, 656263, 13950, 30528, 750413
32, 254, 52159, 690298, 14415, 32256, 789128
33, 263, 53972, 714605, 14880, 33408, 816865
34, 274, 56122, 743776, 15345, 34848, 850091
35, 281, 57598, 763219, 15810, 35712, 872339
36, 289, 59256, 782675, 16120, 36864, 894915
37, 296, 60732, 802118, 16585, 37728, 917163
38, 303, 62053, 821561, 16895, 38592, 939101
39, 310, 63529, 841004, 17360, 39456, 961349
40, 317, 65005, 860447, 17825, 40320, 983597
41, 324, 66481, 879890, 18290, 41184, 1005845
42, 331, 67957, 899333, 18755, 42048, 1028093
43, 338, 69433, 918776, 19220, 42912, 1050341
44, 345, 70909, 938219, 19685, 43776, 1072589
45, 352, 72385, 957662, 20150, 44640, 1094837
46, 359, 73861, 977105, 20615, 45504, 1117085
47, 366, 75337, 996548, 21080, 46368, 1139333
48, 375, 77150, 1020855, 21545, 47520, 1167070
49, 382, 78626, 1040298, 22010, 48384, 1189318
50, 389, 80102, 1059741, 22475, 49248, 1211566
51, 396, 81578, 1079184, 22940, 50112, 1233814
52, 403, 83054, 1098627, 23405, 50976, 1256062
53, 420, 86215, 1142390, 23870, 53280, 1305755
54, 433, 88702, 1176425, 24335, 55008, 1344470
55, 444, 90852, 1205596, 24800, 56448, 1377696
56, 452, 92510, 1225052, 25110, 57600, 1400272
57, 459, 93831, 1244495, 25420, 58464, 1422210
58, 466, 95307, 1263938, 25885, 59328, 1444458
59, 473, 96783, 1283381, 26350, 60192, 1466706
60, 480, 98259, 1302824, 26815, 61056, 1488954
61, 487, 99735, 1322267, 27280, 61920, 1511202
62, 494, 101211, 1341710, 27745, 62784, 1533450
63, 501, 102687, 1361153, 28210, 63648, 1555698
64, 508, 104163, 1380596, 28675, 64512, 1577946
65, 515, 105639, 1400039, 29140, 65376, 1600194
66, 522, 107115, 1419482, 29605, 66240, 1622442
67, 531, 108928, 1443789, 30070, 67392, 1650179
68, 540, 110741, 1468096, 30535, 68544, 1677916
69, 547, 112217, 1487539, 31000, 69408, 1700164
70, 554, 113693, 1506982, 31465, 70272, 1722412
71, 561, 115169, 1526425, 31930, 71136, 1744660
72, 568, 116645, 1545868, 32395, 72000, 1766908
73, 575, 118121, 1565311, 32860, 72864, 1789156
74, 582, 119597, 1584754, 33325, 73728, 1811404
75, 589, 121073, 1604197, 33790, 74592, 1833652
76, 596, 122549, 1623640, 34255, 75456, 1855900
77, 603, 124025, 1643083, 34720, 76320, 1878148
78, 610, 125501, 1662526, 35185, 77184, 1900396
79, 617, 126977, 1681969, 35650, 78048, 1922644
80, 626, 128790, 1706276, 36115, 79200, 1950381
81, 635, 130603, 1730583, 36580, 80352, 1978118
82, 643, 132261, 1750039, 36890, 81504, 2000694
83, 650, 133582, 1769482, 37200, 82368, 2022632
84, 656, 134903, 1784074, 37510, 83232, 2039719
85, 663, 136224, 1803517, 37820, 84096, 2061657
86, 670, 137545, 1822960, 38130, 84960, 2083595
87, 675, 138684, 1837539, 38595, 85536, 2100354
88, 682, 140160, 1856982, 39060, 86400, 2122602
89, 689, 141636, 1876425, 39525, 87264, 2144850
90, 698, 143449, 1900732, 39990, 88416, 2172587
91, 707, 145262, 1925039, 40455, 89568, 2200324
92, 714, 146738, 1944482, 40920, 90432, 2222572
93, 721, 148214, 1963925, 41385, 91296, 2244820
94, 728, 149690, 1983368, 41850, 92160, 2267068
95, 735, 151166, 2002811, 42315, 93024, 2289316
96, 742, 152642, 2022254, 42780, 93888, 2311564
97, 749, 154118, 2041697, 43245, 94752, 2333812
98, 754, 155257, 2056276, 43710, 95328, 2350571
99, 759, 156396, 2070855, 44175, 95904, 2367330
100, 766, 157872, 2090298, 44640, 96768, 2389578
101, 777, 160022, 2119469, 45105, 98208, 2422804
102, 788, 162172, 2148640, 45570, 99648, 2456030
103, 795, 163648, 2168083, 46035, 100512, 2478278
104, 801, 164969, 2182675, 46345, 101376, 2495365
105, 808, 166290, 2202118, 46655, 102240, 2517303
106, 815, 167611, 2221561, 46965, 103104, 2539241
107, 822, 168932, 2241004, 47275, 103968, 2561179
108, 829, 170408, 2260447, 47740, 104832, 2583427
109, 834, 171547, 2275026, 48205, 105408, 2600186
110, 841, 173023, 2294469, 48670, 106272, 2622434
111, 848, 174499, 2313912, 49135, 107136, 2644682
112, 857, 176312, 2338219, 49600, 108288, 2672419
113, 868, 178462, 2367390, 50065, 109728, 2705645
114, 881, 180949, 2401425, 50530, 111456, 2744360
115, 896, 183773, 2440324, 50995, 113472, 2788564
116, 905, 185586, 2464631, 51460, 114624, 2816301
117, 912, 187062, 2484074, 51925, 115488, 2838549
118, 919, 188538, 2503517, 52390, 116352, 2860797
119, 926, 190014, 2522960, 52855, 117216, 2883045
120, 933, 191490, 2542403, 53320, 118080, 2905293
121, 940, 192966, 2561846, 53785, 118944, 2927541
122, 945, 194105, 2576425, 54250, 119520, 2944300
123, 950, 195244, 2591004, 54715, 120096, 2961059
124, 957, 196720, 2610447, 55180, 120960, 2983307
125, 968, 198870, 2639618, 55645, 122400, 3016533
126, 975, 200346, 2659061, 56110, 123264, 3038781
127, 980, 201485, 2673640, 56575, 123840, 3055540
128, 987, 202961, 2693083, 57040, 124704, 3077788
129, 994, 204437, 2712526, 57505, 125568, 3100036
130, 1007, 206924, 2746561, 57970, 127296, 3138751
131, 1016, 208737, 2770868, 58435, 128448, 3166488
132, 1027, 210887, 2800039, 58900, 129888, 3199714
133, 1034, 212363, 2819482, 59365, 130752, 3221962
134, 1042, 214021, 2838938, 59675, 131904, 3244538
135, 1049, 215497, 2858381, 60140, 132768, 3266786
136, 1056, 216818, 2877824, 60450, 133632, 3288724
137, 1063, 218294, 2897267, 60915, 134496, 3310972
138, 1070, 219770, 2916710, 61380, 135360, 3333220
139, 1077, 221246, 2936153, 61845, 136224, 3355468
140, 1084, 222722, 2955596, 62310, 137088, 3377716
141, 1091, 224198, 2975039, 62775, 137952, 3399964
142, 1098, 225674, 2994482, 63240, 138816, 3422212
143, 1105, 227150, 3013925, 63705, 139680, 3444460
144, 1112, 228626, 3033368, 64170, 140544, 3466708
145, 1119, 230102, 3052811, 64635, 141408, 3488956
146, 1128, 231915, 3077118, 65100, 142560, 3516693
147, 1135, 233391, 3096561, 65565, 143424, 3538941
148, 1142, 234867, 3116004, 66030, 144288, 3561189
149, 1149, 236343, 3135447, 66495, 145152, 3583437
150, 1156, 237819, 3154890, 66960, 146016, 3605685
151, 1171, 240643, 3193789, 67425, 148032, 3649889
152, 1184, 243130, 3227824, 67890, 149760, 3688604
153, 1197, 245617, 3261859, 68355, 151488, 3727319
154, 1205, 247275, 3281315, 68665, 152640, 3749895
155, 1212, 248596, 3300758, 68975, 153504, 3771833
156, 1219, 250072, 3320201, 69440, 154368, 3794081
157, 1226, 251548, 3339644, 69905, 155232, 3816329
158, 1233, 253024, 3359087, 70370, 156096, 3838577
159, 1240, 254500, 3378530, 70835, 156960, 3860825
160, 1247, 255976, 3397973, 71300, 157824, 3883073
161, 1254, 257452, 3417416, 71765, 158688, 3905321
162, 1261, 258928, 3436859, 72230, 159552, 3927569
163, 1268, 260404, 3456302, 72695, 160416, 3949817
164, 1275, 261880, 3475745, 73160, 161280, 3972065
165, 1284, 263693, 3500052, 73625, 162432, 3999802
166, 1291, 265169, 3519495, 74090, 163296, 4022050
167, 1298, 266645, 3538938, 74555, 164160, 4044298
168, 1305, 268121, 3558381, 75020, 165024, 4066546
169, 1312, 269597, 3577824, 75485, 165888, 4088794
170, 1319, 271073, 3597267, 75950, 166752, 4111042
171, 1326, 272549, 3616710, 76415, 167616, 4133290
172, 1333, 274025, 3636153, 76880, 168480, 4155538
173, 1340, 275501, 3655596, 77345, 169344, 4177786
174, 1347, 276977, 3675039, 77810, 170208, 4200034
175, 1354, 278453, 3694482, 78275, 171072, 4222282
176, 1361, 279929, 3713925, 78740, 171936, 4244530
177, 1368, 281405, 3733368, 79205, 172800, 4266778
178, 1377, 283218, 3757675, 79670, 173952, 4294515
179, 1388, 285368, 3786846, 80135, 175392, 4327741
180, 1396, 287026, 3806302, 80445, 176544, 4350317
181, 1403, 288347, 3825745, 80755, 177408, 4372255
182, 1408, 289331, 3840324, 81065, 177984, 4388704
183, 1413, 290315, 3854903, 81375, 178560, 4405153
184, 1420, 291791, 3874346, 81840, 179424, 4427401
185, 1427, 293267, 3893789, 82305, 180288, 4449649
186, 1436, 295080, 3918096, 82770, 181440, 4477386
187, 1445, 296893, 3942403, 83235, 182592, 4505123
188, 1454, 298706, 3966710, 83700, 183744, 4532860
189, 1463, 300519, 3991017, 84165, 184896, 4560597
