innerloop, iters, adds, subs, mults, divs, total
1, 3, 1666, 9715, 465, 288, 12134
2, 2, 1201, 4864, 0, 288, 6353
3, 2, 1201, 4864, 0, 288, 6353
4, 2, 1201, 4864, 0, 288, 6353
5, 2, 1201, 4864, 0, 288, 6353
6, 2, 1201, 4864, 0, 288, 6353
7, 3, 1666, 9715, 465, 288, 12134
8, 2, 1201, 4864, 0, 288, 6353
9, 2, 1201, 4864, 0, 288, 6353
10, 2, 1201, 4864, 0, 288, 6353
11, 2, 1201, 4864, 0, 288, 6353
12, 2, 1511, 4864, 310, 288, 6973
13, 2, 1201, 4864, 0, 288, 6353
14, 2, 1201, 4864, 0, 288, 6353
15, 2, 1201, 4864, 0, 288, 6353
16, 2, 1511, 4864, 310, 288, 6973
17, 2, 1201, 4864, 0, 288, 6353
18, 3, 1511, 9715, 310, 288, 11824
19, 2, 1201, 4864, 0, 288, 6353
20, 2, 1201, 4864, 0, 288, 6353
21, 3, 1666, 9715, 465, 288, 12134
22, 2, 1201, 4864, 0, 288, 6353
23, 2, 1201, 4864, 0, 288, 6353
24, 3, 1666, 9715, 465, 288, 12134
25, 2, 1201, 4864, 0, 288, 6353
26, 2, 1201, 4864, 0, 288, 6353
27, 2, 1201, 4864, 0, 288, 6353
28, 3, 1666, 9715, 465, 288, 12134
29, 2, 1201, 4864, 0, 288, 6353
30, 2, 1201, 4864, 0, 288, 6353
31, 3, 1666, 9715, 465, 288, 12134
32, 2, 1201, 4864, 0, 288, 6353
33, 2, 1201, 4864, 0, 288, 6353
34, 2, 1201, 4864, 0, 288, 6353
35, 3, 1666, 9715, 465, 288, 12134
36, 2, 1201, 4864, 0, 288, 6353
37, 2, 1201, 4864, 0, 288, 6353
38, 2, 1201, 4864, 0, 288, 6353
39, 2, 1201, 4864, 0, 288, 6353
40, 3, 1666, 9715, 465, 288, 12134
41, 2, 1201, 4864, 0, 288, 6353
42, 2, 1201, 4864, 0, 288, 6353
43, 2, 1201, 4864, 0, 288, 6353
44, 2, 1201, 4864, 0, 288, 6353
45, 3, 1666, 9715, 465, 288, 12134
46, 2, 1201, 4864, 0, 288, 6353
47, 2, 1201, 4864, 0, 288, 6353
48, 2, 1201, 4864, 0, 288, 6353
49, 3, 1666, 9715, 465, 288, 12134
50, 2, 1201, 4864, 0, 288, 6353
51, 2, 1201, 4864, 0, 288, 6353
52, 2, 1201, 4864, 0, 288, 6353
53, 3, 1666, 9715, 465, 288, 12134
54, 2, 1201, 4864, 0, 288, 6353
55, 2, 1201, 4864, 0, 288, 6353
56, 3, 1666, 9715, 465, 288, 12134
57, 2, 1201, 4864, 0, 288, 6353
58, 2, 1201, 4864, 0, 288, 6353
59, 3, 1666, 9715, 465, 288, 12134
60, 2, 1201, 4864, 0, 288, 6353
61, 2, 1201, 4864, 0, 288, 6353
62, 2, 1201, 4864, 0, 288, 6353
63, 3, 1666, 9715, 465, 288, 12134
64, 2, 1201, 4864, 0, 288, 6353
65, 2, 1201, 4864, 0, 288, 6353
66, 2, 1201, 4864, 0, 288, 6353
67, 3, 1666, 9715, 465, 288, 12134
68, 2, 1201, 4864, 0, 288, 6353
69, 2, 1201, 4864, 0, 288, 6353
70, 3, 1666, 9715, 465, 288, 12134
71, 2, 1201, 4864, 0, 288, 6353
72, 2, 1201, 4864, 0, 288, 6353
73, 3, 1666, 9715, 465, 288, 12134
74, 2, 1201, 4864, 0, 288, 6353
75, 2, 1201, 4864, 0, 288, 6353
76, 3, 1666, 9715, 465, 288, 12134
77, 2, 1201, 4864, 0, 288, 6353
78, 2, 1201, 4864, 0, 288, 6353
79, 3, 1666, 9715, 465, 288, 12134
80, 2, 1201, 4864, 0, 288, 6353
81, 2, 1201, 4864, 0, 288, 6353
82, 3, 1666, 9715, 465, 288, 12134
83, 2, 1201, 4864, 0, 288, 6353
84, 2, 1201, 4864, 0, 288, 6353
85, 3, 1666, 9715, 465, 288, 12134
86, 2, 1201, 4864, 0, 288, 6353
87, 2, 1201, 4864, 0, 288, 6353
88, 3, 1666, 9715, 465, 288, 12134
89, 2, 1201, 4864, 0, 288, 6353
90, 2, 1201, 4864, 0, 288, 6353
91, 3, 1666, 9715, 465, 288, 12134
92, 2, 1201, 4864, 0, 288, 6353
93, 2, 1201, 4864, 0, 288, 6353
94, 2, 1201, 4864, 0, 288, 6353
95, 3, 1666, 9715, 465, 288, 12134
96, 2, 1201, 4864, 0, 288, 6353
97, 2, 1201, 4864, 0, 288, 6353
98, 3, 1666, 9715, 465, 288, 12134
99, 2, 1201, 4864, 0, 288, 6353
100, 3, 1666, 9715, 465, 288, 12134
101, 2, 1201, 4864, 0, 288, 6353
102, 2, 1201, 4864, 0, 288, 6353
103, 3, 1666, 9715, 465, 288, 12134
104, 2, 1201, 4864, 0, 288, 6353
105, 2, 1201, 4864, 0, 288, 6353
106, 3, 1666, 9715, 465, 288, 12134
107, 2, 1201, 4864, 0, 288, 6353
108, 2, 1201, 4864, 0, 288, 6353
109, 2, 1201, 4864, 0, 288, 6353
110, 2, 1201, 4864, 0, 288, 6353
111, 2, 1201, 4864, 0, 288, 6353
112, 3, 1666, 9715, 465, 288, 12134
113, 2, 1201, 4864, 0, 288, 6353
114, 2, 1201, 4864, 0, 288, 6353
115, 2, 1201, 4864, 0, 288, 6353
116, 3, 1666, 9715, 465, 288, 12134
117, 2, 1201, 4864, 0, 288, 6353
118, 2, 1201, 4864, 0, 288, 6353
119, 2, 1201, 4864, 0, 288, 6353
120, 2, 1201, 4864, 0, 288, 6353
121, 3, 1666, 9715, 465, 288, 12134
122, 2, 1201, 4864, 0, 288, 6353
123, 2, 1201, 4864, 0, 288, 6353
124, 3, 1666, 9715, 465, 288, 12134
125, 2, 1201, 4864, 0, 288, 6353
126, 2, 1201, 4864, 0, 288, 6353
127, 2, 1201, 4864, 0, 288, 6353
128, 2, 1511, 4864, 310, 288, 6973
129, 2, 1201, 4864, 0, 288, 6353
130, 2, 1201, 4864, 0, 288, 6353
131, 3, 1666, 9715, 465, 288, 12134
132, 2, 1201, 4864, 0, 288, 6353
133, 2, 1201, 4864, 0, 288, 6353
134, 3, 1511, 9715, 310, 288, 11824
135, 2, 1201, 4864, 0, 288, 6353
136, 2, 1201, 4864, 0, 288, 6353
137, 3, 1666, 9715, 465, 288, 12134
138, 2, 1201, 4864, 0, 288, 6353
139, 2, 1201, 4864, 0, 288, 6353
140, 3, 1666, 9715, 465, 288, 12134
141, 2, 1201, 4864, 0, 288, 6353
142, 2, 1201, 4864, 0, 288, 6353
143, 3, 1666, 9715, 465, 288, 12134
144, 2, 1201, 4864, 0, 288, 6353
145, 2, 1201, 4864, 0, 288, 6353
146, 3, 1666, 9715, 465, 288, 12134
147, 2, 1201, 4864, 0, 288, 6353
148, 2, 1201, 4864, 0, 288, 6353
149, 3, 1666, 9715, 465, 288, 12134
150, 2, 1201, 4864, 0, 288, 6353
151, 2, 1201, 4864, 0, 288, 6353
152, 3, 1666, 9715, 465, 288, 12134
153, 2, 1201, 4864, 0, 288, 6353
154, 2, 1201, 4864, 0, 288, 6353
155, 3, 1666, 9715, 465, 288, 12134
156, 2, 1201, 4864, 0, 288, 6353
157, 2, 1201, 4864, 0, 288, 6353
158, 3, 1666, 9715, 465, 288, 12134
159, 2, 1201, 4864, 0, 288, 6353
160, 2, 1201, 4864, 0, 288, 6353
161, 3, 1666, 9715, 465, 288, 12134
162, 2, 1201, 4864, 0, 288, 6353
163, 2, 1201, 4864, 0, 288, 6353
164, 2, 1201, 4864, 0, 288, 6353
165, 3, 1666, 9715, 465, 288, 12134
166, 2, 1201, 4864, 0, 288, 6353
167, 2, 1201, 4864, 0, 288, 6353
168, 3, 1666, 9715, 465, 288, 12134
169, 2, 1201, 4864, 0, 288, 6353
170, 2, 1201, 4864, 0, 288, 6353
171, 3, 1666, 9715, 465, 288, 12134
172, 2, 1201, 4864, 0, 288, 6353
173, 2, 1201, 4864, 0, 288, 6353
174, 3, 1666, 9715, 465, 288, 12134
175, 2, 1201, 4864, 0, 288, 6353
176, 2, 1201, 4864, 0, 288, 6353
177, 3, 1666, 9715, 465, 288, 12134
178, 2, 1201, 4864, 0, 288, 6353
179, 2, 1201, 4864, 0, 288, 6353
180, 2, 1201, 4864, 0, 288, 6353
181, 2, 1201, 4864, 0, 288, 6353
182, 2, 1201, 4864, 0, 288, 6353
183, 2, 1201, 4864, 0, 288, 6353
184, 2, 1201, 4864, 0, 288, 6353
185, 3, 1666, 9715, 465, 288, 12134
186, 2, 1201, 4864, 0, 288, 6353
187, 2, 1201, 4864, 0, 288, 6353
188, 2, 1201, 4864, 0, 288, 6353
189, 2, 1201, 4864, 0, 288, 6353
190, 2, 1201, 4864, 0, 288, 6353
191, 3, 1666, 9715, 465, 288, 12134
192, 2, 1201, 4864, 0, 288, 6353
193, 2, 1201, 4864, 0, 288, 6353
194, 2, 1201, 4864, 0, 288, 6353
195, 2, 1201, 4864, 0, 288, 6353
196, 3, 1666, 9715, 465, 288, 12134
197, 2, 1201, 4864, 0, 288, 6353
198, 2, 1201, 4864, 0, 288, 6353
199, 2, 1201, 4864, 0, 288, 6353
200, 2, 1511, 4864, 310, 288, 6973
201, 2, 1201, 4864, 0, 288, 6353
202, 2, 1201, 4864, 0, 288, 6353
203, 3, 1511, 9715, 310, 288, 11824
204, 2, 1201, 4864, 0, 288, 6353
205, 2, 1201, 4864, 0, 288, 6353
206, 3, 1666, 9715, 465, 288, 12134
207, 2, 1201, 4864, 0, 288, 6353
208, 2, 1201, 4864, 0, 288, 6353
209, 3, 1666, 9715, 465, 288, 12134
210, 2, 1201, 4864, 0, 288, 6353
211, 2, 1201, 4864, 0, 288, 6353
212, 3, 1666, 9715, 465, 288, 12134
213, 2, 1201, 4864, 0, 288, 6353
214, 2, 1201, 4864, 0, 288, 6353
215, 3, 1666, 9715, 465, 288, 12134
216, 2, 1201, 4864, 0, 288, 6353
217, 2, 1201, 4864, 0, 288, 6353
218, 3, 1666, 9715, 465, 288, 12134
219, 2, 1201, 4864, 0, 288, 6353
220, 2, 1201, 4864, 0, 288, 6353
221, 3, 1666, 9715, 465, 288, 12134
222, 2, 1201, 4864, 0, 288, 6353
223, 2, 1201, 4864, 0, 288, 6353
224, 3, 1666, 9715, 465, 288, 12134
225, 2, 1201, 4864, 0, 288, 6353
226, 2, 1201, 4864, 0, 288, 6353
227, 3, 1666, 9715, 465, 288, 12134
228, 2, 1201, 4864, 0, 288, 6353
229, 2, 1201, 4864, 0, 288, 6353
230, 3, 1666, 9715, 465, 288, 12134
231, 2, 1201, 4864, 0, 288, 6353
232, 2, 1201, 4864, 0, 288, 6353
233, 2, 1201, 4864, 0, 288, 6353
234, 3, 1666, 9715, 465, 288, 12134
235, 2, 1201, 4864, 0, 288, 6353
236, 2, 1201, 4864, 0, 288, 6353
237, 2, 1201, 4864, 0, 288, 6353
238, 3, 1666, 9715, 465, 288, 12134
239, 2, 1201, 4864, 0, 288, 6353
240, 2, 1201, 4864, 0, 288, 6353
241, 3, 1666, 9715, 465, 288, 12134
242, 2, 1201, 4864, 0, 288, 6353
243, 2, 1201, 4864, 0, 288, 6353
244, 3, 1666, 9715, 465, 288, 12134
245, 2, 1201, 4864, 0, 288, 6353
246, 2, 1201, 4864, 0, 288, 6353
247, 3, 1666, 9715, 465, 288, 12134
248, 2, 1201, 4864, 0, 288, 6353
249, 2, 1201, 4864, 0, 288, 6353
250, 3, 1666, 9715, 465, 288, 12134
251, 2, 1201, 4864, 0, 288, 6353
252, 2, 1201, 4864, 0, 288, 6353
253, 3, 1666, 9715, 465, 288, 12134
254, 2, 1201, 4864, 0, 288, 6353
255, 2, 1201, 4864, 0, 288, 6353
256, 3, 1666, 9715, 465, 288, 12134
257, 2, 1201, 4864, 0, 288, 6353
258, 2, 1201, 4864, 0, 288, 6353
259, 3, 1666, 9715, 465, 288, 12134
260, 2, 1201, 4864, 0, 288, 6353
261, 2, 1201, 4864, 0, 288, 6353
262, 3, 1666, 9715, 465, 288, 12134
263, 2, 1201, 4864, 0, 288, 6353
264, 2, 1201, 4864, 0, 288, 6353
265, 3, 1666, 9715, 465, 288, 12134
266, 2, 1201, 4864, 0, 288, 6353
267, 2, 1201, 4864, 0, 288, 6353
268, 3, 1666, 9715, 465, 288, 12134
269, 2, 1201, 4864, 0, 288, 6353
270, 2, 1201, 4864, 0, 288, 6353
271, 3, 1666, 9715, 465, 288, 12134
272, 2, 1201, 4864, 0, 288, 6353
273, 2, 1201, 4864, 0, 288, 6353
274, 2, 1201, 4864, 0, 288, 6353
275, 3, 1666, 9715, 465, 288, 12134
276, 2, 1201, 4864, 0, 288, 6353
277, 2, 1201, 4864, 0, 288, 6353
278, 2, 1201, 4864, 0, 288, 6353
279, 3, 1666, 9715, 465, 288, 12134
280, 2, 1201, 4864, 0, 288, 6353
281, 2, 1201, 4864, 0, 288, 6353
282, 2, 1201, 4864, 0, 288, 6353
283, 2, 1511, 4864, 310, 288, 6973
284, 2, 1201, 4864, 0, 288, 6353
285, 2, 1201, 4864, 0, 288, 6353
286, 3, 1511, 9715, 310, 288, 11824
287, 2, 1201, 4864, 0, 288, 6353
288, 2, 1201, 4864, 0, 288, 6353
289, 2, 1511, 4864, 310, 288, 6973
290, 2, 1201, 4864, 0, 288, 6353
291, 2, 1201, 4864, 0, 288, 6353
292, 3, 1511, 9715, 310, 288, 11824
293, 2, 1201, 4864, 0, 288, 6353
294, 2, 1201, 4864, 0, 288, 6353
295, 3, 1511, 9715, 310, 288, 11824
296, 2, 1201, 4864, 0, 288, 6353
297, 3, 1666, 9715, 465, 288, 12134
298, 2, 1201, 4864, 0, 288, 6353
299, 2, 1201, 4864, 0, 288, 6353
300, 3, 1666, 9715, 465, 288, 12134
301, 2, 1201, 4864, 0, 288, 6353
302, 2, 1201, 4864, 0, 288, 6353
303, 3, 1666, 9715, 465, 288, 12134
304, 2, 1201, 4864, 0, 288, 6353
305, 2, 1201, 4864, 0, 288, 6353
306, 2, 1201, 4864, 0, 288, 6353
307, 3, 1666, 9715, 465, 288, 12134
308, 2, 1201, 4864, 0, 288, 6353
309, 2, 1201, 4864, 0, 288, 6353
310, 2, 1201, 4864, 0, 288, 6353
311, 3, 1666, 9715, 465, 288, 12134
312, 2, 1201, 4864, 0, 288, 6353
313, 2, 1201, 4864, 0, 288, 6353
314, 3, 1666, 9715, 465, 288, 12134
315, 2, 1201, 4864, 0, 288, 6353
316, 2, 1201, 4864, 0, 288, 6353
317, 3, 1666, 9715, 465, 288, 12134
318, 2, 1201, 4864, 0, 288, 6353
319, 2, 1201, 4864, 0, 288, 6353
320, 3, 1666, 9715, 465, 288, 12134
321, 2, 1201, 4864, 0, 288, 6353
322, 2, 1201, 4864, 0, 288, 6353
323, 3, 1666, 9715, 465, 288, 12134
324, 2, 1201, 4864, 0, 288, 6353
325, 2, 1201, 4864, 0, 288, 6353
326, 3, 1666, 9715, 465, 288, 12134
327, 2, 1201, 4864, 0, 288, 6353
328, 2, 1201, 4864, 0, 288, 6353
329, 3, 1666, 9715, 465, 288, 12134
330, 2, 1201, 4864, 0, 288, 6353
331, 3, 1666, 9715, 465, 288, 12134
332, 2, 1201, 4864, 0, 288, 6353
333, 3, 1666, 9715, 465, 288, 12134
334, 2, 1201, 4864, 0, 288, 6353
335, 2, 1201, 4864, 0, 288, 6353
336, 3, 1666, 9715, 465, 288, 12134
337, 2, 1201, 4864, 0, 288, 6353
338, 2, 1201, 4864, 0, 288, 6353
339, 2, 1201, 4864, 0, 288, 6353
340, 2, 1201, 4864, 0, 288, 6353
341, 3, 1666, 9715, 465, 288, 12134
342, 2, 1201, 4864, 0, 288, 6353
343, 2, 1201, 4864, 0, 288, 6353
344, 2, 1201, 4864, 0, 288, 6353
345, 2, 1201, 4864, 0, 288, 6353
346, 3, 1666, 9715, 465, 288, 12134
347, 2, 1201, 4864, 0, 288, 6353
348, 2, 1201, 4864, 0, 288, 6353
349, 3, 1666, 9715, 465, 288, 12134
350, 2, 1201, 4864, 0, 288, 6353
351, 2, 1201, 4864, 0, 288, 6353
352, 2, 1511, 4864, 310, 288, 6973
353, 2, 1201, 4864, 0, 288, 6353
354, 2, 1201, 4864, 0, 288, 6353
355, 3, 1511, 9715, 310, 288, 11824
356, 2, 1201, 4864, 0, 288, 6353
357, 2, 1201, 4864, 0, 288, 6353
358, 3, 1511, 9715, 310, 288, 11824
359, 2, 1201, 4864, 0, 288, 6353
360, 2, 1201, 4864, 0, 288, 6353
361, 3, 1511, 9715, 310, 288, 11824
362, 2, 1201, 4864, 0, 288, 6353
363, 2, 1201, 4864, 0, 288, 6353
364, 3, 1666, 9715, 465, 288, 12134
365, 2, 1201, 4864, 0, 288, 6353
366, 3, 1666, 9715, 465, 288, 12134
367, 2, 1201, 4864, 0, 288, 6353
368, 2, 1201, 4864, 0, 288, 6353
369, 3, 1666, 9715, 465, 288, 12134
370, 2, 1201, 4864, 0, 288, 6353
371, 2, 1201, 4864, 0, 288, 6353
372, 3, 1666, 9715, 465, 288, 12134
373, 2, 1201, 4864, 0, 288, 6353
374, 2, 1201, 4864, 0, 288, 6353
375, 2, 1201, 4864, 0, 288, 6353
376, 3, 1666, 9715, 465, 288, 12134
377, 2, 1201, 4864, 0, 288, 6353
378, 2, 1201, 4864, 0, 288, 6353
379, 2, 1201, 4864, 0, 288, 6353
380, 2, 1201, 4864, 0, 288, 6353
381, 3, 1666, 9715, 465, 288, 12134
382, 2, 1201, 4864, 0, 288, 6353
383, 2, 1201, 4864, 0, 288, 6353
384, 2, 1201, 4864, 0, 288, 6353
385, 2, 1201, 4864, 0, 288, 6353
386, 2, 1201, 4864, 0, 288, 6353
387, 3, 1666, 9715, 465, 288, 12134
388, 2, 1201, 4864, 0, 288, 6353
389, 2, 1201, 4864, 0, 288, 6353
390, 2, 1201, 4864, 0, 288, 6353
391, 2, 1201, 4864, 0, 288, 6353
392, 2, 1201, 4864, 0, 288, 6353
393, 2, 1201, 4864, 0, 288, 6353
394, 3, 1666, 9715, 465, 288, 12134
395, 2, 1201, 4864, 0, 288, 6353
396, 2, 1201, 4864, 0, 288, 6353
397, 2, 1201, 4864, 0, 288, 6353
398, 3, 1666, 9715, 465, 288, 12134
399, 2, 1201, 4864, 0, 288, 6353
400, 2, 1201, 4864, 0, 288, 6353
401, 3, 1666, 9715, 465, 288, 12134
402, 2, 1201, 4864, 0, 288, 6353
403, 2, 1201, 4864, 0, 288, 6353
404, 3, 1666, 9715, 465, 288, 12134
405, 2, 1201, 4864, 0, 288, 6353
406, 2, 1201, 4864, 0, 288, 6353
407, 3, 1666, 9715, 465, 288, 12134
408, 2, 1201, 4864, 0, 288, 6353
409, 2, 1201, 4864, 0, 288, 6353
410, 3, 1666, 9715, 465, 288, 12134
411, 2, 1201, 4864, 0, 288, 6353
412, 2, 1201, 4864, 0, 288, 6353
413, 3, 1666, 9715, 465, 288, 12134
414, 2, 1201, 4864, 0, 288, 6353
415, 3, 1666, 9715, 465, 288, 12134
416, 2, 1201, 4864, 0, 288, 6353
417, 3, 1666, 9715, 465, 288, 12134
418, 2, 1201, 4864, 0, 288, 6353
419, 2, 1201, 4864, 0, 288, 6353
420, 3, 1666, 9715, 465, 288, 12134
421, 2, 1201, 4864, 0, 288, 6353
422, 2, 1201, 4864, 0, 288, 6353
423, 2, 1201, 4864, 0, 288, 6353
424, 2, 1201, 4864, 0, 288, 6353
425, 3, 1666, 9715, 465, 288, 12134
426, 2, 1201, 4864, 0, 288, 6353
427, 2, 1201, 4864, 0, 288, 6353
428, 3, 1666, 9715, 465, 288, 12134
429, 2, 1201, 4864, 0, 288, 6353
430, 3, 1666, 9715, 465, 288, 12134
431, 2, 1201, 4864, 0, 288, 6353
432, 2, 1201, 4864, 0, 288, 6353
433, 3, 1666, 9715, 465, 288, 12134
434, 2, 1201, 4864, 0, 288, 6353
435, 2, 1201, 4864, 0, 288, 6353
436, 3, 1666, 9715, 465, 288, 12134
437, 2, 1201, 4864, 0, 288, 6353
438, 2, 1201, 4864, 0, 288, 6353
439, 2, 1201, 4864, 0, 288, 6353
440, 2, 1201, 4864, 0, 288, 6353
441, 2, 1201, 4864, 0, 288, 6353
442, 3, 1666, 9715, 465, 288, 12134
443, 2, 1201, 4864, 0, 288, 6353
444, 2, 1201, 4864, 0, 288, 6353
445, 2, 1201, 4864, 0, 288, 6353
446, 3, 1666, 9715, 465, 288, 12134
447, 2, 1201, 4864, 0, 288, 6353
448, 2, 1201, 4864, 0, 288, 6353
449, 2, 1201, 4864, 0, 288, 6353
450, 2, 1201, 4864, 0, 288, 6353
451, 3, 1666, 9715, 465, 288, 12134
452, 2, 1201, 4864, 0, 288, 6353
453, 2, 1201, 4864, 0, 288, 6353
454, 3, 1666, 9715, 465, 288, 12134
455, 2, 1201, 4864, 0, 288, 6353
456, 2, 1201, 4864, 0, 288, 6353
457, 2, 1201, 4864, 0, 288, 6353
458, 2, 1511, 4864, 310, 288, 6973
459, 2, 1201, 4864, 0, 288, 6353
460, 2, 1201, 4864, 0, 288, 6353
461, 3, 1666, 9715, 465, 288, 12134
462, 2, 1201, 4864, 0, 288, 6353
463, 2, 1201, 4864, 0, 288, 6353
464, 3, 1511, 9715, 310, 288, 11824
465, 2, 1201, 4864, 0, 288, 6353
466, 2, 1201, 4864, 0, 288, 6353
467, 3, 1666, 9715, 465, 288, 12134
468, 2, 1201, 4864, 0, 288, 6353
469, 2, 1201, 4864, 0, 288, 6353
470, 3, 1666, 9715, 465, 288, 12134
471, 2, 1201, 4864, 0, 288, 6353
472, 2, 1201, 4864, 0, 288, 6353
473, 3, 1666, 9715, 465, 288, 12134
474, 2, 1201, 4864, 0, 288, 6353
475, 2, 1201, 4864, 0, 288, 6353
476, 3, 1666, 9715, 465, 288, 12134
477, 2, 1201, 4864, 0, 288, 6353
478, 2, 1201, 4864, 0, 288, 6353
479, 3, 1666, 9715, 465, 288, 12134
480, 2, 1201, 4864, 0, 288, 6353
481, 2, 1201, 4864, 0, 288, 6353
482, 3, 1666, 9715, 465, 288, 12134
483, 2, 1201, 4864, 0, 288, 6353
484, 2, 1201, 4864, 0, 288, 6353
485, 3, 1666, 9715, 465, 288, 12134
486, 2, 1201, 4864, 0, 288, 6353
487, 2, 1201, 4864, 0, 288, 6353
488, 3, 1666, 9715, 465, 288, 12134
489, 2, 1201, 4864, 0, 288, 6353
490, 2, 1201, 4864, 0, 288, 6353
491, 3, 1666, 9715, 465, 288, 12134
492, 2, 1201, 4864, 0, 288, 6353
493, 2, 1201, 4864, 0, 288, 6353
494, 2, 1201, 4864, 0, 288, 6353
495, 3, 1666, 9715, 465, 288, 12134
496, 2, 1201, 4864, 0, 288, 6353
497, 2, 1201, 4864, 0, 288, 6353
498, 3, 1666, 9715, 465, 288, 12134
499, 2, 1201, 4864, 0, 288, 6353
500, 2, 1201, 4864, 0, 288, 6353
501, 3, 1666, 9715, 465, 288, 12134
502, 2, 1201, 4864, 0, 288, 6353
503, 2, 1201, 4864, 0, 288, 6353
504, 3, 1666, 9715, 465, 288, 12134
505, 2, 1201, 4864, 0, 288, 6353
506, 2, 1201, 4864, 0, 288, 6353
507, 3, 1666, 9715, 465, 288, 12134
508, 2, 1201, 4864, 0, 288, 6353
509, 2, 1201, 4864, 0, 288, 6353
510, 2, 1201, 4864, 0, 288, 6353
511, 2, 1201, 4864, 0, 288, 6353
512, 2, 1201, 4864, 0, 288, 6353
513, 2, 1201, 4864, 0, 288, 6353
514, 3, 1666, 9715, 465, 288, 12134
515, 2, 1201, 4864, 0, 288, 6353
516, 2, 1201, 4864, 0, 288, 6353
517, 2, 1201, 4864, 0, 288, 6353
518, 2, 1201, 4864, 0, 288, 6353
519, 2, 1201, 4864, 0, 288, 6353
520, 3, 1666, 9715, 465, 288, 12134
521, 2, 1201, 4864, 0, 288, 6353
522, 2, 1201, 4864, 0, 288, 6353
523, 2, 1201, 4864, 0, 288, 6353
524, 2, 1201, 4864, 0, 288, 6353
525, 2, 1201, 4864, 0, 288, 6353
526, 3, 1666, 9715, 465, 288, 12134
527, 2, 1201, 4864, 0, 288, 6353
528, 2, 1201, 4864, 0, 288, 6353
529, 2, 1201, 4864, 0, 288, 6353
530, 2, 1511, 4864, 310, 288, 6973
531, 2, 1201, 4864, 0, 288, 6353
532, 2, 1201, 4864, 0, 288, 6353
533, 3, 1511, 9715, 310, 288, 11824
534, 2, 1201, 4864, 0, 288, 6353
535, 2, 1201, 4864, 0, 288, 6353
536, 3, 1666, 9715, 465, 288, 12134
537, 2, 1201, 4864, 0, 288, 6353
538, 2, 1201, 4864, 0, 288, 6353
539, 3, 1666, 9715, 465, 288, 12134
540, 2, 1201, 4864, 0, 288, 6353
541, 2, 1201, 4864, 0, 288, 6353
542, 3, 1666, 9715, 465, 288, 12134
543, 2, 1201, 4864, 0, 288, 6353
544, 2, 1201, 4864, 0, 288, 6353
545, 3, 1666, 9715, 465, 288, 12134
546, 2, 1201, 4864, 0, 288, 6353
547, 2, 1201, 4864, 0, 288, 6353
548, 3, 1666, 9715, 465, 288, 12134
549, 2, 1201, 4864, 0, 288, 6353
550, 2, 1201, 4864, 0, 288, 6353
551, 3, 1666, 9715, 465, 288, 12134
552, 2, 1201, 4864, 0, 288, 6353
553, 2, 1201, 4864, 0, 288, 6353
554, 3, 1666, 9715, 465, 288, 12134
555, 2, 1201, 4864, 0, 288, 6353
556, 2, 1201, 4864, 0, 288, 6353
557, 3, 1666, 9715, 465, 288, 12134
558, 2, 1201, 4864, 0, 288, 6353
559, 2, 1201, 4864, 0, 288, 6353
560, 3, 1666, 9715, 465, 288, 12134
561, 2, 1201, 4864, 0, 288, 6353
562, 2, 1201, 4864, 0, 288, 6353
563, 2, 1201, 4864, 0, 288, 6353
564, 3, 1666, 9715, 465, 288, 12134
565, 2, 1201, 4864, 0, 288, 6353
566, 2, 1201, 4864, 0, 288, 6353
567, 3, 1666, 9715, 465, 288, 12134
568, 2, 1201, 4864, 0, 288, 6353
569, 2, 1201, 4864, 0, 288, 6353
570, 3, 1666, 9715, 465, 288, 12134
571, 2, 1201, 4864, 0, 288, 6353
572, 2, 1201, 4864, 0, 288, 6353
573, 3, 1666, 9715, 465, 288, 12134
574, 2, 1201, 4864, 0, 288, 6353
575, 2, 1201, 4864, 0, 288, 6353
576, 3, 1666, 9715, 465, 288, 12134
577, 2, 1201, 4864, 0, 288, 6353
578, 2, 1201, 4864, 0, 288, 6353
579, 3, 1666, 9715, 465, 288, 12134
580, 2, 1201, 4864, 0, 288, 6353
581, 2, 1201, 4864, 0, 288, 6353
582, 3, 1666, 9715, 465, 288, 12134
583, 2, 1201, 4864, 0, 288, 6353
584, 2, 1201, 4864, 0, 288, 6353
585, 3, 1666, 9715, 465, 288, 12134
586, 2, 1201, 4864, 0, 288, 6353
587, 2, 1201, 4864, 0, 288, 6353
588, 3, 1666, 9715, 465, 288, 12134
589, 2, 1201, 4864, 0, 288, 6353
590, 2, 1201, 4864, 0, 288, 6353
591, 3, 1666, 9715, 465, 288, 12134
592, 2, 1201, 4864, 0, 288, 6353
593, 2, 1201, 4864, 0, 288, 6353
594, 3, 1666, 9715, 465, 288, 12134
595, 2, 1201, 4864, 0, 288, 6353
596, 2, 1201, 4864, 0, 288, 6353
597, 3, 1666, 9715, 465, 288, 12134
598, 2, 1201, 4864, 0, 288, 6353
599, 2, 1201, 4864, 0, 288, 6353
600, 3, 1666, 9715, 465, 288, 12134
601, 2, 1201, 4864, 0, 288, 6353
602, 2, 1201, 4864, 0, 288, 6353
603, 2, 1201, 4864, 0, 288, 6353
604, 3, 1666, 9715, 465, 288, 12134
605, 2, 1201, 4864, 0, 288, 6353
606, 2, 1201, 4864, 0, 288, 6353
607, 2, 1201, 4864, 0, 288, 6353
608, 2, 1201, 4864, 0, 288, 6353
609, 3, 1666, 9715, 465, 288, 12134
610, 2, 1201, 4864, 0, 288, 6353
611, 2, 1201, 4864, 0, 288, 6353
612, 2, 1201, 4864, 0, 288, 6353
613, 2, 1511, 4864, 310, 288, 6973
614, 2, 1201, 4864, 0, 288, 6353
615, 2, 1201, 4864, 0, 288, 6353
616, 3, 1511, 9715, 310, 288, 11824
617, 2, 1201, 4864, 0, 288, 6353
618, 3, 1511, 9715, 310, 288, 11824
619, 2, 1201, 4864, 0, 288, 6353
620, 3, 1511, 9715, 310, 288, 11824
621, 2, 1201, 4864, 0, 288, 6353
622, 2, 1201, 4864, 0, 288, 6353
623, 3, 1666, 9715, 465, 288, 12134
624, 2, 1201, 4864, 0, 288, 6353
625, 2, 1201, 4864, 0, 288, 6353
626, 3, 1666, 9715, 465, 288, 12134
627, 2, 1201, 4864, 0, 288, 6353
628, 2, 1201, 4864, 0, 288, 6353
629, 2, 1201, 4864, 0, 288, 6353
630, 3, 1666, 9715, 465, 288, 12134
631, 2, 1201, 4864, 0, 288, 6353
632, 2, 1201, 4864, 0, 288, 6353
633, 2, 1201, 4864, 0, 288, 6353
634, 3, 1666, 9715, 465, 288, 12134
635, 2, 1201, 4864, 0, 288, 6353
636, 2, 1201, 4864, 0, 288, 6353
637, 2, 1201, 4864, 0, 288, 6353
638, 3, 1666, 9715, 465, 288, 12134
639, 2, 1201, 4864, 0, 288, 6353
640, 2, 1201, 4864, 0, 288, 6353
641, 2, 1201, 4864, 0, 288, 6353
642, 3, 1666, 9715, 465, 288, 12134
643, 2, 1201, 4864, 0, 288, 6353
644, 2, 1201, 4864, 0, 288, 6353
645, 2, 1201, 4864, 0, 288, 6353
