innerloop, iters, adds, subs, mults, divs, total
1, 3, 15, 12, 2, 2, 31
2, 5, 28, 19, 2, 4, 53
3, 7, 43, 26, 4, 6, 79
4, 9, 56, 33, 4, 8, 101
5, 11, 71, 40, 6, 10, 127
6, 13, 84, 47, 6, 12, 149
7, 15, 99, 54, 8, 14, 175
8, 17, 112, 61, 8, 16, 197
9, 19, 127, 68, 10, 18, 223
10, 21, 140, 75, 10, 20, 245
11, 23, 155, 82, 12, 22, 271
12, 25, 168, 89, 12, 24, 293
13, 27, 183, 96, 14, 26, 319
14, 29, 196, 103, 14, 28, 341
15, 31, 211, 110, 16, 30, 367
16, 33, 224, 117, 16, 32, 389
17, 35, 239, 124, 18, 34, 415
18, 37, 252, 131, 18, 36, 437
19, 39, 267, 138, 20, 38, 463
20, 41, 280, 145, 20, 40, 485
21, 43, 295, 152, 22, 42, 511
22, 45, 308, 159, 22, 44, 533
23, 47, 323, 166, 24, 46, 559
24, 49, 336, 173, 24, 48, 581
25, 51, 351, 180, 26, 50, 607
26, 53, 364, 187, 26, 52, 629
27, 55, 379, 194, 28, 54, 655
28, 57, 392, 201, 28, 56, 677
29, 59, 407, 208, 30, 58, 703
30, 61, 420, 215, 30, 60, 725
31, 63, 435, 222, 32, 62, 751
32, 65, 448, 229, 32, 64, 773
33, 68, 463, 241, 34, 66, 804
34, 70, 476, 248, 34, 68, 826
35, 73, 492, 260, 37, 70, 859
36, 75, 505, 267, 37, 72, 881
37, 78, 521, 279, 40, 74, 914
38, 80, 534, 286, 40, 76, 936
39, 83, 550, 298, 43, 78, 969
40, 85, 563, 305, 43, 80, 991
41, 88, 579, 317, 46, 82, 1024
42, 90, 592, 324, 46, 84, 1046
43, 92, 605, 331, 46, 86, 1068
44, 94, 620, 338, 48, 88, 1094
45, 96, 633, 345, 48, 90, 1116
46, 98, 648, 352, 50, 92, 1142
47, 100, 661, 359, 50, 94, 1164
48, 102, 676, 366, 52, 96, 1190
49, 104, 689, 373, 52, 98, 1212
50, 106, 704, 380, 54, 100, 1238
51, 108, 717, 387, 54, 102, 1260
52, 110, 732, 394, 56, 104, 1286
53, 112, 745, 401, 56, 106, 1308
54, 114, 760, 408, 58, 108, 1334
55, 116, 773, 415, 58, 110, 1356
56, 118, 788, 422, 60, 112, 1382
57, 120, 801, 429, 60, 114, 1404
58, 122, 816, 436, 62, 116, 1430
59, 124, 829, 443, 62, 118, 1452
60, 126, 844, 450, 64, 120, 1478
61, 128, 857, 457, 64, 122, 1500
62, 130, 872, 464, 66, 124, 1526
63, 132, 885, 471, 66, 126, 1548
64, 134, 900, 478, 68, 128, 1574
65, 136, 913, 485, 68, 130, 1596
66, 138, 928, 492, 70, 132, 1622
67, 140, 941, 499, 70, 134, 1644
68, 142, 956, 506, 72, 136, 1670
69, 144, 969, 513, 72, 138, 1692
70, 146, 984, 520, 74, 140, 1718
71, 148, 997, 527, 74, 142, 1740
72, 150, 1012, 534, 76, 144, 1766
73, 152, 1025, 541, 76, 146, 1788
74, 154, 1040, 548, 78, 148, 1814
75, 156, 1053, 555, 78, 150, 1836
76, 158, 1068, 562, 80, 152, 1862
77, 160, 1081, 569, 80, 154, 1884
78, 162, 1096, 576, 82, 156, 1910
79, 164, 1109, 583, 82, 158, 1932
80, 166, 1124, 590, 84, 160, 1958
81, 168, 1137, 597, 84, 162, 1980
82, 170, 1152, 604, 86, 164, 2006
83, 172, 1165, 611, 86, 166, 2028
84, 174, 1180, 618, 88, 168, 2054
85, 176, 1193, 625, 88, 170, 2076
86, 178, 1208, 632, 90, 172, 2102
87, 180, 1221, 639, 90, 174, 2124
88, 182, 1236, 646, 92, 176, 2150
89, 184, 1249, 653, 92, 178, 2172
90, 186, 1264, 660, 94, 180, 2198
91, 188, 1277, 667, 94, 182, 2220
92, 190, 1292, 674, 96, 184, 2246
93, 192, 1305, 681, 96, 186, 2268
94, 194, 1320, 688, 98, 188, 2294
95, 196, 1333, 695, 98, 190, 2316
96, 198, 1348, 702, 100, 192, 2342
97, 200, 1361, 709, 100, 194, 2364
98, 202, 1376, 716, 102, 196, 2390
99, 204, 1389, 723, 102, 198, 2412
100, 206, 1404, 730, 104, 200, 2438
101, 208, 1417, 737, 104, 202, 2460
102, 210, 1432, 744, 106, 204, 2486
103, 212, 1445, 751, 106, 206, 2508
104, 214, 1460, 758, 108, 208, 2534
105, 216, 1473, 765, 108, 210, 2556
106, 218, 1488, 772, 110, 212, 2582
107, 220, 1501, 779, 110, 214, 2604
108, 222, 1516, 786, 112, 216, 2630
109, 224, 1529, 793, 112, 218, 2652
110, 226, 1544, 800, 114, 220, 2678
111, 228, 1557, 807, 114, 222, 2700
112, 230, 1572, 814, 116, 224, 2726
113, 232, 1585, 821, 116, 226, 2748
114, 234, 1600, 828, 118, 228, 2774
115, 236, 1613, 835, 118, 230, 2796
116, 239, 1628, 847, 120, 232, 2827
117, 241, 1641, 854, 120, 234, 2849
118, 244, 1657, 866, 123, 236, 2882
119, 246, 1670, 873, 123, 238, 2904
120, 249, 1686, 885, 126, 240, 2937
121, 251, 1699, 892, 126, 242, 2959
122, 254, 1715, 904, 129, 244, 2992
123, 256, 1728, 911, 129, 246, 3014
124, 259, 1744, 923, 132, 248, 3047
125, 261, 1757, 930, 132, 250, 3069
126, 263, 1772, 937, 134, 252, 3095
127, 265, 1785, 944, 134, 254, 3117
128, 267, 1800, 951, 136, 256, 3143
129, 269, 1813, 958, 136, 258, 3165
130, 271, 1828, 965, 138, 260, 3191
131, 273, 1841, 972, 138, 262, 3213
132, 275, 1856, 979, 140, 264, 3239
133, 277, 1869, 986, 140, 266, 3261
134, 279, 1884, 993, 142, 268, 3287
135, 281, 1897, 1000, 142, 270, 3309
136, 283, 1912, 1007, 144, 272, 3335
137, 285, 1925, 1014, 144, 274, 3357
138, 287, 1940, 1021, 146, 276, 3383
139, 289, 1953, 1028, 146, 278, 3405
140, 291, 1968, 1035, 148, 280, 3431
141, 293, 1981, 1042, 148, 282, 3453
142, 295, 1996, 1049, 150, 284, 3479
143, 297, 2009, 1056, 150, 286, 3501
144, 299, 2024, 1063, 152, 288, 3527
145, 301, 2037, 1070, 152, 290, 3549
146, 303, 2052, 1077, 154, 292, 3575
147, 305, 2065, 1084, 154, 294, 3597
148, 307, 2080, 1091, 156, 296, 3623
149, 309, 2093, 1098, 156, 298, 3645
150, 311, 2108, 1105, 158, 300, 3671
151, 313, 2122, 1112, 159, 302, 3695
152, 315, 2137, 1119, 161, 304, 3721
153, 317, 2151, 1126, 162, 306, 3745
154, 319, 2166, 1133, 164, 308, 3771
155, 321, 2180, 1140, 165, 310, 3795
156, 323, 2195, 1147, 167, 312, 3821
157, 325, 2209, 1154, 168, 314, 3845
158, 327, 2224, 1161, 170, 316, 3871
159, 329, 2238, 1168, 171, 318, 3895
160, 331, 2253, 1175, 173, 320, 3921
161, 333, 2267, 1182, 174, 322, 3945
162, 335, 2282, 1189, 176, 324, 3971
163, 337, 2296, 1196, 177, 326, 3995
164, 339, 2311, 1203, 179, 328, 4021
165, 341, 2325, 1210, 180, 330, 4045
166, 343, 2340, 1217, 182, 332, 4071
167, 345, 2354, 1224, 183, 334, 4095
168, 347, 2369, 1231, 185, 336, 4121
169, 349, 2383, 1238, 186, 338, 4145
170, 351, 2398, 1245, 188, 340, 4171
171, 353, 2412, 1252, 189, 342, 4195
172, 355, 2427, 1259, 191, 344, 4221
173, 357, 2441, 1266, 192, 346, 4245
174, 359, 2456, 1273, 194, 348, 4271
175, 361, 2470, 1280, 195, 350, 4295
176, 363, 2485, 1287, 197, 352, 4321
177, 365, 2499, 1294, 198, 354, 4345
178, 367, 2514, 1301, 200, 356, 4371
179, 369, 2528, 1308, 201, 358, 4395
180, 371, 2543, 1315, 203, 360, 4421
181, 373, 2557, 1322, 204, 362, 4445
182, 375, 2572, 1329, 206, 364, 4471
183, 377, 2586, 1336, 207, 366, 4495
184, 379, 2601, 1343, 209, 368, 4521
185, 381, 2615, 1350, 210, 370, 4545
186, 383, 2630, 1357, 212, 372, 4571
187, 385, 2643, 1364, 212, 374, 4593
