timestep, iters, adds, subs, mults, divs, total
1, 3, 15, 12, 2, 2, 31
2, 7, 43, 26, 4, 6, 79
3, 11, 71, 40, 6, 10, 127
4, 15, 99, 54, 8, 14, 175
5, 19, 127, 68, 10, 18, 223
6, 23, 155, 82, 12, 22, 271
7, 27, 183, 96, 14, 26, 319
8, 31, 211, 110, 16, 30, 367
9, 35, 239, 124, 18, 34, 415
10, 39, 267, 138, 20, 38, 463
11, 43, 295, 152, 22, 42, 511
12, 47, 323, 166, 24, 46, 559
13, 51, 351, 180, 26, 50, 607
14, 55, 379, 194, 28, 54, 655
15, 59, 407, 208, 30, 58, 703
16, 63, 435, 222, 32, 62, 751
17, 68, 463, 241, 34, 66, 804
18, 73, 492, 260, 37, 70, 859
19, 78, 521, 279, 40, 74, 914
20, 83, 550, 298, 43, 78, 969
21, 88, 579, 317, 46, 82, 1024
22, 94, 620, 338, 48, 88, 1094
23, 98, 648, 352, 50, 92, 1142
24, 102, 676, 366, 52, 96, 1190
25, 106, 704, 380, 54, 100, 1238
26, 110, 732, 394, 56, 104, 1286
27, 114, 760, 408, 58, 108, 1334
28, 118, 788, 422, 60, 112, 1382
29, 122, 816, 436, 62, 116, 1430
30, 126, 844, 450, 64, 120, 1478
31, 130, 872, 464, 66, 124, 1526
32, 134, 900, 478, 68, 128, 1574
33, 138, 928, 492, 70, 132, 1622
34, 142, 956, 506, 72, 136, 1670
35, 146, 984, 520, 74, 140, 1718
36, 150, 1012, 534, 76, 144, 1766
37, 154, 1040, 548, 78, 148, 1814
38, 158, 1068, 562, 80, 152, 1862
39, 162, 1096, 576, 82, 156, 1910
40, 166, 1124, 590, 84, 160, 1958
41, 170, 1152, 604, 86, 164, 2006
42, 174, 1180, 618, 88, 168, 2054
43, 178, 1208, 632, 90, 172, 2102
44, 182, 1236, 646, 92, 176, 2150
45, 186, 1264, 660, 94, 180, 2198
46, 190, 1292, 674, 96, 184, 2246
47, 194, 1320, 688, 98, 188, 2294
48, 198, 1348, 702, 100, 192, 2342
49, 202, 1376, 716, 102, 196, 2390
50, 206, 1404, 730, 104, 200, 2438
51, 210, 1432, 744, 106, 204, 2486
52, 214, 1460, 758, 108, 208, 2534
53, 218, 1488, 772, 110, 212, 2582
54, 222, 1516, 786, 112, 216, 2630
55, 226, 1544, 800, 114, 220, 2678
56, 230, 1572, 814, 116, 224, 2726
57, 234, 1600, 828, 118, 228, 2774
58, 239, 1628, 847, 120, 232, 2827
59, 244, 1657, 866, 123, 236, 2882
60, 249, 1686, 885, 126, 240, 2937
61, 254, 1715, 904, 129, 244, 2992
62, 259, 1744, 923, 132, 248, 3047
63, 263, 1772, 937, 134, 252, 3095
64, 267, 1800, 951, 136, 256, 3143
65, 271, 1828, 965, 138, 260, 3191
66, 275, 1856, 979, 140, 264, 3239
67, 279, 1884, 993, 142, 268, 3287
68, 283, 1912, 1007, 144, 272, 3335
69, 287, 1940, 1021, 146, 276, 3383
70, 291, 1968, 1035, 148, 280, 3431
71, 295, 1996, 1049, 150, 284, 3479
72, 299, 2024, 1063, 152, 288, 3527
73, 303, 2052, 1077, 154, 292, 3575
74, 307, 2080, 1091, 156, 296, 3623
75, 311, 2108, 1105, 158, 300, 3671
76, 315, 2137, 1119, 161, 304, 3721
77, 319, 2166, 1133, 164, 308, 3771
78, 323, 2195, 1147, 167, 312, 3821
79, 327, 2224, 1161, 170, 316, 3871
80, 331, 2253, 1175, 173, 320, 3921
81, 335, 2282, 1189, 176, 324, 3971
82, 339, 2311, 1203, 179, 328, 4021
83, 343, 2340, 1217, 182, 332, 4071
84, 347, 2369, 1231, 185, 336, 4121
85, 351, 2398, 1245, 188, 340, 4171
86, 355, 2427, 1259, 191, 344, 4221
87, 359, 2456, 1273, 194, 348, 4271
88, 363, 2485, 1287, 197, 352, 4321
89, 367, 2514, 1301, 200, 356, 4371
90, 371, 2543, 1315, 203, 360, 4421
91, 375, 2572, 1329, 206, 364, 4471
92, 379, 2601, 1343, 209, 368, 4521
93, 383, 2630, 1357, 212, 372, 4571
