timestep, iters, adds, subs, mults, divs, total
1, 3, 144442, 24489, 143523, 27134, 339588
2, 16, 920872, 110213, 914439, 189938, 2135462
3, 103, 1583749, 1114082, 1572721, 325608, 4596160
4, 112, 2107321, 1175312, 2092617, 434144, 5809394
5, 117, 2378035, 1212048, 2361493, 488412, 6439988
6, 124, 2775178, 1261031, 2755879, 569814, 7361902
7, 131, 3172321, 1310014, 3150265, 651216, 8283816
8, 140, 3695893, 1371244, 3670161, 759752, 9497050
9, 146, 4093036, 1407985, 4064547, 841154, 10406722
10, 154, 4616608, 1456973, 4584443, 949690, 11607714
11, 164, 5266609, 1518208, 5229849, 1085360, 13100026
12, 174, 5916610, 1579443, 5875255, 1221030, 14592338
13, 182, 6440182, 1628431, 6395151, 1329566, 15793330
14, 190, 6963754, 1677419, 6915047, 1438102, 16994322
15, 196, 7360897, 1714160, 7309433, 1519504, 17903994
16, 202, 7758040, 1750901, 7703819, 1600906, 18813666
17, 210, 8281612, 1799889, 8223715, 1709442, 20014658
18, 218, 8805184, 1848877, 8743611, 1817978, 21215650
19, 224, 9202327, 1885618, 9137997, 1899380, 22125322
20, 230, 9599470, 1922359, 9532383, 1980782, 23034994
21, 236, 9996613, 1959100, 9926769, 2062184, 23944666
22, 242, 10393756, 1995841, 10321155, 2143586, 24854338
23, 248, 10790899, 2032582, 10715541, 2224988, 25764010
24, 254, 11188042, 2069323, 11109927, 2306390, 26673682
25, 260, 11585185, 2106064, 11504313, 2387792, 27583354
26, 267, 11982485, 2155047, 11898856, 2469194, 28505582
27, 276, 12506214, 2216277, 12418909, 2577730, 29719130
28, 283, 12903514, 2265260, 12813452, 2659132, 30641358
29, 288, 13174385, 2301996, 13082485, 2713400, 31272266
30, 295, 13571685, 2350979, 13477028, 2794802, 32194494
31, 302, 13968985, 2399962, 13871571, 2876204, 33116722
32, 315, 14745572, 2485686, 14642644, 3039008, 34912910
33, 324, 15269301, 2546916, 15162697, 3147544, 36126458
34, 335, 15919459, 2620393, 15808260, 3283214, 37631326
35, 373, 16322089, 3048878, 16208133, 3364616, 38943716
36, 1417, 17023212, 15780578, 16905580, 3473152, 53182522
37, 1424, 17420355, 15829561, 17299966, 3554554, 54104436
38, 1431, 17817498, 15878544, 17694352, 3635956, 55026350
39, 1438, 18214641, 15927527, 18088738, 3717358, 55948264
40, 1445, 18611784, 15976510, 18483124, 3798760, 56870178
41, 1452, 19008927, 16025493, 18877510, 3880162, 57792092
42, 1459, 19406070, 16074476, 19271896, 3961564, 58714006
43, 1466, 19803213, 16123459, 19666282, 4042966, 59635920
44, 1473, 20200356, 16172442, 20060668, 4124368, 60557834
45, 1480, 20597499, 16221425, 20455054, 4205770, 61479748
46, 1487, 20994642, 16270408, 20849440, 4287172, 62401662
47, 1494, 21391942, 16319391, 21243983, 4368574, 63323890
48, 1546, 21925573, 16907027, 21773938, 4477110, 65083648
49, 1553, 22322873, 16956010, 22168481, 4558512, 66005876
50, 1560, 22720173, 17004993, 22563024, 4639914, 66928104
51, 1567, 23117473, 17053976, 22957567, 4721316, 67850332
52, 1574, 23514773, 17102959, 23352110, 4802718, 68772560
53, 1589, 24417789, 17200930, 24248693, 4992656, 70860068
54, 1602, 25194376, 17286654, 25019766, 5155460, 72656256
55, 1615, 25970806, 17372378, 25790682, 5318264, 74452130
56, 1647, 26500682, 17715174, 26316882, 5426800, 75959538
57, 1654, 26897825, 17764157, 26711268, 5508202, 76881452
58, 1661, 27294968, 17813140, 27105654, 5589604, 77803366
59, 1668, 27692111, 17862123, 27500040, 5671006, 78725280
60, 1675, 28089254, 17911106, 27894426, 5752408, 79647194
61, 1682, 28486397, 17960089, 28288812, 5833810, 80569108
62, 1689, 28883540, 18009072, 28683198, 5915212, 81491022
63, 1696, 29280683, 18058055, 29077584, 5996614, 82412936
64, 1703, 29677826, 18107038, 29471970, 6078016, 83334850
65, 1710, 30074969, 18156021, 29866356, 6159418, 84256764
66, 1719, 30598541, 18217251, 30386252, 6267954, 85469998
67, 1728, 31122113, 18278481, 30906148, 6376490, 86683232
68, 1735, 31519256, 18327464, 31300534, 6457892, 87605146
69, 1742, 31916399, 18376447, 31694920, 6539294, 88527060
70, 1749, 32313542, 18425430, 32089306, 6620696, 89448974
71, 1756, 32710685, 18474413, 32483692, 6702098, 90370888
72, 1763, 33107828, 18523396, 32878078, 6783500, 91292802
73, 1770, 33505128, 18572379, 33272621, 6864902, 92215030
74, 1829, 33913856, 19257946, 33678592, 6946304, 93796698
75, 1839, 34311662, 19343655, 34073641, 7027706, 94756664
76, 1846, 34708962, 19392638, 34468184, 7109108, 95678892
77, 1853, 35106262, 19441621, 34862727, 7190510, 96601120
78, 1860, 35503562, 19490604, 35257270, 7271912, 97523348
79, 1867, 35900862, 19539587, 35651813, 7353314, 98445576
80, 1876, 36424591, 19600817, 36171866, 7461850, 99659124
81, 1887, 37074592, 19674294, 36817272, 7597520, 101163678
82, 1976, 37655132, 20714884, 37394136, 7706056, 103470208
83, 1983, 38052275, 20763867, 37788522, 7787458, 104392122
84, 1988, 38322989, 20800603, 38057398, 7841726, 105022716
85, 1995, 38720132, 20849586, 38451784, 7923128, 105944630
86, 2002, 39117275, 20898569, 38846170, 8004530, 106866544
87, 2009, 39514418, 20947552, 39240556, 8085932, 107788458
88, 2018, 40037990, 21008782, 39760452, 8194468, 109001692
89, 2027, 40561562, 21070012, 40280348, 8303004, 110214926
90, 2036, 41085134, 21131242, 40800244, 8411540, 111428160
91, 2044, 41608706, 21180230, 41320140, 8520076, 112629152
92, 2051, 42005849, 21229213, 41714526, 8601478, 113551066
93, 2058, 42403149, 21278196, 42109069, 8682880, 114473294
94, 2065, 42800449, 21327179, 42503612, 8764282, 115395522
95, 2072, 43197749, 21376162, 42898155, 8845684, 116317750
96, 2079, 43595049, 21425145, 43292698, 8927086, 117239978
97, 2084, 43865920, 21461881, 43561731, 8981354, 117870886
98, 2089, 44136791, 21498617, 43830764, 9035622, 118501794
99, 2096, 44534091, 21547600, 44225307, 9117024, 119424022
100, 2107, 45184249, 21621077, 44870870, 9252694, 120928890
101, 2156, 45842496, 22159750, 45524522, 9388364, 122915132
102, 3439, 46455883, 37829525, 46135152, 9469766, 139890326
103, 3447, 46853191, 37890750, 46529703, 9551168, 140824812
104, 3454, 47250334, 37939733, 46924089, 9632570, 141746726
105, 3461, 47647477, 37988716, 47318475, 9713972, 142668640
106, 3470, 48171049, 38049946, 47838371, 9822508, 143881874
107, 3477, 48568192, 38098929, 48232757, 9903910, 144803788
108, 3486, 49091764, 38160159, 48752653, 10012446, 146017022
109, 3497, 49741765, 38233636, 49398059, 10148116, 147521576
110, 3513, 50771053, 38331612, 50419995, 10365188, 149887848
111, 3529, 51800341, 38429588, 51441931, 10582260, 152254120
112, 3541, 52576771, 38503070, 52212847, 10745064, 154037752
113, 3549, 53100343, 38552058, 52732743, 10853600, 155238744
114, 3557, 53623915, 38601046, 53252639, 10962136, 156439736
115, 3563, 54021058, 38637787, 53647025, 11043538, 157349408
116, 3569, 54418201, 38674528, 54041411, 11124940, 158259080
117, 3575, 54815344, 38711269, 54435797, 11206342, 159168752
118, 3581, 55212487, 38748010, 54830183, 11287744, 160078424
119, 3588, 55609787, 38796993, 55224726, 11369146, 161000652
120, 3599, 56259945, 38870470, 55870289, 11504816, 162505520
121, 3606, 56657245, 38919453, 56264832, 11586218, 163427748
122, 3613, 57054545, 38968436, 56659375, 11667620, 164349976
123, 3626, 57831132, 39054160, 57430448, 11830424, 166146164
124, 3635, 58354861, 39115390, 57950501, 11938960, 167359712
125, 3756, 59025021, 40535487, 58616066, 12074630, 170251204
126, 3763, 59422164, 40584470, 59010452, 12156032, 171173118
127, 4493, 60070369, 49472182, 59654981, 12264568, 181462100
128, 4500, 60467512, 49521165, 60049367, 12345970, 182384014
129, 4507, 60864655, 49570148, 60443753, 12427372, 183305928
130, 4514, 61261798, 49619131, 60838139, 12508774, 184227842
131, 4521, 61658941, 49668114, 61232525, 12590176, 185149756
132, 4528, 62056084, 49717097, 61626911, 12671578, 186071670
133, 4535, 62453227, 49766080, 62021297, 12752980, 186993584
134, 4542, 62850370, 49815063, 62415683, 12834382, 187915498
135, 4548, 63247513, 49851804, 62810069, 12915784, 188825170
136, 4554, 63644656, 49888545, 63204455, 12997186, 189734842
137, 4560, 64041799, 49925286, 63598841, 13078588, 190644514
138, 4567, 64439099, 49974269, 63993384, 13159990, 191566742
139, 4584, 64964051, 50133435, 64514660, 13268526, 192880672
140, 4591, 65361351, 50182418, 64909203, 13349928, 193802900
141, 4598, 65758651, 50231401, 65303746, 13431330, 194725128
142, 4607, 66282380, 50292631, 65823799, 13539866, 195938676
143, 4622, 67185396, 50390602, 66720382, 13729804, 198026184
144, 4637, 68088412, 50488573, 67616965, 13919742, 200113692
145, 4644, 68485555, 50537556, 68011351, 14001144, 201035606
146, 4689, 68892844, 51051735, 68415883, 14082546, 202443008
147, 4696, 69289987, 51100718, 68810269, 14163948, 203364922
148, 4703, 69687130, 51149701, 69204655, 14245350, 204286836
149, 4710, 70084273, 51198684, 69599041, 14326752, 205208750
150, 4717, 70481416, 51247667, 69993427, 14408154, 206130664
151, 4724, 70878559, 51296650, 70387813, 14489556, 207052578
152, 4731, 71275702, 51345633, 70782199, 14570958, 207974492
153, 4738, 71672845, 51394616, 71176585, 14652360, 208896406
154, 4745, 72069988, 51443599, 71570971, 14733762, 209818320
155, 4751, 72467131, 51480340, 71965357, 14815164, 210727992
156, 4757, 72864274, 51517081, 72359743, 14896566, 211637664
157, 4766, 73387846, 51578311, 72879639, 15005102, 212850898
158, 4773, 73784989, 51627294, 73274025, 15086504, 213772812
159, 4780, 74182132, 51676277, 73668411, 15167906, 214694726
160, 4787, 74579275, 51725260, 74062797, 15249308, 215616640
161, 4794, 74976418, 51774243, 74457183, 15330710, 216538554
162, 4801, 75373561, 51823226, 74851569, 15412112, 217460468
163, 4808, 75770704, 51872209, 75245955, 15493514, 218382382
164, 4815, 76168004, 51921192, 75640498, 15574916, 219304610
165, 4870, 76573832, 52557791, 76043569, 15656318, 220831510
166, 4877, 76971132, 52606774, 76438112, 15737720, 221753738
167, 4884, 77368432, 52655757, 76832655, 15819122, 222675966
168, 4891, 77765732, 52704740, 77227198, 15900524, 223598194
169, 4898, 78163032, 52753723, 77621741, 15981926, 224520422
170, 4905, 78560332, 52802706, 78016284, 16063328, 225442650
171, 4914, 79084061, 52863936, 78536337, 16171864, 226656198
172, 4923, 79607633, 52925166, 79056233, 16280400, 227869432
173, 4959, 80152436, 53316930, 79597360, 16388936, 229455662
174, 4966, 80549579, 53365913, 79991746, 16470338, 230377576
175, 4971, 80820293, 53402649, 80260622, 16524606, 231008170
176, 4976, 81091007, 53439385, 80529498, 16578874, 231638764
177, 4983, 81488150, 53488368, 80923884, 16660276, 232560678
178, 4990, 81885293, 53537351, 81318270, 16741678, 233482592
179, 4999, 82408865, 53598581, 81838166, 16850214, 234695826
180, 5008, 82932437, 53659811, 82358062, 16958750, 235909060
181, 5017, 83456009, 53721041, 82877958, 17067286, 237122294
182, 5023, 83853152, 53757782, 83272344, 17148688, 238031966
183, 5031, 84376724, 53806770, 83792240, 17257224, 239232958
