innerloop, iters, adds, subs, mults, divs, total
1, 3, 144442, 24489, 143523, 27134, 339588
2, 5, 270871, 36736, 269033, 54268, 630908
3, 7, 397300, 48983, 394543, 81402, 922228
4, 9, 523729, 61230, 520053, 108536, 1213548
5, 11, 650158, 73477, 645563, 135670, 1504868
6, 13, 776587, 85724, 771073, 162804, 1796188
7, 16, 920872, 110213, 914439, 189938, 2135462
8, 18, 1047301, 122460, 1039949, 217072, 2426782
9, 20, 1173730, 134707, 1165459, 244206, 2718102
10, 22, 1300159, 146954, 1290969, 271340, 3009422
11, 24, 1426588, 159201, 1416479, 298474, 3300742
12, 103, 1583749, 1114082, 1572721, 325608, 4596160
13, 105, 1710178, 1126329, 1698231, 352742, 4887480
14, 107, 1836607, 1138576, 1823741, 379876, 5178800
15, 109, 1963036, 1150823, 1949251, 407010, 5470120
16, 112, 2107321, 1175312, 2092617, 434144, 5809394
17, 114, 2233750, 1187559, 2218127, 461278, 6100714
18, 117, 2378035, 1212048, 2361493, 488412, 6439988
19, 119, 2504464, 1224295, 2487003, 515546, 6731308
20, 121, 2630893, 1236542, 2612513, 542680, 7022628
21, 124, 2775178, 1261031, 2755879, 569814, 7361902
22, 126, 2901607, 1273278, 2881389, 596948, 7653222
23, 128, 3028036, 1285525, 3006899, 624082, 7944542
24, 131, 3172321, 1310014, 3150265, 651216, 8283816
25, 133, 3298750, 1322261, 3275775, 678350, 8575136
26, 135, 3425179, 1334508, 3401285, 705484, 8866456
27, 137, 3551608, 1346755, 3526795, 732618, 9157776
28, 140, 3695893, 1371244, 3670161, 759752, 9497050
29, 142, 3822322, 1383491, 3795671, 786886, 9788370
30, 144, 3948751, 1395738, 3921181, 814020, 10079690
31, 146, 4093036, 1407985, 4064547, 841154, 10406722
32, 148, 4219465, 1420232, 4190057, 868288, 10698042
33, 150, 4345894, 1432479, 4315567, 895422, 10989362
34, 152, 4472323, 1444726, 4441077, 922556, 11280682
35, 154, 4616608, 1456973, 4584443, 949690, 11607714
36, 156, 4743037, 1469220, 4709953, 976824, 11899034
37, 158, 4869466, 1481467, 4835463, 1003958, 12190354
38, 160, 4995895, 1493714, 4960973, 1031092, 12481674
39, 162, 5122324, 1505961, 5086483, 1058226, 12772994
40, 164, 5266609, 1518208, 5229849, 1085360, 13100026
41, 166, 5393038, 1530455, 5355359, 1112494, 13391346
42, 168, 5519467, 1542702, 5480869, 1139628, 13682666
43, 170, 5645896, 1554949, 5606379, 1166762, 13973986
44, 172, 5772325, 1567196, 5731889, 1193896, 14265306
45, 174, 5916610, 1579443, 5875255, 1221030, 14592338
46, 176, 6043039, 1591690, 6000765, 1248164, 14883658
47, 178, 6169468, 1603937, 6126275, 1275298, 15174978
48, 180, 6295897, 1616184, 6251785, 1302432, 15466298
49, 182, 6440182, 1628431, 6395151, 1329566, 15793330
50, 184, 6566611, 1640678, 6520661, 1356700, 16084650
51, 186, 6693040, 1652925, 6646171, 1383834, 16375970
52, 188, 6819469, 1665172, 6771681, 1410968, 16667290
53, 190, 6963754, 1677419, 6915047, 1438102, 16994322
54, 192, 7090183, 1689666, 7040557, 1465236, 17285642
55, 194, 7216612, 1701913, 7166067, 1492370, 17576962
56, 196, 7360897, 1714160, 7309433, 1519504, 17903994
57, 198, 7487326, 1726407, 7434943, 1546638, 18195314
58, 200, 7613755, 1738654, 7560453, 1573772, 18486634
59, 202, 7758040, 1750901, 7703819, 1600906, 18813666
60, 204, 7884469, 1763148, 7829329, 1628040, 19104986
61, 206, 8010898, 1775395, 7954839, 1655174, 19396306
62, 208, 8137327, 1787642, 8080349, 1682308, 19687626
63, 210, 8281612, 1799889, 8223715, 1709442, 20014658
64, 212, 8408041, 1812136, 8349225, 1736576, 20305978
65, 214, 8534470, 1824383, 8474735, 1763710, 20597298
66, 216, 8660899, 1836630, 8600245, 1790844, 20888618
67, 218, 8805184, 1848877, 8743611, 1817978, 21215650
68, 220, 8931613, 1861124, 8869121, 1845112, 21506970
69, 222, 9058042, 1873371, 8994631, 1872246, 21798290
70, 224, 9202327, 1885618, 9137997, 1899380, 22125322
71, 226, 9328756, 1897865, 9263507, 1926514, 22416642
72, 228, 9455185, 1910112, 9389017, 1953648, 22707962
73, 230, 9599470, 1922359, 9532383, 1980782, 23034994
74, 232, 9725899, 1934606, 9657893, 2007916, 23326314
75, 234, 9852328, 1946853, 9783403, 2035050, 23617634
76, 236, 9996613, 1959100, 9926769, 2062184, 23944666
77, 238, 10123042, 1971347, 10052279, 2089318, 24235986
78, 240, 10249471, 1983594, 10177789, 2116452, 24527306
79, 242, 10393756, 1995841, 10321155, 2143586, 24854338
80, 244, 10520185, 2008088, 10446665, 2170720, 25145658
81, 246, 10646614, 2020335, 10572175, 2197854, 25436978
82, 248, 10790899, 2032582, 10715541, 2224988, 25764010
83, 250, 10917328, 2044829, 10841051, 2252122, 26055330
84, 252, 11043757, 2057076, 10966561, 2279256, 26346650
85, 254, 11188042, 2069323, 11109927, 2306390, 26673682
86, 256, 11314471, 2081570, 11235437, 2333524, 26965002
87, 258, 11440900, 2093817, 11360947, 2360658, 27256322
88, 260, 11585185, 2106064, 11504313, 2387792, 27583354
89, 262, 11711614, 2118311, 11629823, 2414926, 27874674
90, 264, 11838043, 2130558, 11755333, 2442060, 28165994
91, 267, 11982485, 2155047, 11898856, 2469194, 28505582
92, 269, 12108914, 2167294, 12024366, 2496328, 28796902
93, 271, 12235343, 2179541, 12149876, 2523462, 29088222
94, 273, 12361772, 2191788, 12275386, 2550596, 29379542
95, 276, 12506214, 2216277, 12418909, 2577730, 29719130
96, 278, 12632643, 2228524, 12544419, 2604864, 30010450
97, 280, 12759072, 2240771, 12669929, 2631998, 30301770
98, 283, 12903514, 2265260, 12813452, 2659132, 30641358
99, 285, 13029943, 2277507, 12938962, 2686266, 30932678
100, 288, 13174385, 2301996, 13082485, 2713400, 31272266
101, 290, 13300814, 2314243, 13207995, 2740534, 31563586
102, 292, 13427243, 2326490, 13333505, 2767668, 31854906
103, 295, 13571685, 2350979, 13477028, 2794802, 32194494
104, 297, 13698114, 2363226, 13602538, 2821936, 32485814
105, 299, 13824543, 2375473, 13728048, 2849070, 32777134
106, 302, 13968985, 2399962, 13871571, 2876204, 33116722
107, 304, 14095414, 2412209, 13997081, 2903338, 33408042
108, 306, 14221843, 2424456, 14122591, 2930472, 33699362
109, 308, 14348272, 2436703, 14248101, 2957606, 33990682
110, 310, 14474701, 2448950, 14373611, 2984740, 34282002
111, 312, 14601130, 2461197, 14499121, 3011874, 34573322
112, 315, 14745572, 2485686, 14642644, 3039008, 34912910
113, 317, 14872001, 2497933, 14768154, 3066142, 35204230
114, 319, 14998430, 2510180, 14893664, 3093276, 35495550
115, 321, 15124859, 2522427, 15019174, 3120410, 35786870
116, 324, 15269301, 2546916, 15162697, 3147544, 36126458
117, 326, 15395730, 2559163, 15288207, 3174678, 36417778
118, 328, 15522159, 2571410, 15413717, 3201812, 36709098
119, 330, 15648588, 2583657, 15539227, 3228946, 37000418
120, 332, 15775017, 2595904, 15664737, 3256080, 37291738
121, 335, 15919459, 2620393, 15808260, 3283214, 37631326
122, 337, 16045888, 2632640, 15933770, 3310348, 37922646
123, 339, 16172317, 2644887, 16059280, 3337482, 38213966
124, 373, 16322089, 3048878, 16208133, 3364616, 38943716
125, 375, 16448518, 3061125, 16333643, 3391750, 39235036
126, 377, 16574947, 3073372, 16459153, 3418884, 39526356
127, 379, 16701376, 3085619, 16584663, 3446018, 39817676
128, 1417, 17023212, 15780578, 16905580, 3473152, 53182522
129, 1419, 17149641, 15792825, 17031090, 3500286, 53473842
130, 1421, 17276070, 15805072, 17156600, 3527420, 53765162
131, 1424, 17420355, 15829561, 17299966, 3554554, 54104436
132, 1426, 17546784, 15841808, 17425476, 3581688, 54395756
133, 1428, 17673213, 15854055, 17550986, 3608822, 54687076
134, 1431, 17817498, 15878544, 17694352, 3635956, 55026350
135, 1433, 17943927, 15890791, 17819862, 3663090, 55317670
136, 1435, 18070356, 15903038, 17945372, 3690224, 55608990
137, 1438, 18214641, 15927527, 18088738, 3717358, 55948264
138, 1440, 18341070, 15939774, 18214248, 3744492, 56239584
139, 1442, 18467499, 15952021, 18339758, 3771626, 56530904
140, 1445, 18611784, 15976510, 18483124, 3798760, 56870178
141, 1447, 18738213, 15988757, 18608634, 3825894, 57161498
142, 1449, 18864642, 16001004, 18734144, 3853028, 57452818
143, 1452, 19008927, 16025493, 18877510, 3880162, 57792092
144, 1454, 19135356, 16037740, 19003020, 3907296, 58083412
145, 1456, 19261785, 16049987, 19128530, 3934430, 58374732
146, 1459, 19406070, 16074476, 19271896, 3961564, 58714006
147, 1461, 19532499, 16086723, 19397406, 3988698, 59005326
148, 1463, 19658928, 16098970, 19522916, 4015832, 59296646
149, 1466, 19803213, 16123459, 19666282, 4042966, 59635920
150, 1468, 19929642, 16135706, 19791792, 4070100, 59927240
151, 1470, 20056071, 16147953, 19917302, 4097234, 60218560
152, 1473, 20200356, 16172442, 20060668, 4124368, 60557834
153, 1475, 20326785, 16184689, 20186178, 4151502, 60849154
154, 1477, 20453214, 16196936, 20311688, 4178636, 61140474
155, 1480, 20597499, 16221425, 20455054, 4205770, 61479748
156, 1482, 20723928, 16233672, 20580564, 4232904, 61771068
157, 1484, 20850357, 16245919, 20706074, 4260038, 62062388
158, 1487, 20994642, 16270408, 20849440, 4287172, 62401662
159, 1489, 21121071, 16282655, 20974950, 4314306, 62692982
160, 1491, 21247500, 16294902, 21100460, 4341440, 62984302
161, 1494, 21391942, 16319391, 21243983, 4368574, 63323890
162, 1496, 21518371, 16331638, 21369493, 4395708, 63615210
163, 1498, 21644800, 16343885, 21495003, 4422842, 63906530
164, 1500, 21771229, 16356132, 21620513, 4449976, 64197850
165, 1546, 21925573, 16907027, 21773938, 4477110, 65083648
166, 1548, 22052002, 16919274, 21899448, 4504244, 65374968
167, 1550, 22178431, 16931521, 22024958, 4531378, 65666288
168, 1553, 22322873, 16956010, 22168481, 4558512, 66005876
169, 1555, 22449302, 16968257, 22293991, 4585646, 66297196
170, 1557, 22575731, 16980504, 22419501, 4612780, 66588516
171, 1560, 22720173, 17004993, 22563024, 4639914, 66928104
172, 1562, 22846602, 17017240, 22688534, 4667048, 67219424
173, 1564, 22973031, 17029487, 22814044, 4694182, 67510744
174, 1567, 23117473, 17053976, 22957567, 4721316, 67850332
175, 1569, 23243902, 17066223, 23083077, 4748450, 68141652
176, 1571, 23370331, 17078470, 23208587, 4775584, 68432972
177, 1574, 23514773, 17102959, 23352110, 4802718, 68772560
178, 1576, 23641202, 17115206, 23477620, 4829852, 69063880
179, 1578, 23767631, 17127453, 23603130, 4856986, 69355200
180, 1580, 23894060, 17139700, 23728640, 4884120, 69646520
181, 1582, 24020489, 17151947, 23854150, 4911254, 69937840
182, 1584, 24146918, 17164194, 23979660, 4938388, 70229160
183, 1586, 24273347, 17176441, 24105170, 4965522, 70520480
184, 1589, 24417789, 17200930, 24248693, 4992656, 70860068
185, 1591, 24544218, 17213177, 24374203, 5019790, 71151388
186, 1593, 24670647, 17225424, 24499713, 5046924, 71442708
187, 1595, 24797076, 17237671, 24625223, 5074058, 71734028
188, 1597, 24923505, 17249918, 24750733, 5101192, 72025348
189, 1599, 25049934, 17262165, 24876243, 5128326, 72316668
190, 1602, 25194376, 17286654, 25019766, 5155460, 72656256
191, 1604, 25320805, 17298901, 25145276, 5182594, 72947576
192, 1606, 25447234, 17311148, 25270786, 5209728, 73238896
193, 1608, 25573663, 17323395, 25396296, 5236862, 73530216
194, 1610, 25700092, 17335642, 25521806, 5263996, 73821536
195, 1612, 25826521, 17347889, 25647316, 5291130, 74112856
196, 1615, 25970806, 17372378, 25790682, 5318264, 74452130
197, 1617, 26097235, 17384625, 25916192, 5345398, 74743450
198, 1619, 26223664, 17396872, 26041702, 5372532, 75034770
199, 1621, 26350093, 17409119, 26167212, 5399666, 75326090
200, 1647, 26500682, 17715174, 26316882, 5426800, 75959538
201, 1649, 26627111, 17727421, 26442392, 5453934, 76250858
202, 1651, 26753540, 17739668, 26567902, 5481068, 76542178
203, 1654, 26897825, 17764157, 26711268, 5508202, 76881452
204, 1656, 27024254, 17776404, 26836778, 5535336, 77172772
205, 1658, 27150683, 17788651, 26962288, 5562470, 77464092
206, 1661, 27294968, 17813140, 27105654, 5589604, 77803366
207, 1663, 27421397, 17825387, 27231164, 5616738, 78094686
208, 1665, 27547826, 17837634, 27356674, 5643872, 78386006
209, 1668, 27692111, 17862123, 27500040, 5671006, 78725280
210, 1670, 27818540, 17874370, 27625550, 5698140, 79016600
211, 1672, 27944969, 17886617, 27751060, 5725274, 79307920
212, 1675, 28089254, 17911106, 27894426, 5752408, 79647194
213, 1677, 28215683, 17923353, 28019936, 5779542, 79938514
214, 1679, 28342112, 17935600, 28145446, 5806676, 80229834
215, 1682, 28486397, 17960089, 28288812, 5833810, 80569108
216, 1684, 28612826, 17972336, 28414322, 5860944, 80860428
217, 1686, 28739255, 17984583, 28539832, 5888078, 81151748
218, 1689, 28883540, 18009072, 28683198, 5915212, 81491022
219, 1691, 29009969, 18021319, 28808708, 5942346, 81782342
220, 1693, 29136398, 18033566, 28934218, 5969480, 82073662
221, 1696, 29280683, 18058055, 29077584, 5996614, 82412936
222, 1698, 29407112, 18070302, 29203094, 6023748, 82704256
223, 1700, 29533541, 18082549, 29328604, 6050882, 82995576
224, 1703, 29677826, 18107038, 29471970, 6078016, 83334850
225, 1705, 29804255, 18119285, 29597480, 6105150, 83626170
226, 1707, 29930684, 18131532, 29722990, 6132284, 83917490
227, 1710, 30074969, 18156021, 29866356, 6159418, 84256764
228, 1712, 30201398, 18168268, 29991866, 6186552, 84548084
229, 1714, 30327827, 18180515, 30117376, 6213686, 84839404
230, 1716, 30454256, 18192762, 30242886, 6240820, 85130724
231, 1719, 30598541, 18217251, 30386252, 6267954, 85469998
232, 1721, 30724970, 18229498, 30511762, 6295088, 85761318
233, 1723, 30851399, 18241745, 30637272, 6322222, 86052638
234, 1725, 30977828, 18253992, 30762782, 6349356, 86343958
235, 1728, 31122113, 18278481, 30906148, 6376490, 86683232
236, 1730, 31248542, 18290728, 31031658, 6403624, 86974552
237, 1732, 31374971, 18302975, 31157168, 6430758, 87265872
238, 1735, 31519256, 18327464, 31300534, 6457892, 87605146
239, 1737, 31645685, 18339711, 31426044, 6485026, 87896466
240, 1739, 31772114, 18351958, 31551554, 6512160, 88187786
241, 1742, 31916399, 18376447, 31694920, 6539294, 88527060
242, 1744, 32042828, 18388694, 31820430, 6566428, 88818380
243, 1746, 32169257, 18400941, 31945940, 6593562, 89109700
244, 1749, 32313542, 18425430, 32089306, 6620696, 89448974
245, 1751, 32439971, 18437677, 32214816, 6647830, 89740294
246, 1753, 32566400, 18449924, 32340326, 6674964, 90031614
247, 1756, 32710685, 18474413, 32483692, 6702098, 90370888
248, 1758, 32837114, 18486660, 32609202, 6729232, 90662208
249, 1760, 32963543, 18498907, 32734712, 6756366, 90953528
250, 1763, 33107828, 18523396, 32878078, 6783500, 91292802
251, 1765, 33234257, 18535643, 33003588, 6810634, 91584122
252, 1767, 33360686, 18547890, 33129098, 6837768, 91875442
253, 1770, 33505128, 18572379, 33272621, 6864902, 92215030
254, 1772, 33631557, 18584626, 33398131, 6892036, 92506350
255, 1774, 33757986, 18596873, 33523641, 6919170, 92797670
256, 1829, 33913856, 19257946, 33678592, 6946304, 93796698
257, 1831, 34040285, 19270193, 33804102, 6973438, 94088018
258, 1833, 34166714, 19282440, 33929612, 7000572, 94379338
259, 1839, 34311662, 19343655, 34073641, 7027706, 94756664
260, 1841, 34438091, 19355902, 34199151, 7054840, 95047984
261, 1843, 34564520, 19368149, 34324661, 7081974, 95339304
262, 1846, 34708962, 19392638, 34468184, 7109108, 95678892
263, 1848, 34835391, 19404885, 34593694, 7136242, 95970212
264, 1850, 34961820, 19417132, 34719204, 7163376, 96261532
265, 1853, 35106262, 19441621, 34862727, 7190510, 96601120
266, 1855, 35232691, 19453868, 34988237, 7217644, 96892440
267, 1857, 35359120, 19466115, 35113747, 7244778, 97183760
268, 1860, 35503562, 19490604, 35257270, 7271912, 97523348
269, 1862, 35629991, 19502851, 35382780, 7299046, 97814668
270, 1864, 35756420, 19515098, 35508290, 7326180, 98105988
271, 1867, 35900862, 19539587, 35651813, 7353314, 98445576
272, 1869, 36027291, 19551834, 35777323, 7380448, 98736896
273, 1871, 36153720, 19564081, 35902833, 7407582, 99028216
274, 1873, 36280149, 19576328, 36028343, 7434716, 99319536
275, 1876, 36424591, 19600817, 36171866, 7461850, 99659124
276, 1878, 36551020, 19613064, 36297376, 7488984, 99950444
277, 1880, 36677449, 19625311, 36422886, 7516118, 100241764
278, 1882, 36803878, 19637558, 36548396, 7543252, 100533084
279, 1884, 36930307, 19649805, 36673906, 7570386, 100824404
280, 1887, 37074592, 19674294, 36817272, 7597520, 101163678
281, 1889, 37201021, 19686541, 36942782, 7624654, 101454998
282, 1891, 37327450, 19698788, 37068292, 7651788, 101746318
283, 1893, 37453879, 19711035, 37193802, 7678922, 102037638
284, 1976, 37655132, 20714884, 37394136, 7706056, 103470208
285, 1978, 37781561, 20727131, 37519646, 7733190, 103761528
286, 1980, 37907990, 20739378, 37645156, 7760324, 104052848
287, 1983, 38052275, 20763867, 37788522, 7787458, 104392122
288, 1985, 38178704, 20776114, 37914032, 7814592, 104683442
289, 1988, 38322989, 20800603, 38057398, 7841726, 105022716
290, 1990, 38449418, 20812850, 38182908, 7868860, 105314036
291, 1992, 38575847, 20825097, 38308418, 7895994, 105605356
292, 1995, 38720132, 20849586, 38451784, 7923128, 105944630
293, 1997, 38846561, 20861833, 38577294, 7950262, 106235950
294, 1999, 38972990, 20874080, 38702804, 7977396, 106527270
295, 2002, 39117275, 20898569, 38846170, 8004530, 106866544
296, 2004, 39243704, 20910816, 38971680, 8031664, 107157864
297, 2006, 39370133, 20923063, 39097190, 8058798, 107449184
298, 2009, 39514418, 20947552, 39240556, 8085932, 107788458
299, 2011, 39640847, 20959799, 39366066, 8113066, 108079778
300, 2013, 39767276, 20972046, 39491576, 8140200, 108371098
301, 2015, 39893705, 20984293, 39617086, 8167334, 108662418
302, 2018, 40037990, 21008782, 39760452, 8194468, 109001692
303, 2020, 40164419, 21021029, 39885962, 8221602, 109293012
304, 2022, 40290848, 21033276, 40011472, 8248736, 109584332
305, 2024, 40417277, 21045523, 40136982, 8275870, 109875652
306, 2027, 40561562, 21070012, 40280348, 8303004, 110214926
307, 2029, 40687991, 21082259, 40405858, 8330138, 110506246
308, 2031, 40814420, 21094506, 40531368, 8357272, 110797566
309, 2033, 40940849, 21106753, 40656878, 8384406, 111088886
310, 2036, 41085134, 21131242, 40800244, 8411540, 111428160
311, 2038, 41211563, 21143489, 40925754, 8438674, 111719480
312, 2040, 41337992, 21155736, 41051264, 8465808, 112010800
313, 2042, 41464421, 21167983, 41176774, 8492942, 112302120
314, 2044, 41608706, 21180230, 41320140, 8520076, 112629152
315, 2046, 41735135, 21192477, 41445650, 8547210, 112920472
316, 2048, 41861564, 21204724, 41571160, 8574344, 113211792
317, 2051, 42005849, 21229213, 41714526, 8601478, 113551066
318, 2053, 42132278, 21241460, 41840036, 8628612, 113842386
319, 2055, 42258707, 21253707, 41965546, 8655746, 114133706
320, 2058, 42403149, 21278196, 42109069, 8682880, 114473294
321, 2060, 42529578, 21290443, 42234579, 8710014, 114764614
322, 2062, 42656007, 21302690, 42360089, 8737148, 115055934
323, 2065, 42800449, 21327179, 42503612, 8764282, 115395522
324, 2067, 42926878, 21339426, 42629122, 8791416, 115686842
325, 2069, 43053307, 21351673, 42754632, 8818550, 115978162
326, 2072, 43197749, 21376162, 42898155, 8845684, 116317750
327, 2074, 43324178, 21388409, 43023665, 8872818, 116609070
328, 2076, 43450607, 21400656, 43149175, 8899952, 116900390
329, 2079, 43595049, 21425145, 43292698, 8927086, 117239978
330, 2081, 43721478, 21437392, 43418208, 8954220, 117531298
331, 2084, 43865920, 21461881, 43561731, 8981354, 117870886
332, 2086, 43992349, 21474128, 43687241, 9008488, 118162206
333, 2089, 44136791, 21498617, 43830764, 9035622, 118501794
334, 2091, 44263220, 21510864, 43956274, 9062756, 118793114
335, 2093, 44389649, 21523111, 44081784, 9089890, 119084434
336, 2096, 44534091, 21547600, 44225307, 9117024, 119424022
337, 2098, 44660520, 21559847, 44350817, 9144158, 119715342
338, 2100, 44786949, 21572094, 44476327, 9171292, 120006662
339, 2102, 44913378, 21584341, 44601837, 9198426, 120297982
340, 2104, 45039807, 21596588, 44727347, 9225560, 120589302
341, 2107, 45184249, 21621077, 44870870, 9252694, 120928890
342, 2109, 45310678, 21633324, 44996380, 9279828, 121220210
343, 2111, 45437107, 21645571, 45121890, 9306962, 121511530
344, 2113, 45563536, 21657818, 45247400, 9334096, 121802850
345, 2115, 45689965, 21670065, 45372910, 9361230, 122094170
346, 2156, 45842496, 22159750, 45524522, 9388364, 122915132
347, 2158, 45968925, 22171997, 45650032, 9415498, 123206452
348, 2160, 46095354, 22184244, 45775542, 9442632, 123497772
349, 3439, 46455883, 37829525, 46135152, 9469766, 139890326
350, 3441, 46582312, 37841772, 46260662, 9496900, 140181646
351, 3443, 46708741, 37854019, 46386172, 9524034, 140472966
352, 3447, 46853191, 37890750, 46529703, 9551168, 140824812
353, 3449, 46979620, 37902997, 46655213, 9578302, 141116132
354, 3451, 47106049, 37915244, 46780723, 9605436, 141407452
355, 3454, 47250334, 37939733, 46924089, 9632570, 141746726
356, 3456, 47376763, 37951980, 47049599, 9659704, 142038046
357, 3458, 47503192, 37964227, 47175109, 9686838, 142329366
358, 3461, 47647477, 37988716, 47318475, 9713972, 142668640
359, 3463, 47773906, 38000963, 47443985, 9741106, 142959960
360, 3465, 47900335, 38013210, 47569495, 9768240, 143251280
361, 3467, 48026764, 38025457, 47695005, 9795374, 143542600
362, 3470, 48171049, 38049946, 47838371, 9822508, 143881874
363, 3472, 48297478, 38062193, 47963881, 9849642, 144173194
364, 3474, 48423907, 38074440, 48089391, 9876776, 144464514
365, 3477, 48568192, 38098929, 48232757, 9903910, 144803788
366, 3479, 48694621, 38111176, 48358267, 9931044, 145095108
367, 3481, 48821050, 38123423, 48483777, 9958178, 145386428
368, 3483, 48947479, 38135670, 48609287, 9985312, 145677748
369, 3486, 49091764, 38160159, 48752653, 10012446, 146017022
370, 3488, 49218193, 38172406, 48878163, 10039580, 146308342
371, 3490, 49344622, 38184653, 49003673, 10066714, 146599662
372, 3492, 49471051, 38196900, 49129183, 10093848, 146890982
373, 3494, 49597480, 38209147, 49254693, 10120982, 147182302
374, 3497, 49741765, 38233636, 49398059, 10148116, 147521576
375, 3499, 49868194, 38245883, 49523569, 10175250, 147812896
376, 3501, 49994623, 38258130, 49649079, 10202384, 148104216
377, 3503, 50121052, 38270377, 49774589, 10229518, 148395536
378, 3505, 50247481, 38282624, 49900099, 10256652, 148686856
379, 3507, 50373910, 38294871, 50025609, 10283786, 148978176
380, 3509, 50500339, 38307118, 50151119, 10310920, 149269496
381, 3511, 50626768, 38319365, 50276629, 10338054, 149560816
382, 3513, 50771053, 38331612, 50419995, 10365188, 149887848
383, 3515, 50897482, 38343859, 50545505, 10392322, 150179168
384, 3517, 51023911, 38356106, 50671015, 10419456, 150470488
385, 3519, 51150340, 38368353, 50796525, 10446590, 150761808
386, 3521, 51276769, 38380600, 50922035, 10473724, 151053128
387, 3523, 51403198, 38392847, 51047545, 10500858, 151344448
388, 3525, 51529627, 38405094, 51173055, 10527992, 151635768
389, 3527, 51656056, 38417341, 51298565, 10555126, 151927088
390, 3529, 51800341, 38429588, 51441931, 10582260, 152254120
391, 3531, 51926770, 38441835, 51567441, 10609394, 152545440
392, 3533, 52053199, 38454082, 51692951, 10636528, 152836760
393, 3535, 52179628, 38466329, 51818461, 10663662, 153128080
394, 3537, 52306057, 38478576, 51943971, 10690796, 153419400
395, 3539, 52432486, 38490823, 52069481, 10717930, 153710720
396, 3541, 52576771, 38503070, 52212847, 10745064, 154037752
397, 3543, 52703200, 38515317, 52338357, 10772198, 154329072
398, 3545, 52829629, 38527564, 52463867, 10799332, 154620392
399, 3547, 52956058, 38539811, 52589377, 10826466, 154911712
400, 3549, 53100343, 38552058, 52732743, 10853600, 155238744
401, 3551, 53226772, 38564305, 52858253, 10880734, 155530064
402, 3553, 53353201, 38576552, 52983763, 10907868, 155821384
403, 3555, 53479630, 38588799, 53109273, 10935002, 156112704
404, 3557, 53623915, 38601046, 53252639, 10962136, 156439736
405, 3559, 53750344, 38613293, 53378149, 10989270, 156731056
406, 3561, 53876773, 38625540, 53503659, 11016404, 157022376
407, 3563, 54021058, 38637787, 53647025, 11043538, 157349408
408, 3565, 54147487, 38650034, 53772535, 11070672, 157640728
409, 3567, 54273916, 38662281, 53898045, 11097806, 157932048
410, 3569, 54418201, 38674528, 54041411, 11124940, 158259080
411, 3571, 54544630, 38686775, 54166921, 11152074, 158550400
412, 3573, 54671059, 38699022, 54292431, 11179208, 158841720
413, 3575, 54815344, 38711269, 54435797, 11206342, 159168752
414, 3577, 54941773, 38723516, 54561307, 11233476, 159460072
415, 3579, 55068202, 38735763, 54686817, 11260610, 159751392
416, 3581, 55212487, 38748010, 54830183, 11287744, 160078424
417, 3583, 55338916, 38760257, 54955693, 11314878, 160369744
418, 3585, 55465345, 38772504, 55081203, 11342012, 160661064
419, 3588, 55609787, 38796993, 55224726, 11369146, 161000652
420, 3590, 55736216, 38809240, 55350236, 11396280, 161291972
421, 3592, 55862645, 38821487, 55475746, 11423414, 161583292
422, 3594, 55989074, 38833734, 55601256, 11450548, 161874612
423, 3596, 56115503, 38845981, 55726766, 11477682, 162165932
424, 3599, 56259945, 38870470, 55870289, 11504816, 162505520
425, 3601, 56386374, 38882717, 55995799, 11531950, 162796840
426, 3603, 56512803, 38894964, 56121309, 11559084, 163088160
427, 3606, 56657245, 38919453, 56264832, 11586218, 163427748
428, 3608, 56783674, 38931700, 56390342, 11613352, 163719068
429, 3610, 56910103, 38943947, 56515852, 11640486, 164010388
430, 3613, 57054545, 38968436, 56659375, 11667620, 164349976
431, 3615, 57180974, 38980683, 56784885, 11694754, 164641296
432, 3617, 57307403, 38992930, 56910395, 11721888, 164932616
433, 3619, 57433832, 39005177, 57035905, 11749022, 165223936
434, 3621, 57560261, 39017424, 57161415, 11776156, 165515256
435, 3623, 57686690, 39029671, 57286925, 11803290, 165806576
436, 3626, 57831132, 39054160, 57430448, 11830424, 166146164
437, 3628, 57957561, 39066407, 57555958, 11857558, 166437484
438, 3630, 58083990, 39078654, 57681468, 11884692, 166728804
439, 3632, 58210419, 39090901, 57806978, 11911826, 167020124
440, 3635, 58354861, 39115390, 57950501, 11938960, 167359712
441, 3637, 58481290, 39127637, 58076011, 11966094, 167651032
442, 3639, 58607719, 39139884, 58201521, 11993228, 167942352
443, 3641, 58734148, 39152131, 58327031, 12020362, 168233672
444, 3643, 58860577, 39164378, 58452541, 12047496, 168524992
445, 3756, 59025021, 40535487, 58616066, 12074630, 170251204
446, 3758, 59151450, 40547734, 58741576, 12101764, 170542524
447, 3760, 59277879, 40559981, 58867086, 12128898, 170833844
448, 3763, 59422164, 40584470, 59010452, 12156032, 171173118
449, 3765, 59548593, 40596717, 59135962, 12183166, 171464438
450, 3767, 59675022, 40608964, 59261472, 12210300, 171755758
451, 3769, 59801451, 40621211, 59386982, 12237434, 172047078
452, 4493, 60070369, 49472182, 59654981, 12264568, 181462100
453, 4495, 60196798, 49484429, 59780491, 12291702, 181753420
454, 4497, 60323227, 49496676, 59906001, 12318836, 182044740
455, 4500, 60467512, 49521165, 60049367, 12345970, 182384014
456, 4502, 60593941, 49533412, 60174877, 12373104, 182675334
457, 4504, 60720370, 49545659, 60300387, 12400238, 182966654
458, 4507, 60864655, 49570148, 60443753, 12427372, 183305928
459, 4509, 60991084, 49582395, 60569263, 12454506, 183597248
460, 4511, 61117513, 49594642, 60694773, 12481640, 183888568
461, 4514, 61261798, 49619131, 60838139, 12508774, 184227842
462, 4516, 61388227, 49631378, 60963649, 12535908, 184519162
463, 4518, 61514656, 49643625, 61089159, 12563042, 184810482
464, 4521, 61658941, 49668114, 61232525, 12590176, 185149756
465, 4523, 61785370, 49680361, 61358035, 12617310, 185441076
466, 4525, 61911799, 49692608, 61483545, 12644444, 185732396
467, 4528, 62056084, 49717097, 61626911, 12671578, 186071670
468, 4530, 62182513, 49729344, 61752421, 12698712, 186362990
469, 4532, 62308942, 49741591, 61877931, 12725846, 186654310
470, 4535, 62453227, 49766080, 62021297, 12752980, 186993584
471, 4537, 62579656, 49778327, 62146807, 12780114, 187284904
472, 4539, 62706085, 49790574, 62272317, 12807248, 187576224
473, 4542, 62850370, 49815063, 62415683, 12834382, 187915498
474, 4544, 62976799, 49827310, 62541193, 12861516, 188206818
475, 4546, 63103228, 49839557, 62666703, 12888650, 188498138
476, 4548, 63247513, 49851804, 62810069, 12915784, 188825170
477, 4550, 63373942, 49864051, 62935579, 12942918, 189116490
478, 4552, 63500371, 49876298, 63061089, 12970052, 189407810
479, 4554, 63644656, 49888545, 63204455, 12997186, 189734842
480, 4556, 63771085, 49900792, 63329965, 13024320, 190026162
481, 4558, 63897514, 49913039, 63455475, 13051454, 190317482
482, 4560, 64041799, 49925286, 63598841, 13078588, 190644514
483, 4562, 64168228, 49937533, 63724351, 13105722, 190935834
484, 4564, 64294657, 49949780, 63849861, 13132856, 191227154
485, 4567, 64439099, 49974269, 63993384, 13159990, 191566742
486, 4569, 64565528, 49986516, 64118894, 13187124, 191858062
487, 4571, 64691957, 49998763, 64244404, 13214258, 192149382
488, 4573, 64818386, 50011010, 64369914, 13241392, 192440702
489, 4584, 64964051, 50133435, 64514660, 13268526, 192880672
490, 4586, 65090480, 50145682, 64640170, 13295660, 193171992
491, 4588, 65216909, 50157929, 64765680, 13322794, 193463312
492, 4591, 65361351, 50182418, 64909203, 13349928, 193802900
493, 4593, 65487780, 50194665, 65034713, 13377062, 194094220
494, 4595, 65614209, 50206912, 65160223, 13404196, 194385540
495, 4598, 65758651, 50231401, 65303746, 13431330, 194725128
496, 4600, 65885080, 50243648, 65429256, 13458464, 195016448
497, 4602, 66011509, 50255895, 65554766, 13485598, 195307768
498, 4604, 66137938, 50268142, 65680276, 13512732, 195599088
499, 4607, 66282380, 50292631, 65823799, 13539866, 195938676
500, 4609, 66408809, 50304878, 65949309, 13567000, 196229996
501, 4611, 66535238, 50317125, 66074819, 13594134, 196521316
502, 4613, 66661667, 50329372, 66200329, 13621268, 196812636
503, 4615, 66788096, 50341619, 66325839, 13648402, 197103956
504, 4617, 66914525, 50353866, 66451349, 13675536, 197395276
505, 4619, 67040954, 50366113, 66576859, 13702670, 197686596
506, 4622, 67185396, 50390602, 66720382, 13729804, 198026184
507, 4624, 67311825, 50402849, 66845892, 13756938, 198317504
508, 4626, 67438254, 50415096, 66971402, 13784072, 198608824
509, 4628, 67564683, 50427343, 67096912, 13811206, 198900144
510, 4630, 67691112, 50439590, 67222422, 13838340, 199191464
511, 4632, 67817541, 50451837, 67347932, 13865474, 199482784
512, 4634, 67943970, 50464084, 67473442, 13892608, 199774104
513, 4637, 68088412, 50488573, 67616965, 13919742, 200113692
514, 4639, 68214841, 50500820, 67742475, 13946876, 200405012
515, 4641, 68341270, 50513067, 67867985, 13974010, 200696332
516, 4644, 68485555, 50537556, 68011351, 14001144, 201035606
517, 4646, 68611984, 50549803, 68136861, 14028278, 201326926
518, 4648, 68738413, 50562050, 68262371, 14055412, 201618246
519, 4689, 68892844, 51051735, 68415883, 14082546, 202443008
520, 4691, 69019273, 51063982, 68541393, 14109680, 202734328
521, 4693, 69145702, 51076229, 68666903, 14136814, 203025648
522, 4696, 69289987, 51100718, 68810269, 14163948, 203364922
523, 4698, 69416416, 51112965, 68935779, 14191082, 203656242
524, 4700, 69542845, 51125212, 69061289, 14218216, 203947562
525, 4703, 69687130, 51149701, 69204655, 14245350, 204286836
526, 4705, 69813559, 51161948, 69330165, 14272484, 204578156
527, 4707, 69939988, 51174195, 69455675, 14299618, 204869476
528, 4710, 70084273, 51198684, 69599041, 14326752, 205208750
529, 4712, 70210702, 51210931, 69724551, 14353886, 205500070
530, 4714, 70337131, 51223178, 69850061, 14381020, 205791390
531, 4717, 70481416, 51247667, 69993427, 14408154, 206130664
532, 4719, 70607845, 51259914, 70118937, 14435288, 206421984
533, 4721, 70734274, 51272161, 70244447, 14462422, 206713304
534, 4724, 70878559, 51296650, 70387813, 14489556, 207052578
535, 4726, 71004988, 51308897, 70513323, 14516690, 207343898
536, 4728, 71131417, 51321144, 70638833, 14543824, 207635218
537, 4731, 71275702, 51345633, 70782199, 14570958, 207974492
538, 4733, 71402131, 51357880, 70907709, 14598092, 208265812
539, 4735, 71528560, 51370127, 71033219, 14625226, 208557132
540, 4738, 71672845, 51394616, 71176585, 14652360, 208896406
541, 4740, 71799274, 51406863, 71302095, 14679494, 209187726
542, 4742, 71925703, 51419110, 71427605, 14706628, 209479046
543, 4745, 72069988, 51443599, 71570971, 14733762, 209818320
544, 4747, 72196417, 51455846, 71696481, 14760896, 210109640
545, 4749, 72322846, 51468093, 71821991, 14788030, 210400960
546, 4751, 72467131, 51480340, 71965357, 14815164, 210727992
547, 4753, 72593560, 51492587, 72090867, 14842298, 211019312
548, 4755, 72719989, 51504834, 72216377, 14869432, 211310632
549, 4757, 72864274, 51517081, 72359743, 14896566, 211637664
550, 4759, 72990703, 51529328, 72485253, 14923700, 211928984
551, 4761, 73117132, 51541575, 72610763, 14950834, 212220304
552, 4763, 73243561, 51553822, 72736273, 14977968, 212511624
553, 4766, 73387846, 51578311, 72879639, 15005102, 212850898
554, 4768, 73514275, 51590558, 73005149, 15032236, 213142218
555, 4770, 73640704, 51602805, 73130659, 15059370, 213433538
556, 4773, 73784989, 51627294, 73274025, 15086504, 213772812
557, 4775, 73911418, 51639541, 73399535, 15113638, 214064132
558, 4777, 74037847, 51651788, 73525045, 15140772, 214355452
559, 4780, 74182132, 51676277, 73668411, 15167906, 214694726
560, 4782, 74308561, 51688524, 73793921, 15195040, 214986046
561, 4784, 74434990, 51700771, 73919431, 15222174, 215277366
562, 4787, 74579275, 51725260, 74062797, 15249308, 215616640
563, 4789, 74705704, 51737507, 74188307, 15276442, 215907960
564, 4791, 74832133, 51749754, 74313817, 15303576, 216199280
565, 4794, 74976418, 51774243, 74457183, 15330710, 216538554
566, 4796, 75102847, 51786490, 74582693, 15357844, 216829874
567, 4798, 75229276, 51798737, 74708203, 15384978, 217121194
568, 4801, 75373561, 51823226, 74851569, 15412112, 217460468
569, 4803, 75499990, 51835473, 74977079, 15439246, 217751788
570, 4805, 75626419, 51847720, 75102589, 15466380, 218043108
571, 4808, 75770704, 51872209, 75245955, 15493514, 218382382
572, 4810, 75897133, 51884456, 75371465, 15520648, 218673702
573, 4812, 76023562, 51896703, 75496975, 15547782, 218965022
574, 4815, 76168004, 51921192, 75640498, 15574916, 219304610
575, 4817, 76294433, 51933439, 75766008, 15602050, 219595930
576, 4819, 76420862, 51945686, 75891518, 15629184, 219887250
577, 4870, 76573832, 52557791, 76043569, 15656318, 220831510
578, 4872, 76700261, 52570038, 76169079, 15683452, 221122830
579, 4874, 76826690, 52582285, 76294589, 15710586, 221414150
580, 4877, 76971132, 52606774, 76438112, 15737720, 221753738
581, 4879, 77097561, 52619021, 76563622, 15764854, 222045058
582, 4881, 77223990, 52631268, 76689132, 15791988, 222336378
583, 4884, 77368432, 52655757, 76832655, 15819122, 222675966
584, 4886, 77494861, 52668004, 76958165, 15846256, 222967286
585, 4888, 77621290, 52680251, 77083675, 15873390, 223258606
586, 4891, 77765732, 52704740, 77227198, 15900524, 223598194
587, 4893, 77892161, 52716987, 77352708, 15927658, 223889514
588, 4895, 78018590, 52729234, 77478218, 15954792, 224180834
589, 4898, 78163032, 52753723, 77621741, 15981926, 224520422
590, 4900, 78289461, 52765970, 77747251, 16009060, 224811742
591, 4902, 78415890, 52778217, 77872761, 16036194, 225103062
592, 4905, 78560332, 52802706, 78016284, 16063328, 225442650
593, 4907, 78686761, 52814953, 78141794, 16090462, 225733970
594, 4909, 78813190, 52827200, 78267304, 16117596, 226025290
595, 4911, 78939619, 52839447, 78392814, 16144730, 226316610
596, 4914, 79084061, 52863936, 78536337, 16171864, 226656198
597, 4916, 79210490, 52876183, 78661847, 16198998, 226947518
598, 4918, 79336919, 52888430, 78787357, 16226132, 227238838
599, 4920, 79463348, 52900677, 78912867, 16253266, 227530158
600, 4923, 79607633, 52925166, 79056233, 16280400, 227869432
601, 4925, 79734062, 52937413, 79181743, 16307534, 228160752
602, 4927, 79860491, 52949660, 79307253, 16334668, 228452072
603, 4929, 79986920, 52961907, 79432763, 16361802, 228743392
604, 4959, 80152436, 53316930, 79597360, 16388936, 229455662
605, 4961, 80278865, 53329177, 79722870, 16416070, 229746982
606, 4963, 80405294, 53341424, 79848380, 16443204, 230038302
607, 4966, 80549579, 53365913, 79991746, 16470338, 230377576
608, 4968, 80676008, 53378160, 80117256, 16497472, 230668896
609, 4971, 80820293, 53402649, 80260622, 16524606, 231008170
610, 4973, 80946722, 53414896, 80386132, 16551740, 231299490
611, 4976, 81091007, 53439385, 80529498, 16578874, 231638764
612, 4978, 81217436, 53451632, 80655008, 16606008, 231930084
613, 4980, 81343865, 53463879, 80780518, 16633142, 232221404
614, 4983, 81488150, 53488368, 80923884, 16660276, 232560678
615, 4985, 81614579, 53500615, 81049394, 16687410, 232851998
616, 4987, 81741008, 53512862, 81174904, 16714544, 233143318
617, 4990, 81885293, 53537351, 81318270, 16741678, 233482592
618, 4992, 82011722, 53549598, 81443780, 16768812, 233773912
619, 4994, 82138151, 53561845, 81569290, 16795946, 234065232
620, 4996, 82264580, 53574092, 81694800, 16823080, 234356552
621, 4999, 82408865, 53598581, 81838166, 16850214, 234695826
622, 5001, 82535294, 53610828, 81963676, 16877348, 234987146
623, 5003, 82661723, 53623075, 82089186, 16904482, 235278466
624, 5005, 82788152, 53635322, 82214696, 16931616, 235569786
625, 5008, 82932437, 53659811, 82358062, 16958750, 235909060
626, 5010, 83058866, 53672058, 82483572, 16985884, 236200380
627, 5012, 83185295, 53684305, 82609082, 17013018, 236491700
628, 5014, 83311724, 53696552, 82734592, 17040152, 236783020
629, 5017, 83456009, 53721041, 82877958, 17067286, 237122294
630, 5019, 83582438, 53733288, 83003468, 17094420, 237413614
631, 5021, 83708867, 53745535, 83128978, 17121554, 237704934
632, 5023, 83853152, 53757782, 83272344, 17148688, 238031966
633, 5025, 83979581, 53770029, 83397854, 17175822, 238323286
634, 5027, 84106010, 53782276, 83523364, 17202956, 238614606
635, 5029, 84232439, 53794523, 83648874, 17230090, 238905926
636, 5031, 84376724, 53806770, 83792240, 17257224, 239232958
637, 5033, 84503153, 53819017, 83917750, 17284358, 239524278
638, 5035, 84629582, 53831264, 84043260, 17311492, 239815598
