innerloop, iters, adds, subs, mults, divs, total
1, 3, 8, 12, 2, 2, 24
2, 2, 6, 7, 0, 2, 15
3, 2, 8, 7, 2, 2, 19
4, 2, 6, 7, 0, 2, 15
5, 2, 8, 7, 2, 2, 19
6, 2, 6, 7, 0, 2, 15
7, 2, 8, 7, 2, 2, 19
8, 2, 6, 7, 0, 2, 15
9, 2, 8, 7, 2, 2, 19
10, 2, 6, 7, 0, 2, 15
11, 2, 8, 7, 2, 2, 19
12, 2, 6, 7, 0, 2, 15
13, 2, 8, 7, 2, 2, 19
14, 2, 6, 7, 0, 2, 15
15, 2, 8, 7, 2, 2, 19
16, 2, 6, 7, 0, 2, 15
17, 2, 8, 7, 2, 2, 19
18, 2, 6, 7, 0, 2, 15
19, 2, 8, 7, 2, 2, 19
20, 2, 6, 7, 0, 2, 15
21, 2, 8, 7, 2, 2, 19
22, 2, 6, 7, 0, 2, 15
23, 2, 8, 7, 2, 2, 19
24, 2, 6, 7, 0, 2, 15
25, 2, 8, 7, 2, 2, 19
26, 2, 6, 7, 0, 2, 15
27, 2, 8, 7, 2, 2, 19
28, 2, 6, 7, 0, 2, 15
29, 2, 8, 7, 2, 2, 19
30, 2, 6, 7, 0, 2, 15
31, 2, 8, 7, 2, 2, 19
32, 2, 6, 7, 0, 2, 15
33, 3, 8, 12, 2, 2, 24
34, 2, 6, 7, 0, 2, 15
35, 3, 9, 12, 3, 2, 26
36, 2, 6, 7, 0, 2, 15
37, 3, 9, 12, 3, 2, 26
38, 2, 6, 7, 0, 2, 15
39, 3, 9, 12, 3, 2, 26
40, 2, 6, 7, 0, 2, 15
41, 3, 9, 12, 3, 2, 26
42, 2, 6, 7, 0, 2, 15
43, 2, 6, 7, 0, 2, 15
44, 2, 8, 7, 2, 2, 19
45, 2, 6, 7, 0, 2, 15
46, 2, 8, 7, 2, 2, 19
47, 2, 6, 7, 0, 2, 15
48, 2, 8, 7, 2, 2, 19
49, 2, 6, 7, 0, 2, 15
50, 2, 8, 7, 2, 2, 19
51, 2, 6, 7, 0, 2, 15
52, 2, 8, 7, 2, 2, 19
53, 2, 6, 7, 0, 2, 15
54, 2, 8, 7, 2, 2, 19
55, 2, 6, 7, 0, 2, 15
56, 2, 8, 7, 2, 2, 19
57, 2, 6, 7, 0, 2, 15
58, 2, 8, 7, 2, 2, 19
59, 2, 6, 7, 0, 2, 15
60, 2, 8, 7, 2, 2, 19
61, 2, 6, 7, 0, 2, 15
62, 2, 8, 7, 2, 2, 19
63, 2, 6, 7, 0, 2, 15
64, 2, 8, 7, 2, 2, 19
65, 2, 6, 7, 0, 2, 15
66, 2, 8, 7, 2, 2, 19
67, 2, 6, 7, 0, 2, 15
68, 2, 8, 7, 2, 2, 19
69, 2, 6, 7, 0, 2, 15
70, 2, 8, 7, 2, 2, 19
71, 2, 6, 7, 0, 2, 15
72, 2, 8, 7, 2, 2, 19
73, 2, 6, 7, 0, 2, 15
74, 2, 8, 7, 2, 2, 19
75, 2, 6, 7, 0, 2, 15
76, 2, 8, 7, 2, 2, 19
77, 2, 6, 7, 0, 2, 15
78, 2, 8, 7, 2, 2, 19
79, 2, 6, 7, 0, 2, 15
80, 2, 8, 7, 2, 2, 19
81, 2, 6, 7, 0, 2, 15
82, 2, 8, 7, 2, 2, 19
83, 2, 6, 7, 0, 2, 15
84, 2, 8, 7, 2, 2, 19
85, 2, 6, 7, 0, 2, 15
86, 2, 8, 7, 2, 2, 19
87, 2, 6, 7, 0, 2, 15
88, 2, 8, 7, 2, 2, 19
89, 2, 6, 7, 0, 2, 15
90, 2, 8, 7, 2, 2, 19
91, 2, 6, 7, 0, 2, 15
92, 2, 8, 7, 2, 2, 19
93, 2, 6, 7, 0, 2, 15
94, 2, 8, 7, 2, 2, 19
95, 2, 6, 7, 0, 2, 15
96, 2, 8, 7, 2, 2, 19
97, 2, 6, 7, 0, 2, 15
98, 2, 8, 7, 2, 2, 19
99, 2, 6, 7, 0, 2, 15
100, 2, 8, 7, 2, 2, 19
101, 2, 6, 7, 0, 2, 15
102, 2, 8, 7, 2, 2, 19
103, 2, 6, 7, 0, 2, 15
104, 2, 8, 7, 2, 2, 19
105, 2, 6, 7, 0, 2, 15
106, 2, 8, 7, 2, 2, 19
107, 2, 6, 7, 0, 2, 15
108, 2, 8, 7, 2, 2, 19
109, 2, 6, 7, 0, 2, 15
110, 2, 8, 7, 2, 2, 19
111, 2, 6, 7, 0, 2, 15
112, 2, 8, 7, 2, 2, 19
113, 2, 6, 7, 0, 2, 15
114, 2, 8, 7, 2, 2, 19
115, 2, 6, 7, 0, 2, 15
116, 3, 8, 12, 2, 2, 24
117, 2, 6, 7, 0, 2, 15
118, 3, 9, 12, 3, 2, 26
119, 2, 6, 7, 0, 2, 15
120, 3, 9, 12, 3, 2, 26
121, 2, 6, 7, 0, 2, 15
122, 3, 9, 12, 3, 2, 26
123, 2, 6, 7, 0, 2, 15
124, 3, 9, 12, 3, 2, 26
125, 2, 6, 7, 0, 2, 15
126, 2, 8, 7, 2, 2, 19
127, 2, 6, 7, 0, 2, 15
128, 2, 8, 7, 2, 2, 19
129, 2, 6, 7, 0, 2, 15
130, 2, 8, 7, 2, 2, 19
131, 2, 6, 7, 0, 2, 15
132, 2, 8, 7, 2, 2, 19
133, 2, 6, 7, 0, 2, 15
134, 2, 8, 7, 2, 2, 19
135, 2, 6, 7, 0, 2, 15
136, 2, 8, 7, 2, 2, 19
137, 2, 6, 7, 0, 2, 15
138, 2, 8, 7, 2, 2, 19
139, 2, 6, 7, 0, 2, 15
140, 2, 8, 7, 2, 2, 19
141, 2, 6, 7, 0, 2, 15
142, 2, 8, 7, 2, 2, 19
143, 2, 6, 7, 0, 2, 15
144, 2, 8, 7, 2, 2, 19
145, 2, 6, 7, 0, 2, 15
146, 2, 8, 7, 2, 2, 19
147, 2, 6, 7, 0, 2, 15
148, 2, 8, 7, 2, 2, 19
149, 2, 6, 7, 0, 2, 15
150, 2, 8, 7, 2, 2, 19
151, 2, 7, 7, 1, 2, 17
152, 2, 8, 7, 2, 2, 19
153, 2, 7, 7, 1, 2, 17
154, 2, 8, 7, 2, 2, 19
155, 2, 7, 7, 1, 2, 17
156, 2, 8, 7, 2, 2, 19
157, 2, 7, 7, 1, 2, 17
158, 2, 8, 7, 2, 2, 19
159, 2, 7, 7, 1, 2, 17
160, 2, 8, 7, 2, 2, 19
161, 2, 7, 7, 1, 2, 17
162, 2, 8, 7, 2, 2, 19
163, 2, 7, 7, 1, 2, 17
164, 2, 8, 7, 2, 2, 19
165, 2, 7, 7, 1, 2, 17
166, 2, 8, 7, 2, 2, 19
167, 2, 7, 7, 1, 2, 17
168, 2, 8, 7, 2, 2, 19
169, 2, 7, 7, 1, 2, 17
170, 2, 8, 7, 2, 2, 19
171, 2, 7, 7, 1, 2, 17
172, 2, 8, 7, 2, 2, 19
173, 2, 7, 7, 1, 2, 17
174, 2, 8, 7, 2, 2, 19
175, 2, 7, 7, 1, 2, 17
176, 2, 8, 7, 2, 2, 19
177, 2, 7, 7, 1, 2, 17
178, 2, 8, 7, 2, 2, 19
179, 2, 7, 7, 1, 2, 17
180, 2, 8, 7, 2, 2, 19
181, 2, 7, 7, 1, 2, 17
182, 2, 8, 7, 2, 2, 19
183, 2, 7, 7, 1, 2, 17
184, 2, 8, 7, 2, 2, 19
185, 2, 7, 7, 1, 2, 17
186, 2, 8, 7, 2, 2, 19
187, 2, 6, 7, 0, 2, 15
