* sani_ibm_s298.ckt
* spice file from s298.bench, mode=SIMPLE
.include library.ckt
.include library.mod
VDD VDD 0 2.5
VCK VCK 0 0.0 pulse(0.0 2.5 0.1n    0.2n 3.8n 8n)
* 3 inputs
* 6 outputs
* 14 D-type flipflops
* 44 inverters
* 75 gates (31 ANDs + 9 NANDs + 16 ORs + 19 NORs)
VG0 G0 0 0.0 pulse(0.0 2.5 3n    0.2n 3.8n 8n)
VG1 G1 0 0.0 pulse(0.0 2.5 3n    0.2n 3.8n 8n)
VG2 G2 0 2.5 pulse(2.5 0.0 3n    0.2n 3.8n 8n)
X0 VDD G29 G10 VCK DFF
.ic V(G10)=2.5
X1 VDD G30 G11 VCK DFF
.ic V(G11)=2.5
X2 VDD G34 G12 VCK DFF
.ic V(G12)=2.5
X3 VDD G39 G13 VCK DFF
.ic V(G13)=2.5
X4 VDD G44 G14 VCK DFF
.ic V(G14)=2.5
X5 VDD G56 G15 VCK DFF
.ic V(G15)=0
X6 VDD G86 G16 VCK DFF
.ic V(G16)=2.5
X7 VDD G92 G17 VCK DFF
.ic V(G17)=2.5
X8 VDD G98 G18 VCK DFF
.ic V(G18)=2.5
X9 VDD G102 G19 VCK DFF
.ic V(G19)=0
X10 VDD G107 G20 VCK DFF
.ic V(G20)=0
X11 VDD G113 G21 VCK DFF
.ic V(G21)=2.5
X12 VDD G119 G22 VCK DFF
.ic V(G22)=0
X13 VDD G125 G23 VCK DFF
.ic V(G23)=0
X14 VDD G130 G28 NOT1
X15 VDD G10 G38 NOT1
X16 VDD G13 G40 NOT1
X17 VDD G12 G45 NOT1
X18 VDD G11 G46 NOT1
X19 VDD G14 G50 NOT1
X20 VDD G23 G51 NOT1
X21 VDD G11 G54 NOT1
X22 VDD G13 G55 NOT1
X23 VDD G12 G59 NOT1
X24 VDD G22 G60 NOT1
X25 VDD G15 G64 NOT1
X26 VDD G16 I155 NOT1
X27 VDD I155 G66 NOT1
X28 VDD G17 I158 NOT1
X29 VDD I158 G67 NOT1
X30 VDD G10 G76 NOT1
X31 VDD G11 G82 NOT1
X32 VDD G16 G87 NOT1
X33 VDD G12 G91 NOT1
X34 VDD G17 G93 NOT1
X35 VDD G14 G96 NOT1
X36 VDD G18 G99 NOT1
X37 VDD G13 G103 NOT1
X38 VDD G112 G108 NOT1
X39 VDD G21 G114 NOT1
X40 VDD G18 I210 NOT1
X41 VDD I210 G117 NOT1
X42 VDD G19 I213 NOT1
X43 VDD I213 G118 NOT1
X44 VDD G124 G120 NOT1
X45 VDD G22 G121 NOT1
X46 VDD G2 I221 NOT1
X47 VDD I221 G124 NOT1
X48 VDD G131 G126 NOT1
X49 VDD G23 G127 NOT1
X50 VDD G0 I229 NOT1
X51 VDD I229 G130 NOT1
X52 VDD G1 I232 NOT1
X53 VDD I232 G131 NOT1
X54 VDD G20 I235 NOT1
X55 VDD I235 G132 NOT1
X56 VDD G21 I238 NOT1
X57 VDD I238 G133 NOT1
X58 VDD G28 G50 G26 AND2
X59 VDD G51 G28 G27 AND2
X60 VDD G10 G45 G13 G31 AND3
X61 VDD G10 G11 G32 AND2
X62 VDD G38 G46 G33 AND2
X63 VDD G10 G11 G12 G35 AND3
X64 VDD G38 G45 G36 AND2
X65 VDD G46 G45 G37 AND2
X66 VDD G40 G41 G42 AND2
X67 VDD G45 G46 G10 G47 G48 AND4
X68 VDD G50 G51 G52 G49 AND3
X69 VDD G59 G11 G60 G61 G57 AND4
X70 VDD G64 G65 G58 AND2
X71 VDD G59 G11 G60 G61 G62 AND4
X72 VDD G64 G65 G63 AND2
X73 VDD G12 G14 G19 G74 AND3
X74 VDD G82 G91 G14 G75 AND3
X75 VDD G14 G87 G88 AND2
X76 VDD G103 G96 G89 AND2
X77 VDD G91 G103 G90 AND2
X78 VDD G93 G13 G94 AND2
X79 VDD G96 G13 G95 AND2
X80 VDD G99 G14 G12 G100 AND3
X81 VDD G103 G108 G104 G105 AND3
X82 VDD G108 G109 G110 AND2
X83 VDD G10 G112 G111 AND2
X84 VDD G114 G14 G115 AND2
X85 VDD G120 G121 G122 AND2
X86 VDD G124 G22 G123 AND2
X87 VDD G126 G127 G128 AND2
X88 VDD G131 G23 G129 AND2
X89 VDD G38 G46 G45 G40 G24 OR4
X90 VDD G38 G11 G12 G25 OR3
X91 VDD G11 G12 G13 G96 G68 OR4
X92 VDD G103 G18 G69 OR2
X93 VDD G103 G14 G70 OR2
X94 VDD G82 G12 G13 G71 OR3
X95 VDD G91 G20 G72 OR2
X96 VDD G103 G20 G73 OR2
X97 VDD G112 G103 G96 G19 G77 OR4
X98 VDD G108 G76 G78 OR2
X99 VDD G103 G14 G79 OR2
X100 VDD G11 G14 G80 OR2
X101 VDD G12 G13 G81 OR2
X102 VDD G11 G12 G13 G96 G83 OR4
X103 VDD G82 G91 G14 G84 OR3
X104 VDD G91 G96 G17 G85 OR3
X105 VDD G12 G11 G10 G41 NAND3
X106 VDD G24 G25 G28 G43 NAND3
X107 VDD G13 G45 G46 G10 G52 NAND4
X108 VDD G59 G54 G22 G61 G65 NAND4
X109 VDD G83 G84 G85 G108 G97 NAND4
X110 VDD G68 G69 G70 G108 G101 NAND4
X111 VDD G77 G78 G106 NAND2
X112 VDD G71 G72 G73 G14 G109 NAND4
X113 VDD G79 G80 G81 G108 G116 NAND4
X114 VDD G10 G130 G29 NOR2
X115 VDD G31 G32 G33 G130 G30 NOR4
X116 VDD G35 G36 G37 G130 G34 NOR4
X117 VDD G42 G43 G39 NOR2
X118 VDD G48 G49 G53 G44 NOR3
X119 VDD G50 G40 G47 NOR2
X120 VDD G26 G27 G53 NOR2
X121 VDD G57 G58 G130 G56 NOR3
X122 VDD G14 G55 G61 NOR2
X123 VDD G88 G89 G90 G112 G86 NOR4
X124 VDD G94 G95 G97 G92 NOR3
X125 VDD G100 G101 G98 NOR2
X126 VDD G105 G106 G102 NOR2
X127 VDD G74 G75 G104 NOR2
X128 VDD G110 G111 G107 NOR2
X129 VDD G62 G63 G112 NOR2
X130 VDD G115 G116 G113 NOR2
X131 VDD G122 G123 G130 G119 NOR3
X132 VDD G128 G129 G130 G125 NOR3
.opti nopage defas=1n defad=1n
.width out=240
.tran 0.1n 30n
.print tran v(G117) v(G118) v(G132) v(G133) v(G10) v(G11) v(G12) v(G20) v(G13) v(G21) v(G14) v(G22) v(G15) v(G23) v(G16) v(G17) v(G18) v(G19) v(G66) v(G67) 
.end
