* sani_ibm_s444.ckt
* spice file from s444.bench, mode=SIMPLE
.include library.ckt
.include library.mod
VDD VDD 0 2.5
VCK VCK 0 0.0 pulse(0.0 2.5 0.1n    0.2n 3.8n 8n)
* 3 inputs
* 6 outputs
* 21 D-type flipflops
* 62 inverters
* 119 gates (13 ANDs + 58 NANDs + 14 ORs + 34 NORs)
VG0 G0 0 0.0 pulse(0.0 2.5 3n    0.2n 3.8n 8n)
VG1 G1 0 0.0 pulse(0.0 2.5 3n    0.2n 3.8n 8n)
VG2 G2 0 0.0 pulse(0.0 2.5 3n    0.2n 3.8n 8n)
X0 VDD G37 G11 VCK DFF
.ic V(G11)=0
X1 VDD G41 G12 VCK DFF
.ic V(G12)=2.5
X2 VDD G45 G13 VCK DFF
.ic V(G13)=2.5
X3 VDD G49 G14 VCK DFF
.ic V(G14)=2.5
X4 VDD G58 G15 VCK DFF
.ic V(G15)=0
X5 VDD G62 G16 VCK DFF
.ic V(G16)=0
X6 VDD G66 G17 VCK DFF
.ic V(G17)=0
X7 VDD G70 G18 VCK DFF
.ic V(G18)=0
X8 VDD G80 G19 VCK DFF
.ic V(G19)=2.5
X9 VDD G84 G20 VCK DFF
.ic V(G20)=0
X10 VDD G88 G21 VCK DFF
.ic V(G21)=0
X11 VDD G92 G22 VCK DFF
.ic V(G22)=0
X12 VDD G101 G23 VCK DFF
.ic V(G23)=2.5
X13 VDD G162BF G24 VCK DFF
.ic V(G24)=0
X14 VDD G109 G25 VCK DFF
.ic V(G25)=2.5
X15 VDD G110 G26 VCK DFF
.ic V(G26)=2.5
X16 VDD G111 G27 VCK DFF
.ic V(G27)=2.5
X17 VDD G112 G28 VCK DFF
.ic V(G28)=0
X18 VDD G113 G29 VCK DFF
.ic V(G29)=2.5
X19 VDD G114 G30 VCK DFF
.ic V(G30)=0
X20 VDD G155 G31 VCK DFF
.ic V(G31)=2.5
X21 VDD G0 I372 NOT1
X22 VDD G1 I382 NOT1
X23 VDD G2 I318 NOT1
X24 VDD G11 G34 NOT1
X25 VDD G11 I180 NOT1
X26 VDD G12 G35 NOT1
X27 VDD G20 G77 NOT1
X28 VDD G20 G135 NOT1
X29 VDD G13 G36 NOT1
X30 VDD G21 G78 NOT1
X31 VDD G21 G144 NOT1
X32 VDD G14 G32 NOT1
X33 VDD G22 G74 NOT1
X34 VDD G22 G142 NOT1
X35 VDD G30 I392 NOT1
X36 VDD G15 G55 NOT1
X37 VDD G23 G102 NOT1
X38 VDD G23 G136 NOT1
X39 VDD G31 G156 NOT1
X40 VDD G16 G56 NOT1
X41 VDD G24 G143 NOT1
X42 VDD G17 G161 NOT1
X43 VDD G25 I321 NOT1
X44 VDD G18 G53 NOT1
X45 VDD G26 I324 NOT1
X46 VDD G19 G76 NOT1
X47 VDD G19 G150 NOT1
X48 VDD G27 I336 NOT1
X49 VDD G28 G119 NOT1
X50 VDD G29 G167 NOT1
X51 VDD I372 G152 NOT1
X52 VDD I382 G160 NOT1
X53 VDD I318 G106 NOT1
X54 VDD G34 G43 NOT1
X55 VDD I180 I182 NOT1
X56 VDD I392 G168 NOT1
X57 VDD I321 G107 NOT1
X58 VDD I324 G108 NOT1
X59 VDD I336 G118 NOT1
X60 VDD G152 G99 NOT1
X61 VDD G152 G139 NOT1
X62 VDD G152 G153 NOT1
X63 VDD G160 G157 NOT1
X64 VDD G106 G103 NOT1
X65 VDD G40 G38 NOT1
X66 VDD G57 G60 NOT1
X67 VDD G97 G79 NOT1
X68 VDD G44 G42 NOT1
X69 VDD G48 G46 NOT1
X70 VDD G162 I105 NOT1
X71 VDD G162 G166 NOT1
X72 VDD G52 G50 NOT1
X73 VDD G79 G82 NOT1
X74 VDD I105 G162BF NOT1
X75 VDD G61 G59 NOT1
X76 VDD G65 G63 NOT1
X77 VDD G69 G67 NOT1
X78 VDD G73 G71 NOT1
X79 VDD G83 G81 NOT1
X80 VDD G87 G85 NOT1
X81 VDD G91 G89 NOT1
X82 VDD G96 G94 NOT1
X83 VDD G24 G121 G122 AND2
X84 VDD G139 G22 G150 G124 AND3
X85 VDD G139 G20 G19 G125 AND3
X86 VDD G139 G21 G126 AND2
X87 VDD G139 G24 G127 AND2
X88 VDD G158 G159 G154 AND2
X89 VDD G104 G105 G100 AND2
X90 VDD G154 G153 G155 AND2
X91 VDD G100 G99 G101 AND2
X92 VDD G161 G117 G162 G115 AND3
X93 VDD G161 G165 G162 G163 AND3
X94 VDD G117 G166 G116 AND2
X95 VDD G165 G166 G164 AND2
X96 VDD G24 G22 G21 G141 OR3
X97 VDD G136 G20 G19 G137 OR3
X98 VDD G136 G142 G138 OR2
X99 VDD G24 G21 G20 G150 G140 OR4
X100 VDD G152 G136 G22 G144 G133 OR4
X101 VDD G152 G142 G21 G134 OR3
X102 VDD G152 G142 G20 G19 G145 OR4
X103 VDD G152 G143 G146 OR2
X104 VDD G152 G144 G147 OR2
X105 VDD G31 G160 G158 OR2
X106 VDD G23 G106 G104 OR2
X107 VDD G144 G22 G23 G129 G131 OR4
X108 VDD G156 G157 G159 OR2
X109 VDD G102 G103 G105 OR2
X110 VDD G11 I180 I181 NAND2
X111 VDD G19 G135 G129 NAND2
X112 VDD G19 G135 G142 G136 G121 NAND4
X113 VDD G12 G43 I190 NAND2
X114 VDD I181 I182 G40 NAND2
X115 VDD G13 G47 I200 NAND2
X116 VDD G14 G51 I210 NAND2
X117 VDD G150 G128 G120 NAND2
X118 VDD G133 G134 G132 NAND2
X119 VDD G140 G141 G139 G111 NAND3
X120 VDD G137 G138 G21 G139 G123 NAND4
X121 VDD G20 G144 G143 G139 G151 NAND4
X122 VDD G145 G146 G147 G117 NAND3
X123 VDD G12 I190 I191 NAND2
X124 VDD G43 I190 I192 NAND2
X125 VDD G13 I200 I201 NAND2
X126 VDD G47 I200 I202 NAND2
X127 VDD G131 G130 G149 NAND2
X128 VDD G14 I210 I211 NAND2
X129 VDD G51 I210 I212 NAND2
X130 VDD G150 G135 G132 G148 NAND3
X131 VDD I191 I192 G44 NAND2
X132 VDD I201 I202 G48 NAND2
X133 VDD G120 G149 G162 NAND2
X134 VDD I211 I212 G52 NAND2
X135 VDD G15 G60 I225 NAND2
X136 VDD G16 G64 I235 NAND2
X137 VDD G17 G68 I245 NAND2
X138 VDD G18 G72 I255 NAND2
X139 VDD G148 G149 G165 NAND2
X140 VDD G15 I225 I226 NAND2
X141 VDD G60 I225 I227 NAND2
X142 VDD G16 I235 I236 NAND2
X143 VDD G64 I235 I237 NAND2
X144 VDD G17 I245 I246 NAND2
X145 VDD G68 I245 I247 NAND2
X146 VDD G18 I255 I256 NAND2
X147 VDD G72 I255 I257 NAND2
X148 VDD I226 I227 G61 NAND2
X149 VDD I236 I237 G65 NAND2
X150 VDD I246 I247 G69 NAND2
X151 VDD I256 I257 G73 NAND2
X152 VDD G19 G82 I271 NAND2
X153 VDD G20 G86 I281 NAND2
X154 VDD G21 G90 I291 NAND2
X155 VDD G22 G95 I302 NAND2
X156 VDD G19 I271 I272 NAND2
X157 VDD G82 I271 I273 NAND2
X158 VDD G20 I281 I282 NAND2
X159 VDD G86 I281 I283 NAND2
X160 VDD G21 I291 I292 NAND2
X161 VDD G90 I291 I293 NAND2
X162 VDD G22 I302 I303 NAND2
X163 VDD G95 I302 I304 NAND2
X164 VDD I272 I273 G83 NAND2
X165 VDD I282 I283 G87 NAND2
X166 VDD I292 I293 G91 NAND2
X167 VDD I303 I304 G96 NAND2
X168 VDD G11 G12 G13 G33 NOR3
X169 VDD G15 G16 G17 G54 NOR3
X170 VDD G19 G20 G21 G75 NOR3
X171 VDD G34 G35 G47 NOR2
X172 VDD G34 G35 G36 G51 NOR3
X173 VDD G32 G33 G98 NOR2
X174 VDD G20 G144 G136 G152 G128 NOR4
X175 VDD G143 G152 G130 NOR2
X176 VDD G31 G98 G57 NOR2
X177 VDD G55 G57 G64 NOR2
X178 VDD G55 G56 G57 G68 NOR3
X179 VDD G55 G56 G161 G57 G72 NOR4
X180 VDD G53 G57 G54 G97 NOR3
X181 VDD G122 G123 G109 NOR2
X182 VDD G124 G125 G126 G127 G110 NOR4
X183 VDD G150 G151 G114 NOR2
X184 VDD G98 G38 G152 G37 NOR3
X185 VDD G76 G79 G86 NOR2
X186 VDD G76 G77 G79 G90 NOR3
X187 VDD G74 G79 G75 G93 NOR3
X188 VDD G76 G77 G78 G79 G95 NOR4
X189 VDD G98 G42 G152 G41 NOR3
X190 VDD G98 G46 G152 G45 NOR3
X191 VDD G98 G50 G152 G49 NOR3
X192 VDD G115 G116 G112 NOR2
X193 VDD G163 G164 G113 NOR2
X194 VDD G97 G59 G152 G58 NOR3
X195 VDD G97 G63 G152 G62 NOR3
X196 VDD G97 G67 G152 G66 NOR3
X197 VDD G97 G71 G152 G70 NOR3
X198 VDD G93 G81 G152 G80 NOR3
X199 VDD G93 G85 G152 G84 NOR3
X200 VDD G93 G89 G152 G88 NOR3
X201 VDD G93 G94 G152 G92 NOR3
.opti nopage defas=1n defad=1n
.width out=240
.tran 0.1n 30n
.print tran v(G107) v(G108) v(G118) v(G119) v(G167) v(G168) v(G11) v(G12) v(G20) v(G13) v(G21) v(G14) v(G22) v(G15) v(G30) v(G23) v(G16) v(G31) v(G24) v(G17) v(G25) v(G18) v(G26) v(G19) v(G27) v(G28) v(G29) 
.end
