* sani_ibm_s526.ckt
* spice file from s526.bench, mode=SIMPLE
.include library.ckt
.include library.mod
VDD VDD 0 2.5
VCK VCK 0 0.0 pulse(0.0 2.5 0.1n    0.2n 3.8n 8n)
* 3 inputs
* 6 outputs
* 21 D-type flipflops
* 52 inverters
* 141 gates (56 ANDs + 22 NANDs + 28 ORs + 35 NORs)
VG0 G0 0 0.0 pulse(0.0 2.5 3n    0.2n 3.8n 8n)
VG1 G1 0 0.0 pulse(0.0 2.5 3n    0.2n 3.8n 8n)
VG2 G2 0 0.0 pulse(0.0 2.5 3n    0.2n 3.8n 8n)
X0 VDD G60 G10 VCK DFF
.ic V(G10)=0
X1 VDD G61 G11 VCK DFF
.ic V(G11)=2.5
X2 VDD G62 G12 VCK DFF
.ic V(G12)=2.5
X3 VDD G69 G13 VCK DFF
.ic V(G13)=2.5
X4 VDD G79 G14 VCK DFF
.ic V(G14)=0
X5 VDD G84 G15 VCK DFF
.ic V(G15)=0
X6 VDD G89 G16 VCK DFF
.ic V(G16)=0
X7 VDD G96 G17 VCK DFF
.ic V(G17)=0
X8 VDD G101 G18 VCK DFF
.ic V(G18)=2.5
X9 VDD G106 G19 VCK DFF
.ic V(G19)=0
X10 VDD G115 G20 VCK DFF
.ic V(G20)=0
X11 VDD G127 G21 VCK DFF
.ic V(G21)=0
X12 VDD G137 G22 VCK DFF
.ic V(G22)=2.5
X13 VDD G167 G23 VCK DFF
.ic V(G23)=0
X14 VDD G173 G24 VCK DFF
.ic V(G24)=2.5
X15 VDD G179 G25 VCK DFF
.ic V(G25)=2.5
X16 VDD G183 G26 VCK DFF
.ic V(G26)=2.5
X17 VDD G188 G27 VCK DFF
.ic V(G27)=0
X18 VDD G194 G28 VCK DFF
.ic V(G28)=2.5
X19 VDD G200 G29 VCK DFF
.ic V(G29)=0
X20 VDD G206 G30 VCK DFF
.ic V(G30)=2.5
X21 VDD G211 G59 NOT1
X22 VDD G12 G65 NOT1
X23 VDD G13 G72 NOT1
X24 VDD G10 G83 NOT1
X25 VDD G15 G85 NOT1
X26 VDD G14 G90 NOT1
X27 VDD G16 G94 NOT1
X28 VDD G18 G104 NOT1
X29 VDD G11 G107 NOT1
X30 VDD G19 G112 NOT1
X31 VDD G17 G116 NOT1
X32 VDD G30 G122 NOT1
X33 VDD G20 G124 NOT1
X34 VDD G59 G126 NOT1
X35 VDD G21 G131 NOT1
X36 VDD G20 G135 NOT1
X37 VDD G12 G136 NOT1
X38 VDD G21 G140 NOT1
X39 VDD G29 G141 NOT1
X40 VDD G22 G145 NOT1
X41 VDD G23 I285 NOT1
X42 VDD I285 G147 NOT1
X43 VDD G24 I288 NOT1
X44 VDD I288 G148 NOT1
X45 VDD G18 G157 NOT1
X46 VDD G20 G163 NOT1
X47 VDD G23 G168 NOT1
X48 VDD G21 G172 NOT1
X49 VDD G24 G174 NOT1
X50 VDD G13 G177 NOT1
X51 VDD G25 G180 NOT1
X52 VDD G12 G184 NOT1
X53 VDD G193 G189 NOT1
X54 VDD G28 G195 NOT1
X55 VDD G25 I340 NOT1
X56 VDD I340 G198 NOT1
X57 VDD G26 I343 NOT1
X58 VDD I343 G199 NOT1
X59 VDD G205 G201 NOT1
X60 VDD G29 G202 NOT1
X61 VDD G2 I351 NOT1
X62 VDD I351 G205 NOT1
X63 VDD G212 G207 NOT1
X64 VDD G30 G208 NOT1
X65 VDD G0 I359 NOT1
X66 VDD I359 G211 NOT1
X67 VDD G1 I362 NOT1
X68 VDD I362 G212 NOT1
X69 VDD G27 I365 NOT1
X70 VDD I365 G213 NOT1
X71 VDD G28 I368 NOT1
X72 VDD I368 G214 NOT1
X73 VDD G122 G123 G34 AND2
X74 VDD G10 G107 G90 G15 G35 AND4
X75 VDD G122 G123 G36 AND2
X76 VDD G122 G123 G38 AND2
X77 VDD G65 G21 G39 AND2
X78 VDD G12 G131 G40 AND2
X79 VDD G59 G94 G44 AND2
X80 VDD G122 G59 G45 AND2
X81 VDD G116 G112 G46 AND2
X82 VDD G116 G18 G47 AND2
X83 VDD G59 G16 G17 G51 AND3
X84 VDD G59 G18 G52 AND2
X85 VDD G17 G104 G54 AND2
X86 VDD G116 G18 G55 AND2
X87 VDD G17 G112 G56 AND2
X88 VDD G59 G16 G17 G18 G57 AND4
X89 VDD G59 G19 G58 AND2
X90 VDD G10 G90 G15 G76 AND3
X91 VDD G10 G11 G77 AND2
X92 VDD G83 G107 G78 AND2
X93 VDD G10 G11 G14 G80 AND3
X94 VDD G83 G90 G81 AND2
X95 VDD G107 G90 G82 AND2
X96 VDD G85 G86 G87 AND2
X97 VDD G90 G107 G10 G91 G92 AND4
X98 VDD G94 G122 G123 G93 AND3
X99 VDD G107 G10 G108 G97 G98 AND4
X100 VDD G116 G122 G123 G99 AND3
X101 VDD G18 G17 G16 G118 G102 AND4
X102 VDD G104 G122 G123 G103 AND3
X103 VDD G107 G10 G108 G113 G109 AND4
X104 VDD G112 G122 G123 G110 AND3
X105 VDD G16 G30 G113 G111 AND3
X106 VDD G116 G16 G117 G118 G119 AND4
X107 VDD G124 G122 G123 G120 AND3
X108 VDD G124 G125 G121 AND2
X109 VDD G140 G20 G141 G142 G138 AND4
X110 VDD G145 G146 G139 AND2
X111 VDD G140 G20 G141 G142 G143 AND4
X112 VDD G145 G146 G144 AND2
X113 VDD G21 G13 G26 G155 AND3
X114 VDD G163 G172 G13 G156 AND3
X115 VDD G13 G168 G169 AND2
X116 VDD G184 G177 G170 AND2
X117 VDD G172 G184 G171 AND2
X118 VDD G174 G12 G175 AND2
X119 VDD G177 G12 G176 AND2
X120 VDD G180 G13 G21 G181 AND3
X121 VDD G184 G189 G185 G186 AND3
X122 VDD G189 G190 G191 AND2
X123 VDD G18 G193 G192 AND2
X124 VDD G195 G13 G196 AND2
X125 VDD G201 G202 G203 AND2
X126 VDD G205 G29 G204 AND2
X127 VDD G207 G208 G209 AND2
X128 VDD G212 G30 G210 AND2
X129 VDD G30 G31 G32 OR2
X130 VDD G72 G12 G33 OR2
X131 VDD G83 G107 G90 G85 G42 OR4
X132 VDD G83 G11 G14 G43 OR3
X133 VDD G122 G94 G18 G112 G48 OR4
X134 VDD G122 G94 G116 G49 OR3
X135 VDD G16 G17 G50 OR2
X136 VDD G83 G11 G14 G85 G53 OR4
X137 VDD G211 G63 G64 G71 G67 OR4
X138 VDD G65 G211 G66 G68 OR3
X139 VDD G211 G125 G70 G71 G74 OR4
X140 VDD G72 G211 G73 G75 OR3
X141 VDD G211 G128 G129 G130 G133 OR4
X142 VDD G131 G211 G132 G134 OR3
X143 VDD G20 G21 G12 G177 G149 OR4
X144 VDD G184 G25 G150 OR2
X145 VDD G184 G13 G151 OR2
X146 VDD G163 G21 G12 G152 OR3
X147 VDD G172 G27 G153 OR2
X148 VDD G184 G27 G154 OR2
X149 VDD G193 G184 G177 G26 G158 OR4
X150 VDD G189 G157 G159 OR2
X151 VDD G184 G13 G160 OR2
X152 VDD G20 G13 G161 OR2
X153 VDD G21 G12 G162 OR2
X154 VDD G20 G21 G12 G177 G164 OR4
X155 VDD G163 G172 G13 G165 OR3
X156 VDD G172 G177 G24 G166 OR3
X157 VDD G104 G116 G16 G37 G41 NAND4
X158 VDD G67 G68 G62 NAND2
X159 VDD G104 G116 G16 G63 NAND3
X160 VDD G65 G21 G20 G19 G64 NAND4
X161 VDD G74 G75 G69 NAND2
X162 VDD G72 G12 G21 G20 G70 NAND4
X163 VDD G14 G11 G10 G86 NAND3
X164 VDD G42 G43 G59 G88 NAND3
X165 VDD G48 G49 G50 G59 G100 NAND4
X166 VDD G53 G122 G118 NAND2
X167 VDD G15 G90 G107 G10 G123 NAND4
X168 VDD G19 G104 G116 G16 G125 NAND4
X169 VDD G133 G134 G127 NAND2
X170 VDD G116 G16 G128 NAND2
X171 VDD G131 G20 G19 G104 G129 NAND4
X172 VDD G32 G33 G130 NAND2
X173 VDD G140 G135 G29 G142 G146 NAND4
X174 VDD G164 G165 G166 G189 G178 NAND4
X175 VDD G149 G150 G151 G189 G182 NAND4
X176 VDD G158 G159 G187 NAND2
X177 VDD G152 G153 G154 G13 G190 NAND4
X178 VDD G160 G161 G162 G189 G197 NAND4
X179 VDD G85 G14 G11 G83 G31 NOR4
X180 VDD G124 G112 G37 NOR2
X181 VDD G10 G211 G60 NOR2
X182 VDD G76 G77 G78 G211 G61 NOR4
X183 VDD G36 G131 G124 G125 G66 NOR4
X184 VDD G35 G30 G71 NOR2
X185 VDD G38 G39 G40 G41 G73 NOR4
X186 VDD G80 G81 G82 G211 G79 NOR4
X187 VDD G87 G88 G84 NOR2
X188 VDD G92 G93 G95 G89 NOR3
X189 VDD G94 G85 G91 NOR2
X190 VDD G44 G45 G95 NOR2
X191 VDD G98 G99 G100 G96 NOR3
X192 VDD G46 G47 G97 NOR2
X193 VDD G102 G103 G105 G101 NOR3
X194 VDD G51 G52 G105 NOR2
X195 VDD G109 G110 G111 G114 G106 NOR4
X196 VDD G94 G85 G14 G108 NOR3
X197 VDD G54 G55 G56 G113 NOR3
X198 VDD G57 G58 G114 NOR2
X199 VDD G119 G120 G121 G126 G115 NOR4
X200 VDD G124 G112 G18 G117 NOR3
X201 VDD G34 G124 G125 G132 NOR3
X202 VDD G138 G139 G211 G137 NOR3
X203 VDD G13 G136 G142 NOR2
X204 VDD G169 G170 G171 G193 G167 NOR4
X205 VDD G175 G176 G178 G173 NOR3
X206 VDD G181 G182 G179 NOR2
X207 VDD G186 G187 G183 NOR2
X208 VDD G155 G156 G185 NOR2
X209 VDD G191 G192 G188 NOR2
X210 VDD G143 G144 G193 NOR2
X211 VDD G196 G197 G194 NOR2
X212 VDD G203 G204 G211 G200 NOR3
X213 VDD G209 G210 G211 G206 NOR3
.opti nopage defas=1n defad=1n
.width out=240
.tran 0.1n 30n
.print tran v(G213) v(G214) v(G147) v(G148) v(G198) v(G199) v(G10) v(G11) v(G12) v(G20) v(G13) v(G21) v(G14) v(G22) v(G15) v(G30) v(G23) v(G16) v(G24) v(G17) v(G25) v(G18) v(G26) v(G19) v(G27) v(G28) v(G29) 
.end
