timestep, iters, adds, subs, mults, divs, total
1, 3, 1090, 9715, 465, 288, 11558
2, 3, 1090, 9715, 465, 288, 11558
3, 2, 935, 4864, 310, 288, 6397
4, 2, 935, 4864, 310, 288, 6397
5, 3, 935, 9715, 310, 288, 11248
6, 3, 1090, 9715, 465, 288, 11558
7, 3, 1090, 9715, 465, 288, 11558
8, 3, 1090, 9715, 465, 288, 11558
9, 3, 1090, 9715, 465, 288, 11558
10, 3, 1090, 9715, 465, 288, 11558
11, 3, 1090, 9715, 465, 288, 11558
12, 3, 1090, 9715, 465, 288, 11558
13, 3, 1090, 9715, 465, 288, 11558
14, 3, 1090, 9715, 465, 288, 11558
15, 3, 1090, 9715, 465, 288, 11558
16, 3, 1090, 9715, 465, 288, 11558
17, 3, 1090, 9715, 465, 288, 11558
18, 3, 1090, 9715, 465, 288, 11558
19, 3, 1090, 9715, 465, 288, 11558
20, 3, 1090, 9715, 465, 288, 11558
21, 3, 1090, 9715, 465, 288, 11558
22, 3, 1090, 9715, 465, 288, 11558
23, 3, 1090, 9715, 465, 288, 11558
24, 3, 1090, 9715, 465, 288, 11558
25, 3, 1090, 9715, 465, 288, 11558
26, 3, 1090, 9715, 465, 288, 11558
27, 3, 1090, 9715, 465, 288, 11558
28, 3, 1090, 9715, 465, 288, 11558
29, 3, 1090, 9715, 465, 288, 11558
30, 3, 1090, 9715, 465, 288, 11558
31, 3, 1090, 9715, 465, 288, 11558
32, 3, 1090, 9715, 465, 288, 11558
33, 3, 1090, 9715, 465, 288, 11558
34, 3, 1090, 9715, 465, 288, 11558
35, 3, 1090, 9715, 465, 288, 11558
36, 2, 935, 4864, 310, 288, 6397
37, 3, 1090, 9715, 465, 288, 11558
38, 3, 935, 9715, 310, 288, 11248
39, 3, 1090, 9715, 465, 288, 11558
40, 3, 1090, 9715, 465, 288, 11558
41, 3, 1090, 9715, 465, 288, 11558
42, 3, 1090, 9715, 465, 288, 11558
43, 3, 1090, 9715, 465, 288, 11558
44, 3, 1090, 9715, 465, 288, 11558
45, 3, 1090, 9715, 465, 288, 11558
46, 3, 1090, 9715, 465, 288, 11558
47, 3, 1090, 9715, 465, 288, 11558
48, 3, 1090, 9715, 465, 288, 11558
49, 3, 1090, 9715, 465, 288, 11558
50, 3, 1090, 9715, 465, 288, 11558
51, 3, 1090, 9715, 465, 288, 11558
52, 3, 1090, 9715, 465, 288, 11558
53, 3, 1090, 9715, 465, 288, 11558
54, 3, 1090, 9715, 465, 288, 11558
55, 3, 1090, 9715, 465, 288, 11558
56, 2, 935, 4864, 310, 288, 6397
57, 3, 935, 9715, 310, 288, 11248
58, 3, 1090, 9715, 465, 288, 11558
59, 3, 1090, 9715, 465, 288, 11558
60, 3, 1090, 9715, 465, 288, 11558
61, 3, 1090, 9715, 465, 288, 11558
62, 3, 1090, 9715, 465, 288, 11558
63, 3, 1090, 9715, 465, 288, 11558
64, 3, 1090, 9715, 465, 288, 11558
65, 3, 1090, 9715, 465, 288, 11558
66, 3, 1090, 9715, 465, 288, 11558
67, 3, 1090, 9715, 465, 288, 11558
68, 3, 1090, 9715, 465, 288, 11558
69, 3, 1090, 9715, 465, 288, 11558
70, 3, 1090, 9715, 465, 288, 11558
71, 3, 1090, 9715, 465, 288, 11558
72, 3, 1090, 9715, 465, 288, 11558
73, 3, 1090, 9715, 465, 288, 11558
74, 3, 1090, 9715, 465, 288, 11558
75, 3, 1090, 9715, 465, 288, 11558
76, 3, 1090, 9715, 465, 288, 11558
77, 3, 1090, 9715, 465, 288, 11558
78, 3, 1090, 9715, 465, 288, 11558
79, 3, 1090, 9715, 465, 288, 11558
80, 3, 1090, 9715, 465, 288, 11558
81, 3, 1090, 9715, 465, 288, 11558
82, 2, 935, 4864, 310, 288, 6397
83, 3, 935, 9715, 310, 288, 11248
84, 2, 935, 4864, 310, 288, 6397
85, 3, 935, 9715, 310, 288, 11248
86, 3, 935, 9715, 310, 288, 11248
87, 3, 1090, 9715, 465, 288, 11558
88, 3, 1090, 9715, 465, 288, 11558
89, 3, 1090, 9715, 465, 288, 11558
90, 3, 1090, 9715, 465, 288, 11558
91, 3, 1090, 9715, 465, 288, 11558
92, 3, 1090, 9715, 465, 288, 11558
93, 3, 1090, 9715, 465, 288, 11558
94, 3, 1090, 9715, 465, 288, 11558
95, 3, 1090, 9715, 465, 288, 11558
96, 3, 1090, 9715, 465, 288, 11558
97, 3, 1090, 9715, 465, 288, 11558
98, 3, 1090, 9715, 465, 288, 11558
99, 3, 1090, 9715, 465, 288, 11558
100, 3, 1090, 9715, 465, 288, 11558
101, 3, 1090, 9715, 465, 288, 11558
102, 3, 1090, 9715, 465, 288, 11558
103, 3, 1090, 9715, 465, 288, 11558
104, 2, 935, 4864, 310, 288, 6397
105, 3, 935, 9715, 310, 288, 11248
106, 3, 935, 9715, 310, 288, 11248
107, 3, 935, 9715, 310, 288, 11248
108, 3, 1090, 9715, 465, 288, 11558
109, 3, 1090, 9715, 465, 288, 11558
110, 3, 1090, 9715, 465, 288, 11558
111, 3, 1090, 9715, 465, 288, 11558
112, 3, 1090, 9715, 465, 288, 11558
113, 3, 1090, 9715, 465, 288, 11558
114, 3, 1090, 9715, 465, 288, 11558
115, 3, 1090, 9715, 465, 288, 11558
116, 3, 1090, 9715, 465, 288, 11558
117, 3, 1090, 9715, 465, 288, 11558
118, 3, 1090, 9715, 465, 288, 11558
119, 3, 1090, 9715, 465, 288, 11558
120, 3, 1090, 9715, 465, 288, 11558
121, 3, 1090, 9715, 465, 288, 11558
122, 3, 1090, 9715, 465, 288, 11558
123, 3, 1090, 9715, 465, 288, 11558
124, 3, 1090, 9715, 465, 288, 11558
125, 3, 1090, 9715, 465, 288, 11558
126, 3, 1090, 9715, 465, 288, 11558
127, 3, 1090, 9715, 465, 288, 11558
128, 3, 1090, 9715, 465, 288, 11558
129, 3, 1090, 9715, 465, 288, 11558
130, 3, 1090, 9715, 465, 288, 11558
131, 3, 1090, 9715, 465, 288, 11558
132, 3, 1090, 9715, 465, 288, 11558
133, 3, 1090, 9715, 465, 288, 11558
134, 2, 935, 4864, 310, 288, 6397
135, 3, 1090, 9715, 465, 288, 11558
136, 3, 935, 9715, 310, 288, 11248
137, 3, 1090, 9715, 465, 288, 11558
138, 3, 1090, 9715, 465, 288, 11558
139, 3, 1090, 9715, 465, 288, 11558
140, 3, 1090, 9715, 465, 288, 11558
141, 3, 1090, 9715, 465, 288, 11558
142, 3, 1090, 9715, 465, 288, 11558
143, 3, 1090, 9715, 465, 288, 11558
144, 3, 1090, 9715, 465, 288, 11558
145, 3, 1090, 9715, 465, 288, 11558
146, 3, 1090, 9715, 465, 288, 11558
147, 3, 1090, 9715, 465, 288, 11558
148, 3, 1090, 9715, 465, 288, 11558
149, 3, 1090, 9715, 465, 288, 11558
150, 3, 1090, 9715, 465, 288, 11558
151, 3, 1090, 9715, 465, 288, 11558
152, 3, 1090, 9715, 465, 288, 11558
153, 3, 1090, 9715, 465, 288, 11558
154, 2, 935, 4864, 310, 288, 6397
155, 3, 935, 9715, 310, 288, 11248
156, 3, 1090, 9715, 465, 288, 11558
157, 3, 1090, 9715, 465, 288, 11558
158, 3, 1090, 9715, 465, 288, 11558
159, 3, 1090, 9715, 465, 288, 11558
160, 3, 1090, 9715, 465, 288, 11558
161, 3, 1090, 9715, 465, 288, 11558
162, 3, 1090, 9715, 465, 288, 11558
163, 3, 1090, 9715, 465, 288, 11558
164, 3, 1090, 9715, 465, 288, 11558
165, 3, 1090, 9715, 465, 288, 11558
166, 3, 1090, 9715, 465, 288, 11558
167, 3, 1090, 9715, 465, 288, 11558
168, 3, 1090, 9715, 465, 288, 11558
169, 3, 1090, 9715, 465, 288, 11558
170, 3, 1090, 9715, 465, 288, 11558
171, 3, 1090, 9715, 465, 288, 11558
172, 3, 1090, 9715, 465, 288, 11558
173, 3, 1090, 9715, 465, 288, 11558
174, 3, 1090, 9715, 465, 288, 11558
175, 3, 1090, 9715, 465, 288, 11558
176, 3, 1090, 9715, 465, 288, 11558
177, 3, 1090, 9715, 465, 288, 11558
178, 3, 1090, 9715, 465, 288, 11558
179, 3, 1090, 9715, 465, 288, 11558
180, 2, 935, 4864, 310, 288, 6397
181, 3, 935, 9715, 310, 288, 11248
182, 3, 935, 9715, 310, 288, 11248
183, 3, 935, 9715, 310, 288, 11248
184, 3, 1090, 9715, 465, 288, 11558
185, 3, 1090, 9715, 465, 288, 11558
186, 3, 1090, 9715, 465, 288, 11558
187, 3, 1090, 9715, 465, 288, 11558
188, 3, 1090, 9715, 465, 288, 11558
189, 3, 1090, 9715, 465, 288, 11558
