timestep, iters, adds, subs, mults, divs, total
1, 3, 98744, 24489, 98189, 27134, 248556
2, 16, 600986, 110213, 597101, 189938, 1498238
3, 102, 1034988, 1101840, 1028328, 325608, 3490764
4, 111, 1375768, 1163070, 1366888, 434144, 4339870
5, 116, 1555086, 1199806, 1545096, 488412, 4788400
6, 123, 1815135, 1248789, 1803480, 569814, 5437218
7, 130, 2075184, 1297772, 2061864, 651216, 6086036
8, 139, 2415964, 1359002, 2400424, 759752, 6935142
9, 145, 2676013, 1395743, 2658808, 841154, 7571718
10, 153, 3016793, 1444731, 2997368, 949690, 8408582
11, 163, 3438304, 1505966, 3416104, 1085360, 9445734
12, 173, 3859815, 1567201, 3834840, 1221030, 10482886
13, 181, 4200595, 1616189, 4173400, 1329566, 11319750
14, 189, 4541375, 1665177, 4511960, 1438102, 12156614
15, 195, 4801424, 1701918, 4770344, 1519504, 12793190
16, 201, 5061473, 1738659, 5028728, 1600906, 13429766
17, 209, 5402253, 1787647, 5367288, 1709442, 14266630
18, 217, 5743033, 1836635, 5705848, 1817978, 15103494
19, 223, 6003082, 1873376, 5964232, 1899380, 15740070
20, 229, 6263131, 1910117, 6222616, 1980782, 16376646
21, 235, 6523180, 1946858, 6481000, 2062184, 17013222
22, 241, 6783229, 1983599, 6739384, 2143586, 17649798
23, 247, 7043278, 2020340, 6997768, 2224988, 18286374
24, 253, 7303327, 2057081, 7256152, 2306390, 18922950
25, 259, 7563376, 2093822, 7514536, 2387792, 19559526
26, 266, 7823582, 2142805, 7773077, 2469194, 20208658
27, 275, 8164519, 2204035, 8111794, 2577730, 21058078
28, 282, 8424725, 2253018, 8370335, 2659132, 21707210
29, 287, 8604200, 2289754, 8548700, 2713400, 22156054
30, 294, 8864406, 2338737, 8807241, 2794802, 22805186
31, 301, 9124612, 2387720, 9065782, 2876204, 23454318
32, 314, 9627011, 2473444, 9564851, 3039008, 24704314
33, 323, 9967948, 2534674, 9903568, 3147544, 25553734
34, 334, 10389616, 2608151, 10322461, 3283214, 26603442
35, 341, 10649665, 2657134, 10580845, 3364616, 27252260
36, 1510, 11190873, 16919084, 11119833, 3473152, 42702942
37, 1517, 11450922, 16968067, 11378217, 3554554, 43351760
38, 1524, 11710971, 17017050, 11636601, 3635956, 44000578
39, 1531, 11971020, 17066033, 11894985, 3717358, 44649396
40, 1538, 12231069, 17115016, 12153369, 3798760, 45298214
41, 1545, 12491118, 17163999, 12411753, 3880162, 45947032
42, 1552, 12751167, 17212982, 12670137, 3961564, 46595850
43, 1559, 13011216, 17261965, 12928521, 4042966, 47244668
44, 1565, 13271265, 17298706, 13186905, 4124368, 47881244
45, 1571, 13531314, 17335447, 13445289, 4205770, 48517820
46, 1578, 13791363, 17384430, 13703673, 4287172, 49166638
47, 1585, 14051569, 17433413, 13962214, 4368574, 49815770
48, 1631, 14400654, 17947597, 14309079, 4477110, 51134440
49, 1638, 14660860, 17996580, 14567620, 4558512, 51783572
50, 1645, 14921066, 18045563, 14826161, 4639914, 52432704
51, 1652, 15181272, 18094546, 15084702, 4721316, 53081836
52, 1659, 15441478, 18143529, 15343243, 4802718, 53730968
53, 1674, 16024608, 18241500, 15922488, 4992656, 55181252
54, 1687, 16527007, 18327224, 16421557, 5155460, 56431248
55, 1700, 17029249, 18412948, 16920469, 5318264, 57680930
56, 1737, 17376682, 18816954, 17265682, 5426800, 58886118
57, 1744, 17636731, 18865937, 17524066, 5508202, 59534936
58, 1751, 17896780, 18914920, 17782450, 5589604, 60183754
59, 1758, 18156829, 18963903, 18040834, 5671006, 60832572
60, 1765, 18416878, 19012886, 18299218, 5752408, 61481390
61, 1772, 18676927, 19061869, 18557602, 5833810, 62130208
62, 1779, 18936976, 19110852, 18815986, 5915212, 62779026
63, 1786, 19197025, 19159835, 19074370, 5996614, 63427844
64, 1792, 19457074, 19196576, 19332754, 6078016, 64064420
65, 1798, 19717123, 19233317, 19591138, 6159418, 64700996
66, 1806, 20057903, 19282305, 19929698, 6267954, 65537860
67, 1814, 20398683, 19331293, 20268258, 6376490, 66374724
68, 1820, 20658732, 19368034, 20526642, 6457892, 67011300
69, 1826, 20918781, 19404775, 20785026, 6539294, 67647876
70, 1832, 21178830, 19441516, 21043410, 6620696, 68284452
71, 1838, 21438879, 19478257, 21301794, 6702098, 68921028
72, 1845, 21698928, 19527240, 21560178, 6783500, 69569846
73, 1852, 21959134, 19576223, 21818719, 6864902, 70218978
74, 1914, 22229135, 20298516, 22087055, 6946304, 71561010
75, 1921, 22489341, 20347499, 22345596, 7027706, 72210142
76, 1928, 22749547, 20396482, 22604137, 7109108, 72859274
77, 1935, 23009753, 20445465, 22862678, 7190510, 73508406
78, 1942, 23269959, 20494448, 23121219, 7271912, 74157538
79, 1949, 23530165, 20543431, 23379760, 7353314, 74806670
80, 1958, 23871102, 20604661, 23718477, 7461850, 75656090
81, 1969, 24292613, 20678138, 24137213, 7597520, 76705484
82, 2025, 24646272, 21314742, 24488652, 7706056, 78155722
83, 2032, 24906321, 21363725, 24747036, 7787458, 78804540
84, 2037, 25085639, 21400461, 24925244, 7841726, 79253070
85, 2044, 25345688, 21449444, 25183628, 7923128, 79901888
86, 2051, 25605737, 21498427, 25442012, 8004530, 80550706
87, 2058, 25865786, 21547410, 25700396, 8085932, 81199524
88, 2067, 26206566, 21608640, 26038956, 8194468, 82048630
89, 2076, 26547346, 21669870, 26377516, 8303004, 82897736
90, 2085, 26888126, 21731100, 26716076, 8411540, 83746842
91, 2093, 27228906, 21780088, 27054636, 8520076, 84583706
92, 2100, 27488955, 21829071, 27313020, 8601478, 85232524
93, 2107, 27749161, 21878054, 27571561, 8682880, 85881656
94, 2114, 28009367, 21927037, 27830102, 8764282, 86530788
95, 2121, 28269573, 21976020, 28088643, 8845684, 87179920
96, 2128, 28529779, 22025003, 28347184, 8927086, 87829052
97, 2133, 28709254, 22061739, 28525549, 8981354, 88277896
98, 2138, 28888729, 22098475, 28703914, 9035622, 88726740
99, 2145, 29148935, 22147458, 28962455, 9117024, 89375872
100, 2156, 29570603, 22220935, 29381348, 9252694, 90425580
101, 2167, 29992114, 22294412, 29800084, 9388364, 91474974
102, 2595, 30328696, 27497277, 30135001, 9469766, 97430740
103, 2603, 30588914, 27558502, 30393554, 9551168, 98092138
104, 2610, 30848963, 27607485, 30651938, 9632570, 98740956
105, 2617, 31109012, 27656468, 30910322, 9713972, 99389774
106, 2626, 31449792, 27717698, 31248882, 9822508, 100238880
107, 2633, 31709841, 27766681, 31507266, 9903910, 100887698
108, 2642, 32050621, 27827911, 31845826, 10012446, 101736804
109, 2653, 32472132, 27901388, 32264562, 10148116, 102786198
110, 2669, 33135836, 27999364, 32923826, 10365188, 104424214
111, 2685, 33799540, 28097340, 33583090, 10582260, 106062230
112, 2697, 34301782, 28170822, 34082002, 10745064, 107299670
113, 2705, 34642562, 28219810, 34420562, 10853600, 108136534
114, 2713, 34983342, 28268798, 34759122, 10962136, 108973398
115, 2719, 35243391, 28305539, 35017506, 11043538, 109609974
116, 2725, 35503440, 28342280, 35275890, 11124940, 110246550
117, 2731, 35763489, 28379021, 35534274, 11206342, 110883126
118, 2737, 36023538, 28415762, 35792658, 11287744, 111519702
119, 2744, 36283744, 28464745, 36051199, 11369146, 112168834
120, 2755, 36705412, 28538222, 36470092, 11504816, 113218542
121, 2762, 36965618, 28587205, 36728633, 11586218, 113867674
122, 2769, 37225824, 28636188, 36987174, 11667620, 114516806
123, 2782, 37728223, 28721912, 37486243, 11830424, 115766802
124, 2791, 38069160, 28783142, 37824960, 11938960, 116616222
125, 2802, 38490828, 28856619, 38243853, 12074630, 117665930
126, 2809, 38750877, 28905602, 38502237, 12156032, 118314748
127, 2952, 39121011, 30607260, 38870151, 12264568, 120862990
128, 2959, 39381060, 30656243, 39128535, 12345970, 121511808
129, 2966, 39641109, 30705226, 39386919, 12427372, 122160626
130, 2973, 39901158, 30754209, 39645303, 12508774, 122809444
131, 2980, 40161207, 30803192, 39903687, 12590176, 123458262
132, 2987, 40421256, 30852175, 40162071, 12671578, 124107080
133, 2994, 40681305, 30901158, 40420455, 12752980, 124755898
134, 3001, 40941354, 30950141, 40678839, 12834382, 125404716
135, 3007, 41201403, 30986882, 40937223, 12915784, 126041292
136, 3013, 41461452, 31023623, 41195607, 12997186, 126677868
137, 3019, 41721501, 31060364, 41453991, 13078588, 127314444
138, 3026, 41981707, 31109347, 41712532, 13159990, 127963576
139, 3035, 42322644, 31170577, 42051249, 13268526, 128812996
140, 3042, 42582850, 31219560, 42309790, 13349928, 129462128
141, 3049, 42843056, 31268543, 42568331, 13431330, 130111260
142, 3058, 43183993, 31329773, 42907048, 13539866, 130960680
143, 3073, 43767123, 31427744, 43486293, 13729804, 132410964
144, 3088, 44350253, 31525715, 44065538, 13919742, 133861248
145, 3095, 44610302, 31574698, 44323922, 14001144, 134510066
146, 3146, 44880480, 32162329, 44592435, 14082546, 135717790
147, 3153, 45140529, 32211312, 44850819, 14163948, 136366608
148, 3160, 45400578, 32260295, 45109203, 14245350, 137015426
149, 3167, 45660627, 32309278, 45367587, 14326752, 137664244
150, 3174, 45920676, 32358261, 45625971, 14408154, 138313062
151, 3181, 46180725, 32407244, 45884355, 14489556, 138961880
152, 3188, 46440774, 32456227, 46142739, 14570958, 139610698
153, 3195, 46700823, 32505210, 46401123, 14652360, 140259516
154, 3201, 46960872, 32541951, 46659507, 14733762, 140896092
155, 3207, 47220921, 32578692, 46917891, 14815164, 141532668
156, 3213, 47480970, 32615433, 47176275, 14896566, 142169244
157, 3221, 47821750, 32664421, 47514835, 15005102, 143006108
158, 3227, 48081799, 32701162, 47773219, 15086504, 143642684
159, 3233, 48341848, 32737903, 48031603, 15167906, 144279260
160, 3239, 48601897, 32774644, 48289987, 15249308, 144915836
161, 3245, 48861946, 32811385, 48548371, 15330710, 145552412
162, 3251, 49121995, 32848126, 48806755, 15412112, 146188988
163, 3258, 49382044, 32897109, 49065139, 15493514, 146837806
164, 3265, 49642250, 32946092, 49323680, 15574916, 147486938
165, 3304, 49908196, 33386819, 49587961, 15656318, 148539294
166, 3311, 50168402, 33435802, 49846502, 15737720, 149188426
167, 3318, 50428608, 33484785, 50105043, 15819122, 149837558
168, 3325, 50688814, 33533768, 50363584, 15900524, 150486690
169, 3332, 50949020, 33582751, 50622125, 15981926, 151135822
170, 3339, 51209226, 33631734, 50880666, 16063328, 151784954
171, 3348, 51550163, 33692964, 51219383, 16171864, 152634374
172, 3357, 51890943, 33754194, 51557943, 16280400, 153483480
173, 3404, 52255805, 34280620, 51920585, 16388936, 154845946
174, 3411, 52515854, 34329603, 52178969, 16470338, 155494764
175, 3416, 52695172, 34366339, 52357177, 16524606, 155943294
176, 3421, 52874490, 34403075, 52535385, 16578874, 156391824
177, 3428, 53134539, 34452058, 52793769, 16660276, 157040642
178, 3435, 53394588, 34501041, 53052153, 16741678, 157689460
179, 3444, 53735368, 34562271, 53390713, 16850214, 158538566
180, 3453, 54076148, 34623501, 53729273, 16958750, 159387672
181, 3462, 54416928, 34684731, 54067833, 17067286, 160236778
182, 3468, 54676977, 34721472, 54326217, 17148688, 160873354
183, 3476, 55017757, 34770460, 54664777, 17257224, 161710218
