innerloop, iters, adds, subs, mults, divs, total
1, 3, 98744, 24489, 98189, 27134, 248556
2, 5, 179475, 36736, 178365, 54268, 448844
3, 7, 260206, 48983, 258541, 81402, 649132
4, 9, 340937, 61230, 338717, 108536, 849420
5, 11, 421668, 73477, 418893, 135670, 1049708
6, 13, 502399, 85724, 499069, 162804, 1249996
7, 16, 600986, 110213, 597101, 189938, 1498238
8, 18, 681717, 122460, 677277, 217072, 1698526
9, 20, 762448, 134707, 757453, 244206, 1898814
10, 22, 843179, 146954, 837629, 271340, 2099102
11, 24, 923910, 159201, 917805, 298474, 2299390
12, 102, 1034988, 1101840, 1028328, 325608, 3490764
13, 104, 1115719, 1114087, 1108504, 352742, 3691052
14, 106, 1196450, 1126334, 1188680, 379876, 3891340
15, 108, 1277181, 1138581, 1268856, 407010, 4091628
16, 111, 1375768, 1163070, 1366888, 434144, 4339870
17, 113, 1456499, 1175317, 1447064, 461278, 4540158
18, 116, 1555086, 1199806, 1545096, 488412, 4788400
19, 118, 1635817, 1212053, 1625272, 515546, 4988688
20, 120, 1716548, 1224300, 1705448, 542680, 5188976
21, 123, 1815135, 1248789, 1803480, 569814, 5437218
22, 125, 1895866, 1261036, 1883656, 596948, 5637506
23, 127, 1976597, 1273283, 1963832, 624082, 5837794
24, 130, 2075184, 1297772, 2061864, 651216, 6086036
25, 132, 2155915, 1310019, 2142040, 678350, 6286324
26, 134, 2236646, 1322266, 2222216, 705484, 6486612
27, 136, 2317377, 1334513, 2302392, 732618, 6686900
28, 139, 2415964, 1359002, 2400424, 759752, 6935142
29, 141, 2496695, 1371249, 2480600, 786886, 7135430
30, 143, 2577426, 1383496, 2560776, 814020, 7335718
31, 145, 2676013, 1395743, 2658808, 841154, 7571718
32, 147, 2756744, 1407990, 2738984, 868288, 7772006
33, 149, 2837475, 1420237, 2819160, 895422, 7972294
34, 151, 2918206, 1432484, 2899336, 922556, 8172582
35, 153, 3016793, 1444731, 2997368, 949690, 8408582
36, 155, 3097524, 1456978, 3077544, 976824, 8608870
37, 157, 3178255, 1469225, 3157720, 1003958, 8809158
38, 159, 3258986, 1481472, 3237896, 1031092, 9009446
39, 161, 3339717, 1493719, 3318072, 1058226, 9209734
40, 163, 3438304, 1505966, 3416104, 1085360, 9445734
41, 165, 3519035, 1518213, 3496280, 1112494, 9646022
42, 167, 3599766, 1530460, 3576456, 1139628, 9846310
43, 169, 3680497, 1542707, 3656632, 1166762, 10046598
44, 171, 3761228, 1554954, 3736808, 1193896, 10246886
45, 173, 3859815, 1567201, 3834840, 1221030, 10482886
46, 175, 3940546, 1579448, 3915016, 1248164, 10683174
47, 177, 4021277, 1591695, 3995192, 1275298, 10883462
48, 179, 4102008, 1603942, 4075368, 1302432, 11083750
49, 181, 4200595, 1616189, 4173400, 1329566, 11319750
50, 183, 4281326, 1628436, 4253576, 1356700, 11520038
51, 185, 4362057, 1640683, 4333752, 1383834, 11720326
52, 187, 4442788, 1652930, 4413928, 1410968, 11920614
53, 189, 4541375, 1665177, 4511960, 1438102, 12156614
54, 191, 4622106, 1677424, 4592136, 1465236, 12356902
55, 193, 4702837, 1689671, 4672312, 1492370, 12557190
56, 195, 4801424, 1701918, 4770344, 1519504, 12793190
57, 197, 4882155, 1714165, 4850520, 1546638, 12993478
58, 199, 4962886, 1726412, 4930696, 1573772, 13193766
59, 201, 5061473, 1738659, 5028728, 1600906, 13429766
60, 203, 5142204, 1750906, 5108904, 1628040, 13630054
61, 205, 5222935, 1763153, 5189080, 1655174, 13830342
62, 207, 5303666, 1775400, 5269256, 1682308, 14030630
63, 209, 5402253, 1787647, 5367288, 1709442, 14266630
64, 211, 5482984, 1799894, 5447464, 1736576, 14466918
65, 213, 5563715, 1812141, 5527640, 1763710, 14667206
66, 215, 5644446, 1824388, 5607816, 1790844, 14867494
67, 217, 5743033, 1836635, 5705848, 1817978, 15103494
68, 219, 5823764, 1848882, 5786024, 1845112, 15303782
69, 221, 5904495, 1861129, 5866200, 1872246, 15504070
70, 223, 6003082, 1873376, 5964232, 1899380, 15740070
71, 225, 6083813, 1885623, 6044408, 1926514, 15940358
72, 227, 6164544, 1897870, 6124584, 1953648, 16140646
73, 229, 6263131, 1910117, 6222616, 1980782, 16376646
74, 231, 6343862, 1922364, 6302792, 2007916, 16576934
75, 233, 6424593, 1934611, 6382968, 2035050, 16777222
76, 235, 6523180, 1946858, 6481000, 2062184, 17013222
77, 237, 6603911, 1959105, 6561176, 2089318, 17213510
78, 239, 6684642, 1971352, 6641352, 2116452, 17413798
79, 241, 6783229, 1983599, 6739384, 2143586, 17649798
80, 243, 6863960, 1995846, 6819560, 2170720, 17850086
81, 245, 6944691, 2008093, 6899736, 2197854, 18050374
82, 247, 7043278, 2020340, 6997768, 2224988, 18286374
83, 249, 7124009, 2032587, 7077944, 2252122, 18486662
84, 251, 7204740, 2044834, 7158120, 2279256, 18686950
85, 253, 7303327, 2057081, 7256152, 2306390, 18922950
86, 255, 7384058, 2069328, 7336328, 2333524, 19123238
87, 257, 7464789, 2081575, 7416504, 2360658, 19323526
88, 259, 7563376, 2093822, 7514536, 2387792, 19559526
89, 261, 7644107, 2106069, 7594712, 2414926, 19759814
90, 263, 7724838, 2118316, 7674888, 2442060, 19960102
91, 266, 7823582, 2142805, 7773077, 2469194, 20208658
92, 268, 7904313, 2155052, 7853253, 2496328, 20408946
93, 270, 7985044, 2167299, 7933429, 2523462, 20609234
94, 272, 8065775, 2179546, 8013605, 2550596, 20809522
95, 275, 8164519, 2204035, 8111794, 2577730, 21058078
96, 277, 8245250, 2216282, 8191970, 2604864, 21258366
97, 279, 8325981, 2228529, 8272146, 2631998, 21458654
98, 282, 8424725, 2253018, 8370335, 2659132, 21707210
99, 284, 8505456, 2265265, 8450511, 2686266, 21907498
100, 287, 8604200, 2289754, 8548700, 2713400, 22156054
101, 289, 8684931, 2302001, 8628876, 2740534, 22356342
102, 291, 8765662, 2314248, 8709052, 2767668, 22556630
103, 294, 8864406, 2338737, 8807241, 2794802, 22805186
104, 296, 8945137, 2350984, 8887417, 2821936, 23005474
105, 298, 9025868, 2363231, 8967593, 2849070, 23205762
106, 301, 9124612, 2387720, 9065782, 2876204, 23454318
107, 303, 9205343, 2399967, 9145958, 2903338, 23654606
108, 305, 9286074, 2412214, 9226134, 2930472, 23854894
109, 307, 9366805, 2424461, 9306310, 2957606, 24055182
110, 309, 9447536, 2436708, 9386486, 2984740, 24255470
111, 311, 9528267, 2448955, 9466662, 3011874, 24455758
112, 314, 9627011, 2473444, 9564851, 3039008, 24704314
113, 316, 9707742, 2485691, 9645027, 3066142, 24904602
114, 318, 9788473, 2497938, 9725203, 3093276, 25104890
115, 320, 9869204, 2510185, 9805379, 3120410, 25305178
116, 323, 9967948, 2534674, 9903568, 3147544, 25553734
117, 325, 10048679, 2546921, 9983744, 3174678, 25754022
118, 327, 10129410, 2559168, 10063920, 3201812, 25954310
119, 329, 10210141, 2571415, 10144096, 3228946, 26154598
120, 331, 10290872, 2583662, 10224272, 3256080, 26354886
121, 334, 10389616, 2608151, 10322461, 3283214, 26603442
122, 336, 10470347, 2620398, 10402637, 3310348, 26803730
123, 338, 10551078, 2632645, 10482813, 3337482, 27004018
124, 341, 10649665, 2657134, 10580845, 3364616, 27252260
125, 343, 10730396, 2669381, 10661021, 3391750, 27452548
126, 345, 10811127, 2681628, 10741197, 3418884, 27652836
127, 347, 10891858, 2693875, 10821373, 3446018, 27853124
128, 1510, 11190873, 16919084, 11119833, 3473152, 42702942
129, 1512, 11271604, 16931331, 11200009, 3500286, 42903230
130, 1514, 11352335, 16943578, 11280185, 3527420, 43103518
131, 1517, 11450922, 16968067, 11378217, 3554554, 43351760
132, 1519, 11531653, 16980314, 11458393, 3581688, 43552048
133, 1521, 11612384, 16992561, 11538569, 3608822, 43752336
134, 1524, 11710971, 17017050, 11636601, 3635956, 44000578
135, 1526, 11791702, 17029297, 11716777, 3663090, 44200866
136, 1528, 11872433, 17041544, 11796953, 3690224, 44401154
137, 1531, 11971020, 17066033, 11894985, 3717358, 44649396
138, 1533, 12051751, 17078280, 11975161, 3744492, 44849684
139, 1535, 12132482, 17090527, 12055337, 3771626, 45049972
140, 1538, 12231069, 17115016, 12153369, 3798760, 45298214
141, 1540, 12311800, 17127263, 12233545, 3825894, 45498502
142, 1542, 12392531, 17139510, 12313721, 3853028, 45698790
143, 1545, 12491118, 17163999, 12411753, 3880162, 45947032
144, 1547, 12571849, 17176246, 12491929, 3907296, 46147320
145, 1549, 12652580, 17188493, 12572105, 3934430, 46347608
146, 1552, 12751167, 17212982, 12670137, 3961564, 46595850
147, 1554, 12831898, 17225229, 12750313, 3988698, 46796138
148, 1556, 12912629, 17237476, 12830489, 4015832, 46996426
149, 1559, 13011216, 17261965, 12928521, 4042966, 47244668
150, 1561, 13091947, 17274212, 13008697, 4070100, 47444956
151, 1563, 13172678, 17286459, 13088873, 4097234, 47645244
152, 1565, 13271265, 17298706, 13186905, 4124368, 47881244
153, 1567, 13351996, 17310953, 13267081, 4151502, 48081532
154, 1569, 13432727, 17323200, 13347257, 4178636, 48281820
155, 1571, 13531314, 17335447, 13445289, 4205770, 48517820
156, 1573, 13612045, 17347694, 13525465, 4232904, 48718108
157, 1575, 13692776, 17359941, 13605641, 4260038, 48918396
158, 1578, 13791363, 17384430, 13703673, 4287172, 49166638
159, 1580, 13872094, 17396677, 13783849, 4314306, 49366926
160, 1582, 13952825, 17408924, 13864025, 4341440, 49567214
161, 1585, 14051569, 17433413, 13962214, 4368574, 49815770
162, 1587, 14132300, 17445660, 14042390, 4395708, 50016058
163, 1589, 14213031, 17457907, 14122566, 4422842, 50216346
164, 1591, 14293762, 17470154, 14202742, 4449976, 50416634
165, 1631, 14400654, 17947597, 14309079, 4477110, 51134440
166, 1633, 14481385, 17959844, 14389255, 4504244, 51334728
167, 1635, 14562116, 17972091, 14469431, 4531378, 51535016
168, 1638, 14660860, 17996580, 14567620, 4558512, 51783572
169, 1640, 14741591, 18008827, 14647796, 4585646, 51983860
170, 1642, 14822322, 18021074, 14727972, 4612780, 52184148
171, 1645, 14921066, 18045563, 14826161, 4639914, 52432704
172, 1647, 15001797, 18057810, 14906337, 4667048, 52632992
173, 1649, 15082528, 18070057, 14986513, 4694182, 52833280
174, 1652, 15181272, 18094546, 15084702, 4721316, 53081836
175, 1654, 15262003, 18106793, 15164878, 4748450, 53282124
176, 1656, 15342734, 18119040, 15245054, 4775584, 53482412
177, 1659, 15441478, 18143529, 15343243, 4802718, 53730968
178, 1661, 15522209, 18155776, 15423419, 4829852, 53931256
179, 1663, 15602940, 18168023, 15503595, 4856986, 54131544
180, 1665, 15683671, 18180270, 15583771, 4884120, 54331832
181, 1667, 15764402, 18192517, 15663947, 4911254, 54532120
182, 1669, 15845133, 18204764, 15744123, 4938388, 54732408
183, 1671, 15925864, 18217011, 15824299, 4965522, 54932696
184, 1674, 16024608, 18241500, 15922488, 4992656, 55181252
185, 1676, 16105339, 18253747, 16002664, 5019790, 55381540
186, 1678, 16186070, 18265994, 16082840, 5046924, 55581828
187, 1680, 16266801, 18278241, 16163016, 5074058, 55782116
188, 1682, 16347532, 18290488, 16243192, 5101192, 55982404
189, 1684, 16428263, 18302735, 16323368, 5128326, 56182692
190, 1687, 16527007, 18327224, 16421557, 5155460, 56431248
191, 1689, 16607738, 18339471, 16501733, 5182594, 56631536
192, 1691, 16688469, 18351718, 16581909, 5209728, 56831824
193, 1693, 16769200, 18363965, 16662085, 5236862, 57032112
194, 1695, 16849931, 18376212, 16742261, 5263996, 57232400
195, 1697, 16930662, 18388459, 16822437, 5291130, 57432688
196, 1700, 17029249, 18412948, 16920469, 5318264, 57680930
197, 1702, 17109980, 18425195, 17000645, 5345398, 57881218
198, 1704, 17190711, 18437442, 17080821, 5372532, 58081506
199, 1706, 17271442, 18449689, 17160997, 5399666, 58281794
200, 1737, 17376682, 18816954, 17265682, 5426800, 58886118
201, 1739, 17457413, 18829201, 17345858, 5453934, 59086406
202, 1741, 17538144, 18841448, 17426034, 5481068, 59286694
203, 1744, 17636731, 18865937, 17524066, 5508202, 59534936
204, 1746, 17717462, 18878184, 17604242, 5535336, 59735224
205, 1748, 17798193, 18890431, 17684418, 5562470, 59935512
206, 1751, 17896780, 18914920, 17782450, 5589604, 60183754
207, 1753, 17977511, 18927167, 17862626, 5616738, 60384042
208, 1755, 18058242, 18939414, 17942802, 5643872, 60584330
209, 1758, 18156829, 18963903, 18040834, 5671006, 60832572
210, 1760, 18237560, 18976150, 18121010, 5698140, 61032860
211, 1762, 18318291, 18988397, 18201186, 5725274, 61233148
212, 1765, 18416878, 19012886, 18299218, 5752408, 61481390
213, 1767, 18497609, 19025133, 18379394, 5779542, 61681678
214, 1769, 18578340, 19037380, 18459570, 5806676, 61881966
215, 1772, 18676927, 19061869, 18557602, 5833810, 62130208
216, 1774, 18757658, 19074116, 18637778, 5860944, 62330496
217, 1776, 18838389, 19086363, 18717954, 5888078, 62530784
218, 1779, 18936976, 19110852, 18815986, 5915212, 62779026
219, 1781, 19017707, 19123099, 18896162, 5942346, 62979314
220, 1783, 19098438, 19135346, 18976338, 5969480, 63179602
221, 1786, 19197025, 19159835, 19074370, 5996614, 63427844
222, 1788, 19277756, 19172082, 19154546, 6023748, 63628132
223, 1790, 19358487, 19184329, 19234722, 6050882, 63828420
224, 1792, 19457074, 19196576, 19332754, 6078016, 64064420
225, 1794, 19537805, 19208823, 19412930, 6105150, 64264708
226, 1796, 19618536, 19221070, 19493106, 6132284, 64464996
227, 1798, 19717123, 19233317, 19591138, 6159418, 64700996
228, 1800, 19797854, 19245564, 19671314, 6186552, 64901284
229, 1802, 19878585, 19257811, 19751490, 6213686, 65101572
230, 1804, 19959316, 19270058, 19831666, 6240820, 65301860
231, 1806, 20057903, 19282305, 19929698, 6267954, 65537860
232, 1808, 20138634, 19294552, 20009874, 6295088, 65738148
233, 1810, 20219365, 19306799, 20090050, 6322222, 65938436
234, 1812, 20300096, 19319046, 20170226, 6349356, 66138724
235, 1814, 20398683, 19331293, 20268258, 6376490, 66374724
236, 1816, 20479414, 19343540, 20348434, 6403624, 66575012
237, 1818, 20560145, 19355787, 20428610, 6430758, 66775300
238, 1820, 20658732, 19368034, 20526642, 6457892, 67011300
239, 1822, 20739463, 19380281, 20606818, 6485026, 67211588
240, 1824, 20820194, 19392528, 20686994, 6512160, 67411876
241, 1826, 20918781, 19404775, 20785026, 6539294, 67647876
242, 1828, 20999512, 19417022, 20865202, 6566428, 67848164
243, 1830, 21080243, 19429269, 20945378, 6593562, 68048452
244, 1832, 21178830, 19441516, 21043410, 6620696, 68284452
245, 1834, 21259561, 19453763, 21123586, 6647830, 68484740
246, 1836, 21340292, 19466010, 21203762, 6674964, 68685028
247, 1838, 21438879, 19478257, 21301794, 6702098, 68921028
248, 1840, 21519610, 19490504, 21381970, 6729232, 69121316
249, 1842, 21600341, 19502751, 21462146, 6756366, 69321604
250, 1845, 21698928, 19527240, 21560178, 6783500, 69569846
251, 1847, 21779659, 19539487, 21640354, 6810634, 69770134
252, 1849, 21860390, 19551734, 21720530, 6837768, 69970422
253, 1852, 21959134, 19576223, 21818719, 6864902, 70218978
254, 1854, 22039865, 19588470, 21898895, 6892036, 70419266
255, 1856, 22120596, 19600717, 21979071, 6919170, 70619554
256, 1914, 22229135, 20298516, 22087055, 6946304, 71561010
257, 1916, 22309866, 20310763, 22167231, 6973438, 71761298
258, 1918, 22390597, 20323010, 22247407, 7000572, 71961586
259, 1921, 22489341, 20347499, 22345596, 7027706, 72210142
260, 1923, 22570072, 20359746, 22425772, 7054840, 72410430
261, 1925, 22650803, 20371993, 22505948, 7081974, 72610718
262, 1928, 22749547, 20396482, 22604137, 7109108, 72859274
263, 1930, 22830278, 20408729, 22684313, 7136242, 73059562
264, 1932, 22911009, 20420976, 22764489, 7163376, 73259850
265, 1935, 23009753, 20445465, 22862678, 7190510, 73508406
266, 1937, 23090484, 20457712, 22942854, 7217644, 73708694
267, 1939, 23171215, 20469959, 23023030, 7244778, 73908982
268, 1942, 23269959, 20494448, 23121219, 7271912, 74157538
269, 1944, 23350690, 20506695, 23201395, 7299046, 74357826
270, 1946, 23431421, 20518942, 23281571, 7326180, 74558114
271, 1949, 23530165, 20543431, 23379760, 7353314, 74806670
272, 1951, 23610896, 20555678, 23459936, 7380448, 75006958
273, 1953, 23691627, 20567925, 23540112, 7407582, 75207246
274, 1955, 23772358, 20580172, 23620288, 7434716, 75407534
275, 1958, 23871102, 20604661, 23718477, 7461850, 75656090
276, 1960, 23951833, 20616908, 23798653, 7488984, 75856378
277, 1962, 24032564, 20629155, 23878829, 7516118, 76056666
278, 1964, 24113295, 20641402, 23959005, 7543252, 76256954
279, 1966, 24194026, 20653649, 24039181, 7570386, 76457242
280, 1969, 24292613, 20678138, 24137213, 7597520, 76705484
281, 1971, 24373344, 20690385, 24217389, 7624654, 76905772
282, 1973, 24454075, 20702632, 24297565, 7651788, 77106060
283, 1975, 24534806, 20714879, 24377741, 7678922, 77306348
284, 2025, 24646272, 21314742, 24488652, 7706056, 78155722
285, 2027, 24727003, 21326989, 24568828, 7733190, 78356010
286, 2029, 24807734, 21339236, 24649004, 7760324, 78556298
287, 2032, 24906321, 21363725, 24747036, 7787458, 78804540
288, 2034, 24987052, 21375972, 24827212, 7814592, 79004828
289, 2037, 25085639, 21400461, 24925244, 7841726, 79253070
290, 2039, 25166370, 21412708, 25005420, 7868860, 79453358
291, 2041, 25247101, 21424955, 25085596, 7895994, 79653646
292, 2044, 25345688, 21449444, 25183628, 7923128, 79901888
293, 2046, 25426419, 21461691, 25263804, 7950262, 80102176
294, 2048, 25507150, 21473938, 25343980, 7977396, 80302464
295, 2051, 25605737, 21498427, 25442012, 8004530, 80550706
296, 2053, 25686468, 21510674, 25522188, 8031664, 80750994
297, 2055, 25767199, 21522921, 25602364, 8058798, 80951282
298, 2058, 25865786, 21547410, 25700396, 8085932, 81199524
299, 2060, 25946517, 21559657, 25780572, 8113066, 81399812
300, 2062, 26027248, 21571904, 25860748, 8140200, 81600100
301, 2064, 26107979, 21584151, 25940924, 8167334, 81800388
302, 2067, 26206566, 21608640, 26038956, 8194468, 82048630
303, 2069, 26287297, 21620887, 26119132, 8221602, 82248918
304, 2071, 26368028, 21633134, 26199308, 8248736, 82449206
305, 2073, 26448759, 21645381, 26279484, 8275870, 82649494
306, 2076, 26547346, 21669870, 26377516, 8303004, 82897736
307, 2078, 26628077, 21682117, 26457692, 8330138, 83098024
308, 2080, 26708808, 21694364, 26537868, 8357272, 83298312
309, 2082, 26789539, 21706611, 26618044, 8384406, 83498600
310, 2085, 26888126, 21731100, 26716076, 8411540, 83746842
311, 2087, 26968857, 21743347, 26796252, 8438674, 83947130
312, 2089, 27049588, 21755594, 26876428, 8465808, 84147418
313, 2091, 27130319, 21767841, 26956604, 8492942, 84347706
314, 2093, 27228906, 21780088, 27054636, 8520076, 84583706
315, 2095, 27309637, 21792335, 27134812, 8547210, 84783994
316, 2097, 27390368, 21804582, 27214988, 8574344, 84984282
317, 2100, 27488955, 21829071, 27313020, 8601478, 85232524
318, 2102, 27569686, 21841318, 27393196, 8628612, 85432812
319, 2104, 27650417, 21853565, 27473372, 8655746, 85633100
320, 2107, 27749161, 21878054, 27571561, 8682880, 85881656
321, 2109, 27829892, 21890301, 27651737, 8710014, 86081944
322, 2111, 27910623, 21902548, 27731913, 8737148, 86282232
323, 2114, 28009367, 21927037, 27830102, 8764282, 86530788
324, 2116, 28090098, 21939284, 27910278, 8791416, 86731076
325, 2118, 28170829, 21951531, 27990454, 8818550, 86931364
326, 2121, 28269573, 21976020, 28088643, 8845684, 87179920
327, 2123, 28350304, 21988267, 28168819, 8872818, 87380208
328, 2125, 28431035, 22000514, 28248995, 8899952, 87580496
329, 2128, 28529779, 22025003, 28347184, 8927086, 87829052
330, 2130, 28610510, 22037250, 28427360, 8954220, 88029340
331, 2133, 28709254, 22061739, 28525549, 8981354, 88277896
332, 2135, 28789985, 22073986, 28605725, 9008488, 88478184
333, 2138, 28888729, 22098475, 28703914, 9035622, 88726740
334, 2140, 28969460, 22110722, 28784090, 9062756, 88927028
335, 2142, 29050191, 22122969, 28864266, 9089890, 89127316
336, 2145, 29148935, 22147458, 28962455, 9117024, 89375872
337, 2147, 29229666, 22159705, 29042631, 9144158, 89576160
338, 2149, 29310397, 22171952, 29122807, 9171292, 89776448
339, 2151, 29391128, 22184199, 29202983, 9198426, 89976736
340, 2153, 29471859, 22196446, 29283159, 9225560, 90177024
341, 2156, 29570603, 22220935, 29381348, 9252694, 90425580
342, 2158, 29651334, 22233182, 29461524, 9279828, 90625868
343, 2160, 29732065, 22245429, 29541700, 9306962, 90826156
344, 2162, 29812796, 22257676, 29621876, 9334096, 91026444
345, 2164, 29893527, 22269923, 29702052, 9361230, 91226732
346, 2167, 29992114, 22294412, 29800084, 9388364, 91474974
347, 2169, 30072845, 22306659, 29880260, 9415498, 91675262
348, 2171, 30153576, 22318906, 29960436, 9442632, 91875550
349, 2595, 30328696, 27497277, 30135001, 9469766, 97430740
350, 2597, 30409427, 27509524, 30215177, 9496900, 97631028
351, 2599, 30490158, 27521771, 30295353, 9524034, 97831316
352, 2603, 30588914, 27558502, 30393554, 9551168, 98092138
353, 2605, 30669645, 27570749, 30473730, 9578302, 98292426
354, 2607, 30750376, 27582996, 30553906, 9605436, 98492714
355, 2610, 30848963, 27607485, 30651938, 9632570, 98740956
356, 2612, 30929694, 27619732, 30732114, 9659704, 98941244
357, 2614, 31010425, 27631979, 30812290, 9686838, 99141532
358, 2617, 31109012, 27656468, 30910322, 9713972, 99389774
359, 2619, 31189743, 27668715, 30990498, 9741106, 99590062
360, 2621, 31270474, 27680962, 31070674, 9768240, 99790350
361, 2623, 31351205, 27693209, 31150850, 9795374, 99990638
362, 2626, 31449792, 27717698, 31248882, 9822508, 100238880
363, 2628, 31530523, 27729945, 31329058, 9849642, 100439168
364, 2630, 31611254, 27742192, 31409234, 9876776, 100639456
365, 2633, 31709841, 27766681, 31507266, 9903910, 100887698
366, 2635, 31790572, 27778928, 31587442, 9931044, 101087986
367, 2637, 31871303, 27791175, 31667618, 9958178, 101288274
368, 2639, 31952034, 27803422, 31747794, 9985312, 101488562
369, 2642, 32050621, 27827911, 31845826, 10012446, 101736804
370, 2644, 32131352, 27840158, 31926002, 10039580, 101937092
371, 2646, 32212083, 27852405, 32006178, 10066714, 102137380
372, 2648, 32292814, 27864652, 32086354, 10093848, 102337668
373, 2650, 32373545, 27876899, 32166530, 10120982, 102537956
374, 2653, 32472132, 27901388, 32264562, 10148116, 102786198
375, 2655, 32552863, 27913635, 32344738, 10175250, 102986486
376, 2657, 32633594, 27925882, 32424914, 10202384, 103186774
377, 2659, 32714325, 27938129, 32505090, 10229518, 103387062
378, 2661, 32795056, 27950376, 32585266, 10256652, 103587350
379, 2663, 32875787, 27962623, 32665442, 10283786, 103787638
380, 2665, 32956518, 27974870, 32745618, 10310920, 103987926
381, 2667, 33037249, 27987117, 32825794, 10338054, 104188214
382, 2669, 33135836, 27999364, 32923826, 10365188, 104424214
383, 2671, 33216567, 28011611, 33004002, 10392322, 104624502
384, 2673, 33297298, 28023858, 33084178, 10419456, 104824790
385, 2675, 33378029, 28036105, 33164354, 10446590, 105025078
386, 2677, 33458760, 28048352, 33244530, 10473724, 105225366
387, 2679, 33539491, 28060599, 33324706, 10500858, 105425654
388, 2681, 33620222, 28072846, 33404882, 10527992, 105625942
389, 2683, 33700953, 28085093, 33485058, 10555126, 105826230
390, 2685, 33799540, 28097340, 33583090, 10582260, 106062230
391, 2687, 33880271, 28109587, 33663266, 10609394, 106262518
392, 2689, 33961002, 28121834, 33743442, 10636528, 106462806
393, 2691, 34041733, 28134081, 33823618, 10663662, 106663094
394, 2693, 34122464, 28146328, 33903794, 10690796, 106863382
395, 2695, 34203195, 28158575, 33983970, 10717930, 107063670
396, 2697, 34301782, 28170822, 34082002, 10745064, 107299670
397, 2699, 34382513, 28183069, 34162178, 10772198, 107499958
398, 2701, 34463244, 28195316, 34242354, 10799332, 107700246
399, 2703, 34543975, 28207563, 34322530, 10826466, 107900534
400, 2705, 34642562, 28219810, 34420562, 10853600, 108136534
401, 2707, 34723293, 28232057, 34500738, 10880734, 108336822
402, 2709, 34804024, 28244304, 34580914, 10907868, 108537110
403, 2711, 34884755, 28256551, 34661090, 10935002, 108737398
404, 2713, 34983342, 28268798, 34759122, 10962136, 108973398
405, 2715, 35064073, 28281045, 34839298, 10989270, 109173686
406, 2717, 35144804, 28293292, 34919474, 11016404, 109373974
407, 2719, 35243391, 28305539, 35017506, 11043538, 109609974
408, 2721, 35324122, 28317786, 35097682, 11070672, 109810262
409, 2723, 35404853, 28330033, 35177858, 11097806, 110010550
410, 2725, 35503440, 28342280, 35275890, 11124940, 110246550
411, 2727, 35584171, 28354527, 35356066, 11152074, 110446838
412, 2729, 35664902, 28366774, 35436242, 11179208, 110647126
413, 2731, 35763489, 28379021, 35534274, 11206342, 110883126
414, 2733, 35844220, 28391268, 35614450, 11233476, 111083414
415, 2735, 35924951, 28403515, 35694626, 11260610, 111283702
416, 2737, 36023538, 28415762, 35792658, 11287744, 111519702
417, 2739, 36104269, 28428009, 35872834, 11314878, 111719990
418, 2741, 36185000, 28440256, 35953010, 11342012, 111920278
419, 2744, 36283744, 28464745, 36051199, 11369146, 112168834
420, 2746, 36364475, 28476992, 36131375, 11396280, 112369122
421, 2748, 36445206, 28489239, 36211551, 11423414, 112569410
422, 2750, 36525937, 28501486, 36291727, 11450548, 112769698
423, 2752, 36606668, 28513733, 36371903, 11477682, 112969986
424, 2755, 36705412, 28538222, 36470092, 11504816, 113218542
425, 2757, 36786143, 28550469, 36550268, 11531950, 113418830
426, 2759, 36866874, 28562716, 36630444, 11559084, 113619118
427, 2762, 36965618, 28587205, 36728633, 11586218, 113867674
428, 2764, 37046349, 28599452, 36808809, 11613352, 114067962
429, 2766, 37127080, 28611699, 36888985, 11640486, 114268250
430, 2769, 37225824, 28636188, 36987174, 11667620, 114516806
431, 2771, 37306555, 28648435, 37067350, 11694754, 114717094
432, 2773, 37387286, 28660682, 37147526, 11721888, 114917382
433, 2775, 37468017, 28672929, 37227702, 11749022, 115117670
434, 2777, 37548748, 28685176, 37307878, 11776156, 115317958
435, 2779, 37629479, 28697423, 37388054, 11803290, 115518246
436, 2782, 37728223, 28721912, 37486243, 11830424, 115766802
437, 2784, 37808954, 28734159, 37566419, 11857558, 115967090
438, 2786, 37889685, 28746406, 37646595, 11884692, 116167378
439, 2788, 37970416, 28758653, 37726771, 11911826, 116367666
440, 2791, 38069160, 28783142, 37824960, 11938960, 116616222
441, 2793, 38149891, 28795389, 37905136, 11966094, 116816510
442, 2795, 38230622, 28807636, 37985312, 11993228, 117016798
443, 2797, 38311353, 28819883, 38065488, 12020362, 117217086
444, 2799, 38392084, 28832130, 38145664, 12047496, 117417374
445, 2802, 38490828, 28856619, 38243853, 12074630, 117665930
446, 2804, 38571559, 28868866, 38324029, 12101764, 117866218
447, 2806, 38652290, 28881113, 38404205, 12128898, 118066506
448, 2809, 38750877, 28905602, 38502237, 12156032, 118314748
449, 2811, 38831608, 28917849, 38582413, 12183166, 118515036
450, 2813, 38912339, 28930096, 38662589, 12210300, 118715324
451, 2815, 38993070, 28942343, 38742765, 12237434, 118915612
452, 2952, 39121011, 30607260, 38870151, 12264568, 120862990
453, 2954, 39201742, 30619507, 38950327, 12291702, 121063278
454, 2956, 39282473, 30631754, 39030503, 12318836, 121263566
455, 2959, 39381060, 30656243, 39128535, 12345970, 121511808
456, 2961, 39461791, 30668490, 39208711, 12373104, 121712096
457, 2963, 39542522, 30680737, 39288887, 12400238, 121912384
458, 2966, 39641109, 30705226, 39386919, 12427372, 122160626
459, 2968, 39721840, 30717473, 39467095, 12454506, 122360914
460, 2970, 39802571, 30729720, 39547271, 12481640, 122561202
461, 2973, 39901158, 30754209, 39645303, 12508774, 122809444
462, 2975, 39981889, 30766456, 39725479, 12535908, 123009732
463, 2977, 40062620, 30778703, 39805655, 12563042, 123210020
464, 2980, 40161207, 30803192, 39903687, 12590176, 123458262
465, 2982, 40241938, 30815439, 39983863, 12617310, 123658550
466, 2984, 40322669, 30827686, 40064039, 12644444, 123858838
467, 2987, 40421256, 30852175, 40162071, 12671578, 124107080
468, 2989, 40501987, 30864422, 40242247, 12698712, 124307368
469, 2991, 40582718, 30876669, 40322423, 12725846, 124507656
470, 2994, 40681305, 30901158, 40420455, 12752980, 124755898
471, 2996, 40762036, 30913405, 40500631, 12780114, 124956186
472, 2998, 40842767, 30925652, 40580807, 12807248, 125156474
473, 3001, 40941354, 30950141, 40678839, 12834382, 125404716
474, 3003, 41022085, 30962388, 40759015, 12861516, 125605004
475, 3005, 41102816, 30974635, 40839191, 12888650, 125805292
476, 3007, 41201403, 30986882, 40937223, 12915784, 126041292
477, 3009, 41282134, 30999129, 41017399, 12942918, 126241580
478, 3011, 41362865, 31011376, 41097575, 12970052, 126441868
479, 3013, 41461452, 31023623, 41195607, 12997186, 126677868
480, 3015, 41542183, 31035870, 41275783, 13024320, 126878156
481, 3017, 41622914, 31048117, 41355959, 13051454, 127078444
482, 3019, 41721501, 31060364, 41453991, 13078588, 127314444
483, 3021, 41802232, 31072611, 41534167, 13105722, 127514732
484, 3023, 41882963, 31084858, 41614343, 13132856, 127715020
485, 3026, 41981707, 31109347, 41712532, 13159990, 127963576
486, 3028, 42062438, 31121594, 41792708, 13187124, 128163864
487, 3030, 42143169, 31133841, 41872884, 13214258, 128364152
488, 3032, 42223900, 31146088, 41953060, 13241392, 128564440
489, 3035, 42322644, 31170577, 42051249, 13268526, 128812996
490, 3037, 42403375, 31182824, 42131425, 13295660, 129013284
491, 3039, 42484106, 31195071, 42211601, 13322794, 129213572
492, 3042, 42582850, 31219560, 42309790, 13349928, 129462128
493, 3044, 42663581, 31231807, 42389966, 13377062, 129662416
494, 3046, 42744312, 31244054, 42470142, 13404196, 129862704
495, 3049, 42843056, 31268543, 42568331, 13431330, 130111260
496, 3051, 42923787, 31280790, 42648507, 13458464, 130311548
497, 3053, 43004518, 31293037, 42728683, 13485598, 130511836
498, 3055, 43085249, 31305284, 42808859, 13512732, 130712124
499, 3058, 43183993, 31329773, 42907048, 13539866, 130960680
500, 3060, 43264724, 31342020, 42987224, 13567000, 131160968
501, 3062, 43345455, 31354267, 43067400, 13594134, 131361256
502, 3064, 43426186, 31366514, 43147576, 13621268, 131561544
503, 3066, 43506917, 31378761, 43227752, 13648402, 131761832
504, 3068, 43587648, 31391008, 43307928, 13675536, 131962120
505, 3070, 43668379, 31403255, 43388104, 13702670, 132162408
506, 3073, 43767123, 31427744, 43486293, 13729804, 132410964
507, 3075, 43847854, 31439991, 43566469, 13756938, 132611252
508, 3077, 43928585, 31452238, 43646645, 13784072, 132811540
509, 3079, 44009316, 31464485, 43726821, 13811206, 133011828
510, 3081, 44090047, 31476732, 43806997, 13838340, 133212116
511, 3083, 44170778, 31488979, 43887173, 13865474, 133412404
512, 3085, 44251509, 31501226, 43967349, 13892608, 133612692
513, 3088, 44350253, 31525715, 44065538, 13919742, 133861248
514, 3090, 44430984, 31537962, 44145714, 13946876, 134061536
515, 3092, 44511715, 31550209, 44225890, 13974010, 134261824
516, 3095, 44610302, 31574698, 44323922, 14001144, 134510066
517, 3097, 44691033, 31586945, 44404098, 14028278, 134710354
518, 3099, 44771764, 31599192, 44484274, 14055412, 134910642
519, 3146, 44880480, 32162329, 44592435, 14082546, 135717790
520, 3148, 44961211, 32174576, 44672611, 14109680, 135918078
521, 3150, 45041942, 32186823, 44752787, 14136814, 136118366
522, 3153, 45140529, 32211312, 44850819, 14163948, 136366608
523, 3155, 45221260, 32223559, 44930995, 14191082, 136566896
524, 3157, 45301991, 32235806, 45011171, 14218216, 136767184
525, 3160, 45400578, 32260295, 45109203, 14245350, 137015426
526, 3162, 45481309, 32272542, 45189379, 14272484, 137215714
527, 3164, 45562040, 32284789, 45269555, 14299618, 137416002
528, 3167, 45660627, 32309278, 45367587, 14326752, 137664244
529, 3169, 45741358, 32321525, 45447763, 14353886, 137864532
530, 3171, 45822089, 32333772, 45527939, 14381020, 138064820
531, 3174, 45920676, 32358261, 45625971, 14408154, 138313062
532, 3176, 46001407, 32370508, 45706147, 14435288, 138513350
533, 3178, 46082138, 32382755, 45786323, 14462422, 138713638
534, 3181, 46180725, 32407244, 45884355, 14489556, 138961880
535, 3183, 46261456, 32419491, 45964531, 14516690, 139162168
536, 3185, 46342187, 32431738, 46044707, 14543824, 139362456
537, 3188, 46440774, 32456227, 46142739, 14570958, 139610698
538, 3190, 46521505, 32468474, 46222915, 14598092, 139810986
539, 3192, 46602236, 32480721, 46303091, 14625226, 140011274
540, 3195, 46700823, 32505210, 46401123, 14652360, 140259516
541, 3197, 46781554, 32517457, 46481299, 14679494, 140459804
542, 3199, 46862285, 32529704, 46561475, 14706628, 140660092
543, 3201, 46960872, 32541951, 46659507, 14733762, 140896092
544, 3203, 47041603, 32554198, 46739683, 14760896, 141096380
545, 3205, 47122334, 32566445, 46819859, 14788030, 141296668
546, 3207, 47220921, 32578692, 46917891, 14815164, 141532668
547, 3209, 47301652, 32590939, 46998067, 14842298, 141732956
548, 3211, 47382383, 32603186, 47078243, 14869432, 141933244
549, 3213, 47480970, 32615433, 47176275, 14896566, 142169244
550, 3215, 47561701, 32627680, 47256451, 14923700, 142369532
551, 3217, 47642432, 32639927, 47336627, 14950834, 142569820
552, 3219, 47723163, 32652174, 47416803, 14977968, 142770108
553, 3221, 47821750, 32664421, 47514835, 15005102, 143006108
554, 3223, 47902481, 32676668, 47595011, 15032236, 143206396
555, 3225, 47983212, 32688915, 47675187, 15059370, 143406684
556, 3227, 48081799, 32701162, 47773219, 15086504, 143642684
557, 3229, 48162530, 32713409, 47853395, 15113638, 143842972
558, 3231, 48243261, 32725656, 47933571, 15140772, 144043260
559, 3233, 48341848, 32737903, 48031603, 15167906, 144279260
560, 3235, 48422579, 32750150, 48111779, 15195040, 144479548
561, 3237, 48503310, 32762397, 48191955, 15222174, 144679836
562, 3239, 48601897, 32774644, 48289987, 15249308, 144915836
563, 3241, 48682628, 32786891, 48370163, 15276442, 145116124
564, 3243, 48763359, 32799138, 48450339, 15303576, 145316412
565, 3245, 48861946, 32811385, 48548371, 15330710, 145552412
566, 3247, 48942677, 32823632, 48628547, 15357844, 145752700
567, 3249, 49023408, 32835879, 48708723, 15384978, 145952988
568, 3251, 49121995, 32848126, 48806755, 15412112, 146188988
569, 3253, 49202726, 32860373, 48886931, 15439246, 146389276
570, 3255, 49283457, 32872620, 48967107, 15466380, 146589564
571, 3258, 49382044, 32897109, 49065139, 15493514, 146837806
572, 3260, 49462775, 32909356, 49145315, 15520648, 147038094
573, 3262, 49543506, 32921603, 49225491, 15547782, 147238382
574, 3265, 49642250, 32946092, 49323680, 15574916, 147486938
575, 3267, 49722981, 32958339, 49403856, 15602050, 147687226
576, 3269, 49803712, 32970586, 49484032, 15629184, 147887514
577, 3304, 49908196, 33386819, 49587961, 15656318, 148539294
578, 3306, 49988927, 33399066, 49668137, 15683452, 148739582
579, 3308, 50069658, 33411313, 49748313, 15710586, 148939870
580, 3311, 50168402, 33435802, 49846502, 15737720, 149188426
581, 3313, 50249133, 33448049, 49926678, 15764854, 149388714
582, 3315, 50329864, 33460296, 50006854, 15791988, 149589002
583, 3318, 50428608, 33484785, 50105043, 15819122, 149837558
584, 3320, 50509339, 33497032, 50185219, 15846256, 150037846
585, 3322, 50590070, 33509279, 50265395, 15873390, 150238134
586, 3325, 50688814, 33533768, 50363584, 15900524, 150486690
587, 3327, 50769545, 33546015, 50443760, 15927658, 150686978
588, 3329, 50850276, 33558262, 50523936, 15954792, 150887266
589, 3332, 50949020, 33582751, 50622125, 15981926, 151135822
590, 3334, 51029751, 33594998, 50702301, 16009060, 151336110
591, 3336, 51110482, 33607245, 50782477, 16036194, 151536398
592, 3339, 51209226, 33631734, 50880666, 16063328, 151784954
593, 3341, 51289957, 33643981, 50960842, 16090462, 151985242
594, 3343, 51370688, 33656228, 51041018, 16117596, 152185530
595, 3345, 51451419, 33668475, 51121194, 16144730, 152385818
596, 3348, 51550163, 33692964, 51219383, 16171864, 152634374
597, 3350, 51630894, 33705211, 51299559, 16198998, 152834662
598, 3352, 51711625, 33717458, 51379735, 16226132, 153034950
599, 3354, 51792356, 33729705, 51459911, 16253266, 153235238
600, 3357, 51890943, 33754194, 51557943, 16280400, 153483480
601, 3359, 51971674, 33766441, 51638119, 16307534, 153683768
602, 3361, 52052405, 33778688, 51718295, 16334668, 153884056
603, 3363, 52133136, 33790935, 51798471, 16361802, 154084344
604, 3404, 52255805, 34280620, 51920585, 16388936, 154845946
605, 3406, 52336536, 34292867, 52000761, 16416070, 155046234
606, 3408, 52417267, 34305114, 52080937, 16443204, 155246522
607, 3411, 52515854, 34329603, 52178969, 16470338, 155494764
608, 3413, 52596585, 34341850, 52259145, 16497472, 155695052
609, 3416, 52695172, 34366339, 52357177, 16524606, 155943294
610, 3418, 52775903, 34378586, 52437353, 16551740, 156143582
611, 3421, 52874490, 34403075, 52535385, 16578874, 156391824
612, 3423, 52955221, 34415322, 52615561, 16606008, 156592112
613, 3425, 53035952, 34427569, 52695737, 16633142, 156792400
614, 3428, 53134539, 34452058, 52793769, 16660276, 157040642
615, 3430, 53215270, 34464305, 52873945, 16687410, 157240930
616, 3432, 53296001, 34476552, 52954121, 16714544, 157441218
617, 3435, 53394588, 34501041, 53052153, 16741678, 157689460
618, 3437, 53475319, 34513288, 53132329, 16768812, 157889748
619, 3439, 53556050, 34525535, 53212505, 16795946, 158090036
620, 3441, 53636781, 34537782, 53292681, 16823080, 158290324
621, 3444, 53735368, 34562271, 53390713, 16850214, 158538566
622, 3446, 53816099, 34574518, 53470889, 16877348, 158738854
623, 3448, 53896830, 34586765, 53551065, 16904482, 158939142
624, 3450, 53977561, 34599012, 53631241, 16931616, 159139430
625, 3453, 54076148, 34623501, 53729273, 16958750, 159387672
626, 3455, 54156879, 34635748, 53809449, 16985884, 159587960
627, 3457, 54237610, 34647995, 53889625, 17013018, 159788248
628, 3459, 54318341, 34660242, 53969801, 17040152, 159988536
629, 3462, 54416928, 34684731, 54067833, 17067286, 160236778
630, 3464, 54497659, 34696978, 54148009, 17094420, 160437066
631, 3466, 54578390, 34709225, 54228185, 17121554, 160637354
632, 3468, 54676977, 34721472, 54326217, 17148688, 160873354
633, 3470, 54757708, 34733719, 54406393, 17175822, 161073642
634, 3472, 54838439, 34745966, 54486569, 17202956, 161273930
635, 3474, 54919170, 34758213, 54566745, 17230090, 161474218
636, 3476, 55017757, 34770460, 54664777, 17257224, 161710218
637, 3478, 55098488, 34782707, 54744953, 17284358, 161910506
638, 3480, 55179219, 34794954, 54825129, 17311492, 162110794
