timestep, iters, adds, subs, mults, divs, total
1, 3, 372932, 24489, 370193, 27134, 794748
2, 81, 385981, 979365, 383242, 27134, 1775722
3, 9, 373777, 97941, 371038, 27134, 869890
4, 3, 372775, 24489, 370036, 27134, 794434
5, 3, 372775, 24489, 370036, 27134, 794434
6, 3, 372944, 24489, 370205, 27134, 794772
7, 3, 372948, 24489, 370209, 27134, 794780
8, 4, 372948, 36731, 370209, 27134, 807022
9, 5, 373117, 48973, 370378, 27134, 819602
10, 5, 373117, 48973, 370378, 27134, 819602
11, 5, 373282, 48973, 370543, 27134, 819932
12, 3, 372775, 24489, 370036, 27134, 794434
13, 3, 372775, 24489, 370036, 27134, 794434
14, 3, 372775, 24489, 370036, 27134, 794434
15, 3, 372775, 24489, 370036, 27134, 794434
16, 3, 372775, 24489, 370036, 27134, 794434
17, 3, 372775, 24489, 370036, 27134, 794434
18, 3, 372775, 24489, 370036, 27134, 794434
19, 3, 372775, 24489, 370036, 27134, 794434
20, 3, 372775, 24489, 370036, 27134, 794434
21, 3, 372775, 24489, 370036, 27134, 794434
22, 3, 372775, 24489, 370036, 27134, 794434
23, 3, 372775, 24489, 370036, 27134, 794434
24, 3, 372775, 24489, 370036, 27134, 794434
25, 3, 372775, 24489, 370036, 27134, 794434
26, 3, 372932, 24489, 370193, 27134, 794748
27, 6, 374422, 61215, 371683, 27134, 834454
28, 4, 373121, 36731, 370382, 27134, 807368
29, 6, 373494, 61215, 370755, 27134, 832598
30, 9, 374093, 97941, 371354, 27134, 870522
31, 15, 375471, 171393, 372732, 27134, 946730
32, 19, 375895, 220361, 373156, 27134, 996546
33, 180, 404804, 2191323, 402065, 27134, 3025326
34, 815, 511387, 9964993, 508648, 27134, 11012162
35, 379, 440907, 4627481, 438168, 27134, 5533690
36, 65, 389773, 783493, 387034, 27134, 1587434
37, 3, 372956, 24489, 370217, 27134, 794796
38, 3, 372775, 24489, 370036, 27134, 794434
39, 3, 372775, 24489, 370036, 27134, 794434
40, 4, 372992, 36731, 370253, 27134, 807110
41, 4, 372992, 36731, 370253, 27134, 807110
42, 8, 373860, 85699, 371121, 27134, 857814
43, 7, 373643, 73457, 370904, 27134, 845138
44, 14, 375162, 159151, 372423, 27134, 933870
45, 3, 372775, 24489, 370036, 27134, 794434
46, 40, 381516, 477443, 378777, 27134, 1264870
47, 17, 376965, 195877, 374226, 27134, 974202
48, 47, 389483, 563137, 386744, 27134, 1366498
49, 5, 373105, 48973, 370366, 27134, 819578
50, 3, 372932, 24489, 370193, 27134, 794748
51, 3, 372932, 24489, 370193, 27134, 794748
52, 3, 372932, 24489, 370193, 27134, 794748
53, 17, 375362, 195877, 372623, 27134, 970996
54, 10, 374302, 110183, 371563, 27134, 883182
55, 21, 377297, 244845, 374558, 27134, 1023834
56, 9, 376569, 97941, 373830, 27134, 875474
57, 3, 372775, 24489, 370036, 27134, 794434
58, 3, 372775, 24489, 370036, 27134, 794434
59, 3, 372775, 24489, 370036, 27134, 794434
60, 5, 373217, 48973, 370478, 27134, 819802
61, 3, 372775, 24489, 370036, 27134, 794434
62, 10, 374322, 110183, 371583, 27134, 883222
63, 3, 372775, 24489, 370036, 27134, 794434
64, 3, 372775, 24489, 370036, 27134, 794434
65, 3, 372775, 24489, 370036, 27134, 794434
66, 14, 375367, 159151, 372628, 27134, 934280
67, 6, 373282, 61215, 370543, 27134, 832174
68, 11, 374495, 122425, 371756, 27134, 895810
69, 3, 372775, 24489, 370036, 27134, 794434
70, 6, 373438, 61215, 370699, 27134, 832486
71, 3, 372775, 24489, 370036, 27134, 794434
72, 38, 381267, 452959, 378528, 27134, 1239888
73, 30, 378850, 355023, 376111, 27134, 1137118
74, 168, 415392, 2044419, 412653, 27134, 2899598
75, 8, 373728, 85699, 370989, 27134, 857550
76, 6, 373438, 61215, 370699, 27134, 832486
77, 8, 373880, 85699, 371141, 27134, 857854
78, 13, 374985, 146909, 372246, 27134, 921274
79, 22, 376974, 257087, 374235, 27134, 1035430
80, 18, 376146, 208119, 373407, 27134, 984806
81, 14, 374590, 159151, 371851, 27134, 932726
82, 45, 382665, 538653, 379926, 27134, 1328378
83, 3, 372775, 24489, 370036, 27134, 794434
84, 3, 372775, 24489, 370036, 27134, 794434
85, 3, 372775, 24489, 370036, 27134, 794434
86, 3, 372775, 24489, 370036, 27134, 794434
87, 3, 372775, 24489, 370036, 27134, 794434
88, 3, 372775, 24489, 370036, 27134, 794434
89, 3, 372775, 24489, 370036, 27134, 794434
90, 3, 372775, 24489, 370036, 27134, 794434
91, 3, 372775, 24489, 370036, 27134, 794434
92, 7, 373800, 73457, 371061, 27134, 845452
93, 15, 375427, 171393, 372688, 27134, 946642
94, 33, 378293, 391749, 375554, 27134, 1172730
95, 66, 383494, 795735, 380755, 27134, 1587118
96, 74, 384898, 893671, 382159, 27134, 1687862
97, 138, 395902, 1677159, 393163, 27134, 2493358
98, 224, 410644, 2729971, 407905, 27134, 3575654
99, 324, 428972, 3954171, 426233, 27134, 4836510
100, 531, 463819, 6488265, 461080, 27134, 7440298
101, 463, 461143, 5655809, 458404, 27134, 6602490
102, 73, 391853, 881429, 389114, 27134, 1689530
103, 3, 372775, 24489, 370036, 27134, 794434
104, 4, 372956, 36731, 370217, 27134, 807038
105, 4, 372956, 36731, 370217, 27134, 807038
106, 5, 373133, 48973, 370394, 27134, 819634
107, 4, 372944, 36731, 370205, 27134, 807014
108, 3, 372775, 24489, 370036, 27134, 794434
109, 3, 372775, 24489, 370036, 27134, 794434
110, 3, 372775, 24489, 370036, 27134, 794434
111, 3, 372775, 24489, 370036, 27134, 794434
112, 3, 372775, 24489, 370036, 27134, 794434
113, 3, 372775, 24489, 370036, 27134, 794434
114, 3, 372775, 24489, 370036, 27134, 794434
115, 3, 372775, 24489, 370036, 27134, 794434
116, 3, 372775, 24489, 370036, 27134, 794434
117, 3, 372775, 24489, 370036, 27134, 794434
118, 3, 372775, 24489, 370036, 27134, 794434
119, 27, 379244, 318297, 376505, 27134, 1101180
120, 50, 399290, 599863, 396551, 27134, 1422838
121, 94, 388718, 1138511, 385979, 27134, 1940342
122, 16, 375724, 183635, 372985, 27134, 959478
123, 42, 380026, 501927, 377287, 27134, 1286374
124, 228, 413600, 2778939, 410861, 27134, 3630534
125, 662, 485006, 8091967, 482267, 27134, 9086374
126, 161, 399797, 1958725, 397058, 27134, 2782714
127, 50, 384966, 599863, 382227, 27134, 1394190
128, 3, 372956, 24489, 370217, 27134, 794796
129, 3, 372775, 24489, 370036, 27134, 794434
130, 3, 372775, 24489, 370036, 27134, 794434
131, 3, 372775, 24489, 370036, 27134, 794434
132, 3, 372775, 24489, 370036, 27134, 794434
133, 3, 372775, 24489, 370036, 27134, 794434
134, 3, 372775, 24489, 370036, 27134, 794434
135, 3, 372775, 24489, 370036, 27134, 794434
136, 3, 372775, 24489, 370036, 27134, 794434
137, 3, 372775, 24489, 370036, 27134, 794434
138, 29, 379153, 342781, 376414, 27134, 1125482
139, 14, 380854, 159151, 378115, 27134, 945254
140, 5, 373105, 48973, 370366, 27134, 819578
141, 3, 372932, 24489, 370193, 27134, 794748
142, 3, 372932, 24489, 370193, 27134, 794748
143, 13, 374618, 146909, 371879, 27134, 920540
144, 24, 377440, 281571, 374701, 27134, 1060846
145, 22, 376950, 257087, 374211, 27134, 1035382
146, 30, 382462, 355023, 379723, 27134, 1144342
147, 3, 372775, 24489, 370036, 27134, 794434
148, 3, 372775, 24489, 370036, 27134, 794434
149, 3, 372775, 24489, 370036, 27134, 794434
150, 3, 372775, 24489, 370036, 27134, 794434
151, 3, 372775, 24489, 370036, 27134, 794434
152, 3, 372775, 24489, 370036, 27134, 794434
153, 3, 372775, 24489, 370036, 27134, 794434
154, 3, 372775, 24489, 370036, 27134, 794434
155, 3, 372775, 24489, 370036, 27134, 794434
156, 3, 372775, 24489, 370036, 27134, 794434
157, 3, 372775, 24489, 370036, 27134, 794434
158, 13, 374473, 146909, 371734, 27134, 920250
159, 3, 372775, 24489, 370036, 27134, 794434
160, 3, 372775, 24489, 370036, 27134, 794434
161, 3, 372775, 24489, 370036, 27134, 794434
162, 3, 372775, 24489, 370036, 27134, 794434
163, 40, 379437, 477443, 376698, 27134, 1260712
164, 21, 377446, 244845, 374707, 27134, 1024132
165, 150, 407266, 1824063, 404527, 27134, 2662990
166, 8, 373736, 85699, 370997, 27134, 857566
167, 6, 373438, 61215, 370699, 27134, 832486
168, 8, 373880, 85699, 371141, 27134, 857854
169, 14, 375206, 159151, 372467, 27134, 933958
170, 23, 377195, 269329, 374456, 27134, 1048114
171, 17, 375917, 195877, 373178, 27134, 972106
172, 7, 373435, 73457, 370696, 27134, 844722
173, 40, 381588, 477443, 378849, 27134, 1265014
174, 3, 372775, 24489, 370036, 27134, 794434
175, 3, 372775, 24489, 370036, 27134, 794434
176, 3, 372775, 24489, 370036, 27134, 794434
177, 3, 372775, 24489, 370036, 27134, 794434
178, 3, 372775, 24489, 370036, 27134, 794434
179, 3, 372775, 24489, 370036, 27134, 794434
180, 3, 372775, 24489, 370036, 27134, 794434
181, 3, 372775, 24489, 370036, 27134, 794434
182, 3, 372775, 24489, 370036, 27134, 794434
183, 3, 372775, 24489, 370036, 27134, 794434
