step, node, adds, subs, mults, divs, total
1.1, 5, 5602, 30, 5466, 32, 11130
1.2, 5, 5374, 10, 5258, 32, 10674
2.1, 5, 5602, 30, 5466, 32, 11130
2.2, 5, 5374, 10, 5258, 32, 10674
3.1, 5, 5602, 30, 5466, 32, 11130
3.2, 5, 5374, 10, 5258, 32, 10674
4.1, 5, 5602, 30, 5466, 32, 11130
4.2, 5, 5374, 10, 5258, 32, 10674
5.1, 5, 5602, 30, 5466, 32, 11130
5.2, 5, 5374, 10, 5258, 32, 10674
6.1, 5, 5602, 30, 5466, 32, 11130
6.2, 5, 5374, 10, 5258, 32, 10674
7.1, 5, 5602, 30, 5466, 32, 11130
7.2, 5, 5374, 10, 5258, 32, 10674
8.1, 5, 5602, 30, 5466, 32, 11130
8.2, 5, 5374, 10, 5258, 32, 10674
9.1, 5, 5602, 30, 5466, 32, 11130
9.2, 5, 5374, 10, 5258, 32, 10674
10.1, 5, 5602, 30, 5466, 32, 11130
10.2, 5, 5488, 20, 5362, 32, 10902
10.3, 5, 5488, 20, 5362, 32, 10902
10.4, 5, 5488, 20, 5362, 32, 10902
10.5, 5, 5488, 20, 5362, 32, 10902
10.6, 5, 5488, 20, 5362, 32, 10902
10.7, 5, 5488, 20, 5362, 32, 10902
11.1, 5, 5602, 30, 5466, 32, 11130
11.2, 5, 5488, 20, 5362, 32, 10902
11.3, 5, 5488, 20, 5362, 32, 10902
11.4, 5, 5488, 20, 5362, 32, 10902
12.1, 5, 5602, 30, 5466, 32, 11130
12.2, 5, 5488, 20, 5362, 32, 10902
12.3, 5, 5488, 20, 5362, 32, 10902
13.1, 5, 5602, 30, 5466, 32, 11130
13.2, 5, 5488, 20, 5362, 32, 10902
13.3, 5, 5488, 20, 5362, 32, 10902
13.4, 5, 5488, 20, 5362, 32, 10902
14.1, 5, 5602, 30, 5466, 32, 11130
14.2, 5, 5488, 20, 5362, 32, 10902
14.3, 5, 5488, 20, 5362, 32, 10902
14.4, 5, 5488, 20, 5362, 32, 10902
14.5, 5, 5488, 20, 5362, 32, 10902
14.6, 5, 5488, 20, 5362, 32, 10902
15.1, 5, 5602, 30, 5466, 32, 11130
15.2, 5, 5488, 20, 5362, 32, 10902
15.3, 5, 5488, 20, 5362, 32, 10902
15.4, 5, 5488, 20, 5362, 32, 10902
15.5, 5, 8566, 290, 8170, 32, 17058
15.6, 5, 6628, 120, 6402, 32, 13182
15.7, 5, 5830, 50, 5674, 32, 11586
15.8, 5, 5602, 30, 5466, 32, 11130
15.9, 5, 5488, 20, 5362, 32, 10902
15.10, 5, 5488, 20, 5362, 32, 10902
15.11, 5, 5488, 20, 5362, 32, 10902
16.1, 5, 5602, 30, 5466, 32, 11130
16.2, 5, 5488, 20, 5362, 32, 10902
16.3, 5, 5488, 20, 5362, 32, 10902
16.4, 5, 5488, 20, 5362, 32, 10902
16.5, 5, 5488, 20, 5362, 32, 10902
17.1, 5, 5602, 30, 5466, 32, 11130
17.2, 5, 5488, 20, 5362, 32, 10902
17.3, 5, 5374, 10, 5258, 32, 10674
18.1, 5, 5830, 50, 5674, 32, 11586
18.2, 5, 5602, 30, 5466, 32, 11130
18.3, 5, 5488, 20, 5362, 32, 10902
18.4, 5, 5488, 20, 5362, 32, 10902
18.5, 5, 5488, 20, 5362, 32, 10902
18.6, 5, 5488, 20, 5362, 32, 10902
19.1, 5, 6514, 110, 6298, 32, 12954
19.2, 5, 5830, 50, 5674, 32, 11586
19.3, 5, 5716, 40, 5570, 32, 11358
19.4, 5, 5602, 30, 5466, 32, 11130
20.1, 5, 9934, 410, 9418, 32, 19794
20.2, 5, 7084, 160, 6818, 32, 14094
20.3, 5, 6172, 80, 5986, 32, 12270
20.4, 5, 5830, 50, 5674, 32, 11586
20.5, 5, 5716, 40, 5570, 32, 11358
21.1, 5, 5944, 60, 5778, 32, 11814
21.2, 5, 5602, 30, 5466, 32, 11130
21.3, 5, 5488, 20, 5362, 32, 10902
21.4, 5, 5488, 20, 5362, 32, 10902
22.1, 5, 5602, 30, 5466, 32, 11130
22.2, 5, 5488, 20, 5362, 32, 10902
22.3, 5, 5488, 20, 5362, 32, 10902
22.4, 5, 5374, 10, 5258, 32, 10674
23.1, 5, 5602, 30, 5466, 32, 11130
23.2, 5, 5488, 20, 5362, 32, 10902
23.3, 5, 5488, 20, 5362, 32, 10902
23.4, 5, 5488, 20, 5362, 32, 10902
23.5, 5, 5488, 20, 5362, 32, 10902
24.1, 5, 5716, 40, 5570, 32, 11358
24.2, 5, 5488, 20, 5362, 32, 10902
24.3, 5, 5488, 20, 5362, 32, 10902
24.4, 5, 5488, 20, 5362, 32, 10902
24.5, 5, 5488, 20, 5362, 32, 10902
25.1, 5, 5602, 30, 5466, 32, 11130
25.2, 5, 5488, 20, 5362, 32, 10902
25.3, 5, 5488, 20, 5362, 32, 10902
25.4, 5, 5488, 20, 5362, 32, 10902
26.1, 5, 5602, 30, 5466, 32, 11130
26.2, 5, 5488, 20, 5362, 32, 10902
26.3, 5, 5488, 20, 5362, 32, 10902
26.4, 5, 5374, 10, 5258, 32, 10674
27.1, 5, 5602, 30, 5466, 32, 11130
27.2, 5, 5488, 20, 5362, 32, 10902
27.3, 5, 5488, 20, 5362, 32, 10902
27.4, 5, 5488, 20, 5362, 32, 10902
27.5, 5, 5488, 20, 5362, 32, 10902
27.6, 5, 5602, 30, 5466, 32, 11130
27.7, 5, 5602, 30, 5466, 32, 11130
27.8, 5, 5602, 30, 5466, 32, 11130
28.1, 5, 10162, 430, 9626, 32, 20250
28.2, 5, 7198, 170, 6922, 32, 14322
28.3, 5, 6172, 80, 5986, 32, 12270
28.4, 5, 5830, 50, 5674, 32, 11586
28.5, 5, 5716, 40, 5570, 32, 11358
29.1, 5, 6058, 70, 5882, 32, 12042
29.2, 5, 5716, 40, 5570, 32, 11358
29.3, 5, 5602, 30, 5466, 32, 11130
29.4, 5, 5488, 20, 5362, 32, 10902
30.1, 5, 5716, 40, 5570, 32, 11358
30.2, 5, 5488, 20, 5362, 32, 10902
30.3, 5, 5488, 20, 5362, 32, 10902
30.4, 5, 5488, 20, 5362, 32, 10902
30.5, 5, 5374, 10, 5258, 32, 10674
31.1, 5, 5602, 30, 5466, 32, 11130
31.2, 5, 5374, 10, 5258, 32, 10674
31.3, 5, 5488, 20, 5362, 32, 10902
31.4, 5, 5488, 20, 5362, 32, 10902
31.5, 5, 5488, 20, 5362, 32, 10902
31.6, 5, 5488, 20, 5362, 32, 10902
31.7, 5, 5488, 20, 5362, 32, 10902
31.8, 5, 5488, 20, 5362, 32, 10902
31.9, 5, 5488, 20, 5362, 32, 10902
31.10, 5, 5488, 20, 5362, 32, 10902
32.1, 5, 5830, 50, 5674, 32, 11586
32.2, 5, 5488, 20, 5362, 32, 10902
32.3, 5, 5488, 20, 5362, 32, 10902
32.4, 5, 5488, 20, 5362, 32, 10902
32.5, 5, 5488, 20, 5362, 32, 10902
32.6, 5, 5488, 20, 5362, 32, 10902
33.1, 5, 5602, 30, 5466, 32, 11130
33.2, 5, 5488, 20, 5362, 32, 10902
33.3, 5, 5488, 20, 5362, 32, 10902
33.4, 5, 5488, 20, 5362, 32, 10902
34.1, 5, 5602, 30, 5466, 32, 11130
34.2, 5, 5488, 20, 5362, 32, 10902
34.3, 5, 5488, 20, 5362, 32, 10902
34.4, 5, 5488, 20, 5362, 32, 10902
34.5, 5, 5488, 20, 5362, 32, 10902
34.6, 5, 5374, 10, 5258, 32, 10674
35.1, 5, 5602, 30, 5466, 32, 11130
35.2, 5, 5374, 10, 5258, 32, 10674
35.3, 5, 5374, 10, 5258, 32, 10674
35.4, 5, 5488, 20, 5362, 32, 10902
35.5, 5, 5488, 20, 5362, 32, 10902
35.6, 5, 5488, 20, 5362, 32, 10902
35.7, 5, 5488, 20, 5362, 32, 10902
35.8, 5, 5488, 20, 5362, 32, 10902
35.9, 5, 5488, 20, 5362, 32, 10902
35.10, 5, 5488, 20, 5362, 32, 10902
35.11, 5, 5488, 20, 5362, 32, 10902
36.1, 5, 5602, 30, 5466, 32, 11130
36.2, 5, 5488, 20, 5362, 32, 10902
36.3, 5, 5374, 10, 5258, 32, 10674
37.1, 5, 5602, 30, 5466, 32, 11130
37.2, 5, 5374, 10, 5258, 32, 10674
38.1, 5, 5602, 30, 5466, 32, 11130
38.2, 5, 5488, 20, 5362, 32, 10902
38.3, 5, 5488, 20, 5362, 32, 10902
38.4, 5, 5488, 20, 5362, 32, 10902
38.5, 5, 5488, 20, 5362, 32, 10902
38.6, 5, 12214, 610, 11498, 32, 24354
38.7, 5, 7882, 230, 7546, 32, 15690
38.8, 5, 6400, 100, 6194, 32, 12726
38.9, 5, 5830, 50, 5674, 32, 11586
38.10, 5, 5602, 30, 5466, 32, 11130
38.11, 5, 5488, 20, 5362, 32, 10902
39.1, 5, 5602, 30, 5466, 32, 11130
39.2, 5, 5374, 10, 5258, 32, 10674
40.1, 5, 5602, 30, 5466, 32, 11130
40.2, 5, 5488, 20, 5362, 32, 10902
40.3, 5, 5374, 10, 5258, 32, 10674
41.1, 5, 5602, 30, 5466, 32, 11130
41.2, 5, 9250, 350, 8794, 32, 18426
41.3, 5, 6856, 140, 6610, 32, 13638
41.4, 5, 5944, 60, 5778, 32, 11814
41.5, 5, 5602, 30, 5466, 32, 11130
41.6, 5, 5488, 20, 5362, 32, 10902
41.7, 5, 5488, 20, 5362, 32, 10902
41.8, 5, 5488, 20, 5362, 32, 10902
42.1, 5, 6172, 80, 5986, 32, 12270
42.2, 5, 5716, 40, 5570, 32, 11358
42.3, 5, 5602, 30, 5466, 32, 11130
42.4, 5, 5602, 30, 5466, 32, 11130
43.1, 5, 7654, 210, 7338, 32, 15234
43.2, 5, 6286, 90, 6090, 32, 12498
43.3, 5, 5830, 50, 5674, 32, 11586
43.4, 5, 5716, 40, 5570, 32, 11358
43.5, 5, 5602, 30, 5466, 32, 11130
44.1, 5, 6058, 70, 5882, 32, 12042
44.2, 5, 5716, 40, 5570, 32, 11358
44.3, 5, 5602, 30, 5466, 32, 11130
44.4, 5, 5488, 20, 5362, 32, 10902
45.1, 5, 5716, 40, 5570, 32, 11358
45.2, 5, 5488, 20, 5362, 32, 10902
45.3, 5, 5488, 20, 5362, 32, 10902
45.4, 5, 5488, 20, 5362, 32, 10902
45.5, 5, 5374, 10, 5258, 32, 10674
46.1, 5, 5602, 30, 5466, 32, 11130
46.2, 5, 5374, 10, 5258, 32, 10674
46.3, 5, 5488, 20, 5362, 32, 10902
46.4, 5, 5488, 20, 5362, 32, 10902
46.5, 5, 5488, 20, 5362, 32, 10902
46.6, 5, 5488, 20, 5362, 32, 10902
46.7, 5, 5488, 20, 5362, 32, 10902
46.8, 5, 5488, 20, 5362, 32, 10902
46.9, 5, 5488, 20, 5362, 32, 10902
46.10, 5, 5488, 20, 5362, 32, 10902
47.1, 5, 5830, 50, 5674, 32, 11586
47.2, 5, 5488, 20, 5362, 32, 10902
47.3, 5, 5488, 20, 5362, 32, 10902
47.4, 5, 5488, 20, 5362, 32, 10902
47.5, 5, 5488, 20, 5362, 32, 10902
47.6, 5, 5488, 20, 5362, 32, 10902
48.1, 5, 5602, 30, 5466, 32, 11130
48.2, 5, 5488, 20, 5362, 32, 10902
48.3, 5, 5488, 20, 5362, 32, 10902
48.4, 5, 5488, 20, 5362, 32, 10902
49.1, 5, 5602, 30, 5466, 32, 11130
49.2, 5, 5488, 20, 5362, 32, 10902
49.3, 5, 5488, 20, 5362, 32, 10902
49.4, 5, 5488, 20, 5362, 32, 10902
49.5, 5, 5488, 20, 5362, 32, 10902
49.6, 5, 5488, 20, 5362, 32, 10902
49.7, 5, 5374, 10, 5258, 32, 10674
50.1, 5, 5602, 30, 5466, 32, 11130
50.2, 5, 5374, 10, 5258, 32, 10674
50.3, 5, 5374, 10, 5258, 32, 10674
50.4, 5, 5488, 20, 5362, 32, 10902
50.5, 5, 5488, 20, 5362, 32, 10902
50.6, 5, 5488, 20, 5362, 32, 10902
50.7, 5, 5488, 20, 5362, 32, 10902
50.8, 5, 5488, 20, 5362, 32, 10902
50.9, 5, 5488, 20, 5362, 32, 10902
50.10, 5, 5488, 20, 5362, 32, 10902
50.11, 5, 5488, 20, 5362, 32, 10902
51.1, 5, 5602, 30, 5466, 32, 11130
51.2, 5, 5488, 20, 5362, 32, 10902
51.3, 5, 5374, 10, 5258, 32, 10674
52.1, 5, 5602, 30, 5466, 32, 11130
52.2, 5, 5374, 10, 5258, 32, 10674
53.1, 5, 5602, 30, 5466, 32, 11130
53.2, 5, 5488, 20, 5362, 32, 10902
53.3, 5, 5488, 20, 5362, 32, 10902
53.4, 5, 5488, 20, 5362, 32, 10902
53.5, 5, 5488, 20, 5362, 32, 10902
53.6, 5, 5488, 20, 5362, 32, 10902
53.7, 5, 5602, 30, 5466, 32, 11130
53.8, 5, 5488, 20, 5362, 32, 10902
53.9, 5, 5488, 20, 5362, 32, 10902
53.10, 5, 5488, 20, 5362, 32, 10902
54.1, 5, 8338, 270, 7962, 32, 16602
54.2, 5, 6514, 110, 6298, 32, 12954
54.3, 5, 5944, 60, 5778, 32, 11814
54.4, 5, 5716, 40, 5570, 32, 11358
54.5, 5, 5602, 30, 5466, 32, 11130
55.1, 5, 6628, 120, 6402, 32, 13182
55.2, 5, 5944, 60, 5778, 32, 11814
55.3, 5, 5716, 40, 5570, 32, 11358
55.4, 5, 5602, 30, 5466, 32, 11130
56.1, 5, 5830, 50, 5674, 32, 11586
56.2, 5, 5602, 30, 5466, 32, 11130
56.3, 5, 5488, 20, 5362, 32, 10902
56.4, 5, 5488, 20, 5362, 32, 10902
56.5, 5, 5488, 20, 5362, 32, 10902
57.1, 5, 5602, 30, 5466, 32, 11130
57.2, 5, 5488, 20, 5362, 32, 10902
57.3, 5, 5488, 20, 5362, 32, 10902
57.4, 5, 5488, 20, 5362, 32, 10902
57.5, 5, 5488, 20, 5362, 32, 10902
57.6, 5, 5488, 20, 5362, 32, 10902
57.7, 5, 5488, 20, 5362, 32, 10902
57.8, 5, 5488, 20, 5362, 32, 10902
57.9, 5, 5374, 10, 5258, 32, 10674
58.1, 5, 5602, 30, 5466, 32, 11130
58.2, 5, 5488, 20, 5362, 32, 10902
58.3, 5, 5488, 20, 5362, 32, 10902
58.4, 5, 5488, 20, 5362, 32, 10902
59.1, 5, 5602, 30, 5466, 32, 11130
59.2, 5, 5488, 20, 5362, 32, 10902
59.3, 5, 5488, 20, 5362, 32, 10902
59.4, 5, 5488, 20, 5362, 32, 10902
60.1, 5, 5602, 30, 5466, 32, 11130
60.2, 5, 5488, 20, 5362, 32, 10902
60.3, 5, 5488, 20, 5362, 32, 10902
60.4, 5, 5488, 20, 5362, 32, 10902
61.1, 5, 5602, 30, 5466, 32, 11130
61.2, 5, 5488, 20, 5362, 32, 10902
61.3, 5, 5488, 20, 5362, 32, 10902
61.4, 5, 5488, 20, 5362, 32, 10902
61.5, 5, 5374, 10, 5258, 32, 10674
62.1, 5, 5602, 30, 5466, 32, 11130
62.2, 5, 5488, 20, 5362, 32, 10902
62.3, 5, 5716, 40, 5570, 32, 11358
62.4, 5, 5602, 30, 5466, 32, 11130
63.1, 5, 7882, 230, 7546, 32, 15690
63.2, 5, 6400, 100, 6194, 32, 12726
63.3, 5, 5830, 50, 5674, 32, 11586
63.4, 5, 5716, 40, 5570, 32, 11358
63.5, 5, 5602, 30, 5466, 32, 11130
64.1, 5, 5944, 60, 5778, 32, 11814
64.2, 5, 5602, 30, 5466, 32, 11130
64.3, 5, 5602, 30, 5466, 32, 11130
64.4, 5, 5488, 20, 5362, 32, 10902
65.1, 5, 5602, 30, 5466, 32, 11130
65.2, 5, 5488, 20, 5362, 32, 10902
65.3, 5, 5488, 20, 5362, 32, 10902
65.4, 5, 5374, 10, 5258, 32, 10674
66.1, 5, 5602, 30, 5466, 32, 11130
66.2, 5, 5488, 20, 5362, 32, 10902
66.3, 5, 5488, 20, 5362, 32, 10902
66.4, 5, 5488, 20, 5362, 32, 10902
66.5, 5, 5488, 20, 5362, 32, 10902
66.6, 5, 5488, 20, 5362, 32, 10902
66.7, 5, 5488, 20, 5362, 32, 10902
67.1, 5, 5716, 40, 5570, 32, 11358
67.2, 5, 5488, 20, 5362, 32, 10902
67.3, 5, 5488, 20, 5362, 32, 10902
67.4, 5, 5488, 20, 5362, 32, 10902
67.5, 5, 5488, 20, 5362, 32, 10902
68.1, 5, 5602, 30, 5466, 32, 11130
68.2, 5, 5488, 20, 5362, 32, 10902
68.3, 5, 5488, 20, 5362, 32, 10902
68.4, 5, 5488, 20, 5362, 32, 10902
69.1, 5, 5602, 30, 5466, 32, 11130
69.2, 5, 5488, 20, 5362, 32, 10902
69.3, 5, 5488, 20, 5362, 32, 10902
69.4, 5, 5488, 20, 5362, 32, 10902
69.5, 5, 5374, 10, 5258, 32, 10674
70.1, 5, 5602, 30, 5466, 32, 11130
70.2, 5, 5488, 20, 5362, 32, 10902
70.3, 5, 5488, 20, 5362, 32, 10902
70.4, 5, 5602, 30, 5466, 32, 11130
70.5, 5, 5602, 30, 5466, 32, 11130
70.6, 5, 5488, 20, 5362, 32, 10902
71.1, 5, 10960, 500, 10354, 32, 21846
71.2, 5, 7426, 190, 7130, 32, 14778
71.3, 5, 6286, 90, 6090, 32, 12498
71.4, 5, 5830, 50, 5674, 32, 11586
71.5, 5, 5716, 40, 5570, 32, 11358
71.6, 5, 5602, 30, 5466, 32, 11130
72.1, 5, 6172, 80, 5986, 32, 12270
72.2, 5, 5716, 40, 5570, 32, 11358
72.3, 5, 5602, 30, 5466, 32, 11130
72.4, 5, 5602, 30, 5466, 32, 11130
73.1, 5, 5716, 40, 5570, 32, 11358
73.2, 5, 5488, 20, 5362, 32, 10902
73.3, 5, 5488, 20, 5362, 32, 10902
73.4, 5, 5488, 20, 5362, 32, 10902
73.5, 5, 5488, 20, 5362, 32, 10902
73.6, 5, 5374, 10, 5258, 32, 10674
74.1, 5, 5602, 30, 5466, 32, 11130
74.2, 5, 5488, 20, 5362, 32, 10902
74.3, 5, 5374, 10, 5258, 32, 10674
